<?xml version="1.0" encoding="UTF-8" ?>
<symbol xmlns="http://www.asahi-kasei.co.jp/akemd/akx77/symbol">

<fig	wh="80,20">
	<pin.i	pp="0,10,10,10"/>
	<poly	fill="b" p="2"	d="m 10,0 60,0 80,10 60,20 10,20"/>
	<name	rc="10,0,50,20"	d="10,0 40,0 70,0 -6,10 0,0 85,10  10,20 40,20 70,20"/>
</fig>

</symbol>
