<?xml version="1.0" encoding="UTF-8" ?>
<symbol xmlns="http://www.asahi-kasei.co.jp/akemd/akx77/symbol">

<fig wh="40,40" bp="0,20">
	<pin.i	pp="20,0,20,10"/>
	<pin.i	pp="0,20,10,20"/>
	<pin.i	pp="20,40,20,30"/>
	<pin.o	pp="40,20,30,20"/>

	<c	xy="20,20" r="10" fill="b"/>
	<line	pp="20,13,20,27" p="3"/>
	<line	pp="13,20,27,20" p="3"/>

	<name	d="10,10 20,-5 30,10 -5,20 x 45,20  10,30 20,45 30,30"/>
</fig>

</symbol>
