<?xml version="1.0" encoding="UTF-8" ?>
<symbol xmlns="http://www.asahi-kasei.co.jp/akemd/akx77/symbol">

<fig wh="80,40">
	<pin.i	pp="0,20,10,20"/>
	<pin.o	pp="80,20,70,20"/>

	<rect	rc="10,0,60,40"	fill="b"	p="2"	/>

	<poly	d="m 20,30 40,10 60,10 z" p="2" />

	<name	d="10,0 40,-3 70,0 -5,20 x 85,20 10,40 40,43 70,40"/>
</fig>

</symbol>
