﻿<?xml version="1.0" encoding="UTF-8" ?>
<symbol xmlns="http://www.asahi-kasei.co.jp/akemd/akx77/symbol">

<fig wh="80,40">
	<pin.i	pp="0,10,10,10"/>
	<pin.i	pp="0,30,10,30"/>
	<pin.o	pp="80,10,70,10"/>
	<pin.o	pp="80,30,70,30"/>

	<rect	rc="10,0,60,40"	fill="b"	p="2"	/>

	<poly	d="m 20,10 30,10 40,20 30,30 20,30 z" p="2" />
	<line	pp="40,20,60,20" p="2"/>
	<line	pp="20,20,40,20"/>

	<name	d="10,0 40,-3 70,0 -5,20 x 85,20 10,40 40,43 70,40"/>
</fig>

</symbol>
