%TF.GenerationSoftware,KiCad,Pcbnew,6.0.3-a3aad9c10e~116~ubuntu20.04.1*%
%TF.CreationDate,2022-03-31T16:15:10-05:00*%
%TF.ProjectId,audio-processor,61756469-6f2d-4707-926f-636573736f72,rev?*%
%TF.SameCoordinates,Original*%
%TF.FileFunction,Legend,Bot*%
%TF.FilePolarity,Positive*%
%FSLAX46Y46*%
G04 Gerber Fmt 4.6, Leading zero omitted, Abs format (unit mm)*
G04 Created by KiCad (PCBNEW 6.0.3-a3aad9c10e~116~ubuntu20.04.1) date 2022-03-31 16:15:10*
%MOMM*%
%LPD*%
G01*
G04 APERTURE LIST*
%ADD10C,0.200000*%
%ADD11C,0.300000*%
%ADD12C,0.150000*%
%ADD13C,0.120000*%
G04 APERTURE END LIST*
D10*
X129451304Y-48026580D02*
X129451304Y-47026580D01*
X129070352Y-47026580D01*
X128975114Y-47074200D01*
X128927495Y-47121819D01*
X128879876Y-47217057D01*
X128879876Y-47359914D01*
X128927495Y-47455152D01*
X128975114Y-47502771D01*
X129070352Y-47550390D01*
X129451304Y-47550390D01*
X128546542Y-47026580D02*
X127879876Y-47026580D01*
X128546542Y-48026580D01*
X127879876Y-48026580D01*
X127546542Y-47121819D02*
X127498923Y-47074200D01*
X127403685Y-47026580D01*
X127165590Y-47026580D01*
X127070352Y-47074200D01*
X127022733Y-47121819D01*
X126975114Y-47217057D01*
X126975114Y-47312295D01*
X127022733Y-47455152D01*
X127594161Y-48026580D01*
X126975114Y-48026580D01*
X129451304Y-50566580D02*
X129451304Y-49566580D01*
X129070352Y-49566580D01*
X128975114Y-49614200D01*
X128927495Y-49661819D01*
X128879876Y-49757057D01*
X128879876Y-49899914D01*
X128927495Y-49995152D01*
X128975114Y-50042771D01*
X129070352Y-50090390D01*
X129451304Y-50090390D01*
X128546542Y-49566580D02*
X127879876Y-49566580D01*
X128546542Y-50566580D01*
X127879876Y-50566580D01*
X127594161Y-49566580D02*
X126975114Y-49566580D01*
X127308447Y-49947533D01*
X127165590Y-49947533D01*
X127070352Y-49995152D01*
X127022733Y-50042771D01*
X126975114Y-50138009D01*
X126975114Y-50376104D01*
X127022733Y-50471342D01*
X127070352Y-50518961D01*
X127165590Y-50566580D01*
X127451304Y-50566580D01*
X127546542Y-50518961D01*
X127594161Y-50471342D01*
X128927495Y-54948200D02*
X129022733Y-54900580D01*
X129165590Y-54900580D01*
X129308447Y-54948200D01*
X129403685Y-55043438D01*
X129451304Y-55138676D01*
X129498923Y-55329152D01*
X129498923Y-55472009D01*
X129451304Y-55662485D01*
X129403685Y-55757723D01*
X129308447Y-55852961D01*
X129165590Y-55900580D01*
X129070352Y-55900580D01*
X128927495Y-55852961D01*
X128879876Y-55805342D01*
X128879876Y-55472009D01*
X129070352Y-55472009D01*
X128451304Y-55900580D02*
X128451304Y-54900580D01*
X127879876Y-55900580D01*
X127879876Y-54900580D01*
X127403685Y-55900580D02*
X127403685Y-54900580D01*
X127165590Y-54900580D01*
X127022733Y-54948200D01*
X126927495Y-55043438D01*
X126879876Y-55138676D01*
X126832257Y-55329152D01*
X126832257Y-55472009D01*
X126879876Y-55662485D01*
X126927495Y-55757723D01*
X127022733Y-55852961D01*
X127165590Y-55900580D01*
X127403685Y-55900580D01*
X129387828Y-39152580D02*
X129197352Y-39152580D01*
X129102114Y-39200200D01*
X129006876Y-39295438D01*
X128959257Y-39485914D01*
X128959257Y-39819247D01*
X129006876Y-40009723D01*
X129102114Y-40104961D01*
X129197352Y-40152580D01*
X129387828Y-40152580D01*
X129483066Y-40104961D01*
X129578304Y-40009723D01*
X129625923Y-39819247D01*
X129625923Y-39485914D01*
X129578304Y-39295438D01*
X129483066Y-39200200D01*
X129387828Y-39152580D01*
X128530685Y-39152580D02*
X128530685Y-39962104D01*
X128483066Y-40057342D01*
X128435447Y-40104961D01*
X128340209Y-40152580D01*
X128149733Y-40152580D01*
X128054495Y-40104961D01*
X128006876Y-40057342D01*
X127959257Y-39962104D01*
X127959257Y-39152580D01*
X127625923Y-39152580D02*
X127054495Y-39152580D01*
X127340209Y-40152580D02*
X127340209Y-39152580D01*
X74518828Y-58683771D02*
X74471209Y-58540914D01*
X74423590Y-58493295D01*
X74328352Y-58445676D01*
X74185495Y-58445676D01*
X74090257Y-58493295D01*
X74042638Y-58540914D01*
X73995019Y-58636152D01*
X73995019Y-59017104D01*
X74995019Y-59017104D01*
X74995019Y-58683771D01*
X74947400Y-58588533D01*
X74899780Y-58540914D01*
X74804542Y-58493295D01*
X74709304Y-58493295D01*
X74614066Y-58540914D01*
X74566447Y-58588533D01*
X74518828Y-58683771D01*
X74518828Y-59017104D01*
X74280733Y-58064723D02*
X74280733Y-57588533D01*
X73995019Y-58159961D02*
X74995019Y-57826628D01*
X73995019Y-57493295D01*
X74995019Y-57302819D02*
X74995019Y-56731390D01*
X73995019Y-57017104D02*
X74995019Y-57017104D01*
X74995019Y-56540914D02*
X74995019Y-55969485D01*
X73995019Y-56255200D02*
X74995019Y-56255200D01*
X72534400Y-58493295D02*
X72582019Y-58588533D01*
X72582019Y-58731390D01*
X72534400Y-58874247D01*
X72439161Y-58969485D01*
X72343923Y-59017104D01*
X72153447Y-59064723D01*
X72010590Y-59064723D01*
X71820114Y-59017104D01*
X71724876Y-58969485D01*
X71629638Y-58874247D01*
X71582019Y-58731390D01*
X71582019Y-58636152D01*
X71629638Y-58493295D01*
X71677257Y-58445676D01*
X72010590Y-58445676D01*
X72010590Y-58636152D01*
X71582019Y-58017104D02*
X72582019Y-58017104D01*
X71582019Y-57445676D01*
X72582019Y-57445676D01*
X71582019Y-56969485D02*
X72582019Y-56969485D01*
X72582019Y-56731390D01*
X72534400Y-56588533D01*
X72439161Y-56493295D01*
X72343923Y-56445676D01*
X72153447Y-56398057D01*
X72010590Y-56398057D01*
X71820114Y-56445676D01*
X71724876Y-56493295D01*
X71629638Y-56588533D01*
X71582019Y-56731390D01*
X71582019Y-56969485D01*
D11*
X8897542Y-59214057D02*
X8897542Y-58714057D01*
X8111828Y-58499771D02*
X8111828Y-59214057D01*
X9611828Y-59214057D01*
X9611828Y-58499771D01*
X9611828Y-58071200D02*
X8111828Y-57571200D01*
X9611828Y-57071200D01*
X8111828Y-56571200D02*
X9111828Y-56571200D01*
X9611828Y-56571200D02*
X9540400Y-56642628D01*
X9468971Y-56571200D01*
X9540400Y-56499771D01*
X9611828Y-56571200D01*
X9468971Y-56571200D01*
X8111828Y-55642628D02*
X8183257Y-55785485D01*
X8254685Y-55856914D01*
X8397542Y-55928342D01*
X8826114Y-55928342D01*
X8968971Y-55856914D01*
X9040400Y-55785485D01*
X9111828Y-55642628D01*
X9111828Y-55428342D01*
X9040400Y-55285485D01*
X8968971Y-55214057D01*
X8826114Y-55142628D01*
X8397542Y-55142628D01*
X8254685Y-55214057D01*
X8183257Y-55285485D01*
X8111828Y-55428342D01*
X8111828Y-55642628D01*
X8111828Y-54285485D02*
X8183257Y-54428342D01*
X8326114Y-54499771D01*
X9611828Y-54499771D01*
X8111828Y-53714057D02*
X9111828Y-53714057D01*
X9611828Y-53714057D02*
X9540400Y-53785485D01*
X9468971Y-53714057D01*
X9540400Y-53642628D01*
X9611828Y-53714057D01*
X9468971Y-53714057D01*
X9111828Y-52999771D02*
X8111828Y-52999771D01*
X8968971Y-52999771D02*
X9040400Y-52928342D01*
X9111828Y-52785485D01*
X9111828Y-52571200D01*
X9040400Y-52428342D01*
X8897542Y-52356914D01*
X8111828Y-52356914D01*
X8540400Y-50571200D02*
X8540400Y-49856914D01*
X8111828Y-50714057D02*
X9611828Y-50214057D01*
X8111828Y-49714057D01*
X9111828Y-48571200D02*
X8111828Y-48571200D01*
X9111828Y-49214057D02*
X8326114Y-49214057D01*
X8183257Y-49142628D01*
X8111828Y-48999771D01*
X8111828Y-48785485D01*
X8183257Y-48642628D01*
X8254685Y-48571200D01*
X8111828Y-47214057D02*
X9611828Y-47214057D01*
X8183257Y-47214057D02*
X8111828Y-47356914D01*
X8111828Y-47642628D01*
X8183257Y-47785485D01*
X8254685Y-47856914D01*
X8397542Y-47928342D01*
X8826114Y-47928342D01*
X8968971Y-47856914D01*
X9040400Y-47785485D01*
X9111828Y-47642628D01*
X9111828Y-47356914D01*
X9040400Y-47214057D01*
X8111828Y-46499771D02*
X9111828Y-46499771D01*
X9611828Y-46499771D02*
X9540400Y-46571200D01*
X9468971Y-46499771D01*
X9540400Y-46428342D01*
X9611828Y-46499771D01*
X9468971Y-46499771D01*
X8111828Y-45571200D02*
X8183257Y-45714057D01*
X8254685Y-45785485D01*
X8397542Y-45856914D01*
X8826114Y-45856914D01*
X8968971Y-45785485D01*
X9040400Y-45714057D01*
X9111828Y-45571200D01*
X9111828Y-45356914D01*
X9040400Y-45214057D01*
X8968971Y-45142628D01*
X8826114Y-45071200D01*
X8397542Y-45071200D01*
X8254685Y-45142628D01*
X8183257Y-45214057D01*
X8111828Y-45356914D01*
X8111828Y-45571200D01*
X8111828Y-43285485D02*
X9611828Y-43285485D01*
X9611828Y-42714057D01*
X9540400Y-42571200D01*
X9468971Y-42499771D01*
X9326114Y-42428342D01*
X9111828Y-42428342D01*
X8968971Y-42499771D01*
X8897542Y-42571200D01*
X8826114Y-42714057D01*
X8826114Y-43285485D01*
X8111828Y-41785485D02*
X9111828Y-41785485D01*
X8826114Y-41785485D02*
X8968971Y-41714057D01*
X9040400Y-41642628D01*
X9111828Y-41499771D01*
X9111828Y-41356914D01*
X8111828Y-40642628D02*
X8183257Y-40785485D01*
X8254685Y-40856914D01*
X8397542Y-40928342D01*
X8826114Y-40928342D01*
X8968971Y-40856914D01*
X9040400Y-40785485D01*
X9111828Y-40642628D01*
X9111828Y-40428342D01*
X9040400Y-40285485D01*
X8968971Y-40214057D01*
X8826114Y-40142628D01*
X8397542Y-40142628D01*
X8254685Y-40214057D01*
X8183257Y-40285485D01*
X8111828Y-40428342D01*
X8111828Y-40642628D01*
X8183257Y-38856914D02*
X8111828Y-38999771D01*
X8111828Y-39285485D01*
X8183257Y-39428342D01*
X8254685Y-39499771D01*
X8397542Y-39571200D01*
X8826114Y-39571200D01*
X8968971Y-39499771D01*
X9040400Y-39428342D01*
X9111828Y-39285485D01*
X9111828Y-38999771D01*
X9040400Y-38856914D01*
X8183257Y-37642628D02*
X8111828Y-37785485D01*
X8111828Y-38071200D01*
X8183257Y-38214057D01*
X8326114Y-38285485D01*
X8897542Y-38285485D01*
X9040400Y-38214057D01*
X9111828Y-38071200D01*
X9111828Y-37785485D01*
X9040400Y-37642628D01*
X8897542Y-37571200D01*
X8754685Y-37571200D01*
X8611828Y-38285485D01*
X8183257Y-36999771D02*
X8111828Y-36856914D01*
X8111828Y-36571200D01*
X8183257Y-36428342D01*
X8326114Y-36356914D01*
X8397542Y-36356914D01*
X8540400Y-36428342D01*
X8611828Y-36571200D01*
X8611828Y-36785485D01*
X8683257Y-36928342D01*
X8826114Y-36999771D01*
X8897542Y-36999771D01*
X9040400Y-36928342D01*
X9111828Y-36785485D01*
X9111828Y-36571200D01*
X9040400Y-36428342D01*
X8183257Y-35785485D02*
X8111828Y-35642628D01*
X8111828Y-35356914D01*
X8183257Y-35214057D01*
X8326114Y-35142628D01*
X8397542Y-35142628D01*
X8540400Y-35214057D01*
X8611828Y-35356914D01*
X8611828Y-35571200D01*
X8683257Y-35714057D01*
X8826114Y-35785485D01*
X8897542Y-35785485D01*
X9040400Y-35714057D01*
X9111828Y-35571200D01*
X9111828Y-35356914D01*
X9040400Y-35214057D01*
X8111828Y-34285485D02*
X8183257Y-34428342D01*
X8254685Y-34499771D01*
X8397542Y-34571200D01*
X8826114Y-34571200D01*
X8968971Y-34499771D01*
X9040400Y-34428342D01*
X9111828Y-34285485D01*
X9111828Y-34071200D01*
X9040400Y-33928342D01*
X8968971Y-33856914D01*
X8826114Y-33785485D01*
X8397542Y-33785485D01*
X8254685Y-33856914D01*
X8183257Y-33928342D01*
X8111828Y-34071200D01*
X8111828Y-34285485D01*
X8111828Y-33142628D02*
X9111828Y-33142628D01*
X8826114Y-33142628D02*
X8968971Y-33071200D01*
X9040400Y-32999771D01*
X9111828Y-32856914D01*
X9111828Y-32714057D01*
X5696828Y-58356914D02*
X6411114Y-58856914D01*
X5696828Y-59214057D02*
X7196828Y-59214057D01*
X7196828Y-58642628D01*
X7125400Y-58499771D01*
X7053971Y-58428342D01*
X6911114Y-58356914D01*
X6696828Y-58356914D01*
X6553971Y-58428342D01*
X6482542Y-58499771D01*
X6411114Y-58642628D01*
X6411114Y-59214057D01*
X5768257Y-57142628D02*
X5696828Y-57285485D01*
X5696828Y-57571200D01*
X5768257Y-57714057D01*
X5911114Y-57785485D01*
X6482542Y-57785485D01*
X6625400Y-57714057D01*
X6696828Y-57571200D01*
X6696828Y-57285485D01*
X6625400Y-57142628D01*
X6482542Y-57071200D01*
X6339685Y-57071200D01*
X6196828Y-57785485D01*
X6696828Y-56571200D02*
X5696828Y-56214057D01*
X6696828Y-55856914D01*
X5839685Y-55285485D02*
X5768257Y-55214057D01*
X5696828Y-55285485D01*
X5768257Y-55356914D01*
X5839685Y-55285485D01*
X5696828Y-55285485D01*
X7196828Y-53142628D02*
X7196828Y-52999771D01*
X7125400Y-52856914D01*
X7053971Y-52785485D01*
X6911114Y-52714057D01*
X6625400Y-52642628D01*
X6268257Y-52642628D01*
X5982542Y-52714057D01*
X5839685Y-52785485D01*
X5768257Y-52856914D01*
X5696828Y-52999771D01*
X5696828Y-53142628D01*
X5768257Y-53285485D01*
X5839685Y-53356914D01*
X5982542Y-53428342D01*
X6268257Y-53499771D01*
X6625400Y-53499771D01*
X6911114Y-53428342D01*
X7053971Y-53356914D01*
X7125400Y-53285485D01*
X7196828Y-53142628D01*
X5839685Y-51999771D02*
X5768257Y-51928342D01*
X5696828Y-51999771D01*
X5768257Y-52071200D01*
X5839685Y-51999771D01*
X5696828Y-51999771D01*
X7053971Y-51356914D02*
X7125400Y-51285485D01*
X7196828Y-51142628D01*
X7196828Y-50785485D01*
X7125400Y-50642628D01*
X7053971Y-50571200D01*
X6911114Y-50499771D01*
X6768257Y-50499771D01*
X6553971Y-50571200D01*
X5696828Y-51428342D01*
X5696828Y-50499771D01*
X5125400Y-48285485D02*
X5196828Y-48356914D01*
X5411114Y-48499771D01*
X5553971Y-48571200D01*
X5768257Y-48642628D01*
X6125400Y-48714057D01*
X6411114Y-48714057D01*
X6768257Y-48642628D01*
X6982542Y-48571200D01*
X7125400Y-48499771D01*
X7339685Y-48356914D01*
X7411114Y-48285485D01*
X7053971Y-47785485D02*
X7125400Y-47714057D01*
X7196828Y-47571200D01*
X7196828Y-47214057D01*
X7125400Y-47071200D01*
X7053971Y-46999771D01*
X6911114Y-46928342D01*
X6768257Y-46928342D01*
X6553971Y-46999771D01*
X5696828Y-47856914D01*
X5696828Y-46928342D01*
X7196828Y-45999771D02*
X7196828Y-45856914D01*
X7125400Y-45714057D01*
X7053971Y-45642628D01*
X6911114Y-45571200D01*
X6625400Y-45499771D01*
X6268257Y-45499771D01*
X5982542Y-45571200D01*
X5839685Y-45642628D01*
X5768257Y-45714057D01*
X5696828Y-45856914D01*
X5696828Y-45999771D01*
X5768257Y-46142628D01*
X5839685Y-46214057D01*
X5982542Y-46285485D01*
X6268257Y-46356914D01*
X6625400Y-46356914D01*
X6911114Y-46285485D01*
X7053971Y-46214057D01*
X7125400Y-46142628D01*
X7196828Y-45999771D01*
X7053971Y-44928342D02*
X7125400Y-44856914D01*
X7196828Y-44714057D01*
X7196828Y-44356914D01*
X7125400Y-44214057D01*
X7053971Y-44142628D01*
X6911114Y-44071200D01*
X6768257Y-44071200D01*
X6553971Y-44142628D01*
X5696828Y-44999771D01*
X5696828Y-44071200D01*
X7053971Y-43499771D02*
X7125400Y-43428342D01*
X7196828Y-43285485D01*
X7196828Y-42928342D01*
X7125400Y-42785485D01*
X7053971Y-42714057D01*
X6911114Y-42642628D01*
X6768257Y-42642628D01*
X6553971Y-42714057D01*
X5696828Y-43571200D01*
X5696828Y-42642628D01*
X6268257Y-41999771D02*
X6268257Y-40856914D01*
X7196828Y-39856914D02*
X7196828Y-39714057D01*
X7125400Y-39571200D01*
X7053971Y-39499771D01*
X6911114Y-39428342D01*
X6625400Y-39356914D01*
X6268257Y-39356914D01*
X5982542Y-39428342D01*
X5839685Y-39499771D01*
X5768257Y-39571200D01*
X5696828Y-39714057D01*
X5696828Y-39856914D01*
X5768257Y-39999771D01*
X5839685Y-40071200D01*
X5982542Y-40142628D01*
X6268257Y-40214057D01*
X6625400Y-40214057D01*
X6911114Y-40142628D01*
X7053971Y-40071200D01*
X7125400Y-39999771D01*
X7196828Y-39856914D01*
X7196828Y-38856914D02*
X7196828Y-37928342D01*
X6625400Y-38428342D01*
X6625400Y-38214057D01*
X6553971Y-38071200D01*
X6482542Y-37999771D01*
X6339685Y-37928342D01*
X5982542Y-37928342D01*
X5839685Y-37999771D01*
X5768257Y-38071200D01*
X5696828Y-38214057D01*
X5696828Y-38642628D01*
X5768257Y-38785485D01*
X5839685Y-38856914D01*
X6268257Y-37285485D02*
X6268257Y-36142628D01*
X7053971Y-35499771D02*
X7125400Y-35428342D01*
X7196828Y-35285485D01*
X7196828Y-34928342D01*
X7125400Y-34785485D01*
X7053971Y-34714057D01*
X6911114Y-34642628D01*
X6768257Y-34642628D01*
X6553971Y-34714057D01*
X5696828Y-35571200D01*
X5696828Y-34642628D01*
X6696828Y-33356914D02*
X5696828Y-33356914D01*
X7268257Y-33714057D02*
X6196828Y-34071200D01*
X6196828Y-33142628D01*
X5125400Y-32714057D02*
X5196828Y-32642628D01*
X5411114Y-32499771D01*
X5553971Y-32428342D01*
X5768257Y-32356914D01*
X6125400Y-32285485D01*
X6411114Y-32285485D01*
X6768257Y-32356914D01*
X6982542Y-32428342D01*
X7125400Y-32499771D01*
X7339685Y-32642628D01*
X7411114Y-32714057D01*
X4781828Y-59356914D02*
X3281828Y-58999771D01*
X4353257Y-58714057D01*
X3281828Y-58428342D01*
X4781828Y-58071200D01*
X3353257Y-56928342D02*
X3281828Y-57071200D01*
X3281828Y-57356914D01*
X3353257Y-57499771D01*
X3496114Y-57571200D01*
X4067542Y-57571200D01*
X4210400Y-57499771D01*
X4281828Y-57356914D01*
X4281828Y-57071200D01*
X4210400Y-56928342D01*
X4067542Y-56856914D01*
X3924685Y-56856914D01*
X3781828Y-57571200D01*
X3281828Y-56214057D02*
X4281828Y-56214057D01*
X4781828Y-56214057D02*
X4710400Y-56285485D01*
X4638971Y-56214057D01*
X4710400Y-56142628D01*
X4781828Y-56214057D01*
X4638971Y-56214057D01*
X4710400Y-53571200D02*
X4781828Y-53714057D01*
X4781828Y-53928342D01*
X4710400Y-54142628D01*
X4567542Y-54285485D01*
X4424685Y-54356914D01*
X4138971Y-54428342D01*
X3924685Y-54428342D01*
X3638971Y-54356914D01*
X3496114Y-54285485D01*
X3353257Y-54142628D01*
X3281828Y-53928342D01*
X3281828Y-53785485D01*
X3353257Y-53571200D01*
X3424685Y-53499771D01*
X3924685Y-53499771D01*
X3924685Y-53785485D01*
X3281828Y-52214057D02*
X4067542Y-52214057D01*
X4210400Y-52285485D01*
X4281828Y-52428342D01*
X4281828Y-52714057D01*
X4210400Y-52856914D01*
X3353257Y-52214057D02*
X3281828Y-52356914D01*
X3281828Y-52714057D01*
X3353257Y-52856914D01*
X3496114Y-52928342D01*
X3638971Y-52928342D01*
X3781828Y-52856914D01*
X3853257Y-52714057D01*
X3853257Y-52356914D01*
X3924685Y-52214057D01*
X3281828Y-51285485D02*
X3353257Y-51428342D01*
X3424685Y-51499771D01*
X3567542Y-51571200D01*
X3996114Y-51571200D01*
X4138971Y-51499771D01*
X4210400Y-51428342D01*
X4281828Y-51285485D01*
X4281828Y-51071200D01*
X4210400Y-50928342D01*
X4138971Y-50856914D01*
X3996114Y-50785485D01*
X3567542Y-50785485D01*
X3424685Y-50856914D01*
X3353257Y-50928342D01*
X3281828Y-51071200D01*
X3281828Y-51285485D01*
X3353257Y-50071200D02*
X3281828Y-50071200D01*
X3138971Y-50142628D01*
X3067542Y-50214057D01*
X3353257Y-48356914D02*
X3281828Y-48142628D01*
X3281828Y-47785485D01*
X3353257Y-47642628D01*
X3424685Y-47571200D01*
X3567542Y-47499771D01*
X3710400Y-47499771D01*
X3853257Y-47571200D01*
X3924685Y-47642628D01*
X3996114Y-47785485D01*
X4067542Y-48071200D01*
X4138971Y-48214057D01*
X4210400Y-48285485D01*
X4353257Y-48356914D01*
X4496114Y-48356914D01*
X4638971Y-48285485D01*
X4710400Y-48214057D01*
X4781828Y-48071200D01*
X4781828Y-47714057D01*
X4710400Y-47499771D01*
X3353257Y-46214057D02*
X3281828Y-46356914D01*
X3281828Y-46642628D01*
X3353257Y-46785485D01*
X3424685Y-46856914D01*
X3567542Y-46928342D01*
X3996114Y-46928342D01*
X4138971Y-46856914D01*
X4210400Y-46785485D01*
X4281828Y-46642628D01*
X4281828Y-46356914D01*
X4210400Y-46214057D01*
X3281828Y-45356914D02*
X3353257Y-45499771D01*
X3424685Y-45571200D01*
X3567542Y-45642628D01*
X3996114Y-45642628D01*
X4138971Y-45571200D01*
X4210400Y-45499771D01*
X4281828Y-45356914D01*
X4281828Y-45142628D01*
X4210400Y-44999771D01*
X4138971Y-44928342D01*
X3996114Y-44856914D01*
X3567542Y-44856914D01*
X3424685Y-44928342D01*
X3353257Y-44999771D01*
X3281828Y-45142628D01*
X3281828Y-45356914D01*
X4281828Y-44428342D02*
X4281828Y-43856914D01*
X4781828Y-44214057D02*
X3496114Y-44214057D01*
X3353257Y-44142628D01*
X3281828Y-43999771D01*
X3281828Y-43856914D01*
X4281828Y-43571200D02*
X4281828Y-42999771D01*
X4781828Y-43356914D02*
X3496114Y-43356914D01*
X3353257Y-43285485D01*
X3281828Y-43142628D01*
X3281828Y-42999771D01*
X4067542Y-40856914D02*
X4067542Y-41356914D01*
X3281828Y-41356914D02*
X4781828Y-41356914D01*
X4781828Y-40642628D01*
X3281828Y-39856914D02*
X3353257Y-39999771D01*
X3424685Y-40071200D01*
X3567542Y-40142628D01*
X3996114Y-40142628D01*
X4138971Y-40071200D01*
X4210400Y-39999771D01*
X4281828Y-39856914D01*
X4281828Y-39642628D01*
X4210400Y-39499771D01*
X4138971Y-39428342D01*
X3996114Y-39356914D01*
X3567542Y-39356914D01*
X3424685Y-39428342D01*
X3353257Y-39499771D01*
X3281828Y-39642628D01*
X3281828Y-39856914D01*
X3353257Y-38785485D02*
X3281828Y-38642628D01*
X3281828Y-38356914D01*
X3353257Y-38214057D01*
X3496114Y-38142628D01*
X3567542Y-38142628D01*
X3710400Y-38214057D01*
X3781828Y-38356914D01*
X3781828Y-38571200D01*
X3853257Y-38714057D01*
X3996114Y-38785485D01*
X4067542Y-38785485D01*
X4210400Y-38714057D01*
X4281828Y-38571200D01*
X4281828Y-38356914D01*
X4210400Y-38214057D01*
X4281828Y-37714057D02*
X4281828Y-37142628D01*
X4781828Y-37499771D02*
X3496114Y-37499771D01*
X3353257Y-37428342D01*
X3281828Y-37285485D01*
X3281828Y-37142628D01*
X3353257Y-36071200D02*
X3281828Y-36214057D01*
X3281828Y-36499771D01*
X3353257Y-36642628D01*
X3496114Y-36714057D01*
X4067542Y-36714057D01*
X4210400Y-36642628D01*
X4281828Y-36499771D01*
X4281828Y-36214057D01*
X4210400Y-36071200D01*
X4067542Y-35999771D01*
X3924685Y-35999771D01*
X3781828Y-36714057D01*
X3281828Y-35356914D02*
X4281828Y-35356914D01*
X3996114Y-35356914D02*
X4138971Y-35285485D01*
X4210400Y-35214057D01*
X4281828Y-35071200D01*
X4281828Y-34928342D01*
X69085400Y-3477342D02*
X68871114Y-3548771D01*
X68513971Y-3548771D01*
X68371114Y-3477342D01*
X68299685Y-3405914D01*
X68228257Y-3263057D01*
X68228257Y-3120200D01*
X68299685Y-2977342D01*
X68371114Y-2905914D01*
X68513971Y-2834485D01*
X68799685Y-2763057D01*
X68942542Y-2691628D01*
X69013971Y-2620200D01*
X69085400Y-2477342D01*
X69085400Y-2334485D01*
X69013971Y-2191628D01*
X68942542Y-2120200D01*
X68799685Y-2048771D01*
X68442542Y-2048771D01*
X68228257Y-2120200D01*
X67799685Y-2048771D02*
X66942542Y-2048771D01*
X67371114Y-3548771D02*
X67371114Y-2048771D01*
X65585400Y-3548771D02*
X66085400Y-2834485D01*
X66442542Y-3548771D02*
X66442542Y-2048771D01*
X65871114Y-2048771D01*
X65728257Y-2120200D01*
X65656828Y-2191628D01*
X65585400Y-2334485D01*
X65585400Y-2548771D01*
X65656828Y-2691628D01*
X65728257Y-2763057D01*
X65871114Y-2834485D01*
X66442542Y-2834485D01*
D10*
X129451304Y-45740580D02*
X129451304Y-44740580D01*
X129070352Y-44740580D01*
X128975114Y-44788200D01*
X128927495Y-44835819D01*
X128879876Y-44931057D01*
X128879876Y-45073914D01*
X128927495Y-45169152D01*
X128975114Y-45216771D01*
X129070352Y-45264390D01*
X129451304Y-45264390D01*
X128546542Y-44740580D02*
X127879876Y-44740580D01*
X128546542Y-45740580D01*
X127879876Y-45740580D01*
X126975114Y-45740580D02*
X127546542Y-45740580D01*
X127260828Y-45740580D02*
X127260828Y-44740580D01*
X127356066Y-44883438D01*
X127451304Y-44978676D01*
X127546542Y-45026295D01*
D11*
X76240971Y-3548771D02*
X76240971Y-2048771D01*
X75669542Y-2048771D01*
X75526685Y-2120200D01*
X75455257Y-2191628D01*
X75383828Y-2334485D01*
X75383828Y-2548771D01*
X75455257Y-2691628D01*
X75526685Y-2763057D01*
X75669542Y-2834485D01*
X76240971Y-2834485D01*
X73883828Y-3548771D02*
X74383828Y-2834485D01*
X74740971Y-3548771D02*
X74740971Y-2048771D01*
X74169542Y-2048771D01*
X74026685Y-2120200D01*
X73955257Y-2191628D01*
X73883828Y-2334485D01*
X73883828Y-2548771D01*
X73955257Y-2691628D01*
X74026685Y-2763057D01*
X74169542Y-2834485D01*
X74740971Y-2834485D01*
X73312400Y-3477342D02*
X73098114Y-3548771D01*
X72740971Y-3548771D01*
X72598114Y-3477342D01*
X72526685Y-3405914D01*
X72455257Y-3263057D01*
X72455257Y-3120200D01*
X72526685Y-2977342D01*
X72598114Y-2905914D01*
X72740971Y-2834485D01*
X73026685Y-2763057D01*
X73169542Y-2691628D01*
X73240971Y-2620200D01*
X73312400Y-2477342D01*
X73312400Y-2334485D01*
X73240971Y-2191628D01*
X73169542Y-2120200D01*
X73026685Y-2048771D01*
X72669542Y-2048771D01*
X72455257Y-2120200D01*
X72026685Y-2048771D02*
X71169542Y-2048771D01*
X71598114Y-3548771D02*
X71598114Y-2048771D01*
D10*
X129451304Y-53106580D02*
X129451304Y-52106580D01*
X129070352Y-52106580D01*
X128975114Y-52154200D01*
X128927495Y-52201819D01*
X128879876Y-52297057D01*
X128879876Y-52439914D01*
X128927495Y-52535152D01*
X128975114Y-52582771D01*
X129070352Y-52630390D01*
X129451304Y-52630390D01*
X128546542Y-52106580D02*
X127879876Y-52106580D01*
X128546542Y-53106580D01*
X127879876Y-53106580D01*
X127070352Y-52439914D02*
X127070352Y-53106580D01*
X127308447Y-52058961D02*
X127546542Y-52773247D01*
X126927495Y-52773247D01*
X129181495Y-36533200D02*
X129276733Y-36485580D01*
X129419590Y-36485580D01*
X129562447Y-36533200D01*
X129657685Y-36628438D01*
X129705304Y-36723676D01*
X129752923Y-36914152D01*
X129752923Y-37057009D01*
X129705304Y-37247485D01*
X129657685Y-37342723D01*
X129562447Y-37437961D01*
X129419590Y-37485580D01*
X129324352Y-37485580D01*
X129181495Y-37437961D01*
X129133876Y-37390342D01*
X129133876Y-37057009D01*
X129324352Y-37057009D01*
X128705304Y-37485580D02*
X128705304Y-36485580D01*
X128133876Y-37485580D01*
X128133876Y-36485580D01*
X127657685Y-37485580D02*
X127657685Y-36485580D01*
X127419590Y-36485580D01*
X127276733Y-36533200D01*
X127181495Y-36628438D01*
X127133876Y-36723676D01*
X127086257Y-36914152D01*
X127086257Y-37057009D01*
X127133876Y-37247485D01*
X127181495Y-37342723D01*
X127276733Y-37437961D01*
X127419590Y-37485580D01*
X127657685Y-37485580D01*
D12*
%TO.C,C18*%
X33021542Y-16424842D02*
X33069161Y-16377223D01*
X33116780Y-16234366D01*
X33116780Y-16139128D01*
X33069161Y-15996271D01*
X32973923Y-15901033D01*
X32878685Y-15853414D01*
X32688209Y-15805795D01*
X32545352Y-15805795D01*
X32354876Y-15853414D01*
X32259638Y-15901033D01*
X32164400Y-15996271D01*
X32116780Y-16139128D01*
X32116780Y-16234366D01*
X32164400Y-16377223D01*
X32212019Y-16424842D01*
X33116780Y-17377223D02*
X33116780Y-16805795D01*
X33116780Y-17091509D02*
X32116780Y-17091509D01*
X32259638Y-16996271D01*
X32354876Y-16901033D01*
X32402495Y-16805795D01*
X32545352Y-17948652D02*
X32497733Y-17853414D01*
X32450114Y-17805795D01*
X32354876Y-17758176D01*
X32307257Y-17758176D01*
X32212019Y-17805795D01*
X32164400Y-17853414D01*
X32116780Y-17948652D01*
X32116780Y-18139128D01*
X32164400Y-18234366D01*
X32212019Y-18281985D01*
X32307257Y-18329604D01*
X32354876Y-18329604D01*
X32450114Y-18281985D01*
X32497733Y-18234366D01*
X32545352Y-18139128D01*
X32545352Y-17948652D01*
X32592971Y-17853414D01*
X32640590Y-17805795D01*
X32735828Y-17758176D01*
X32926304Y-17758176D01*
X33021542Y-17805795D01*
X33069161Y-17853414D01*
X33116780Y-17948652D01*
X33116780Y-18139128D01*
X33069161Y-18234366D01*
X33021542Y-18281985D01*
X32926304Y-18329604D01*
X32735828Y-18329604D01*
X32640590Y-18281985D01*
X32592971Y-18234366D01*
X32545352Y-18139128D01*
%TO.C,C21*%
X17273542Y-40962342D02*
X17321161Y-40914723D01*
X17368780Y-40771866D01*
X17368780Y-40676628D01*
X17321161Y-40533771D01*
X17225923Y-40438533D01*
X17130685Y-40390914D01*
X16940209Y-40343295D01*
X16797352Y-40343295D01*
X16606876Y-40390914D01*
X16511638Y-40438533D01*
X16416400Y-40533771D01*
X16368780Y-40676628D01*
X16368780Y-40771866D01*
X16416400Y-40914723D01*
X16464019Y-40962342D01*
X16464019Y-41343295D02*
X16416400Y-41390914D01*
X16368780Y-41486152D01*
X16368780Y-41724247D01*
X16416400Y-41819485D01*
X16464019Y-41867104D01*
X16559257Y-41914723D01*
X16654495Y-41914723D01*
X16797352Y-41867104D01*
X17368780Y-41295676D01*
X17368780Y-41914723D01*
X17368780Y-42867104D02*
X17368780Y-42295676D01*
X17368780Y-42581390D02*
X16368780Y-42581390D01*
X16511638Y-42486152D01*
X16606876Y-42390914D01*
X16654495Y-42295676D01*
%TO.C,C22*%
X17367542Y-37506842D02*
X17415161Y-37459223D01*
X17462780Y-37316366D01*
X17462780Y-37221128D01*
X17415161Y-37078271D01*
X17319923Y-36983033D01*
X17224685Y-36935414D01*
X17034209Y-36887795D01*
X16891352Y-36887795D01*
X16700876Y-36935414D01*
X16605638Y-36983033D01*
X16510400Y-37078271D01*
X16462780Y-37221128D01*
X16462780Y-37316366D01*
X16510400Y-37459223D01*
X16558019Y-37506842D01*
X16558019Y-37887795D02*
X16510400Y-37935414D01*
X16462780Y-38030652D01*
X16462780Y-38268747D01*
X16510400Y-38363985D01*
X16558019Y-38411604D01*
X16653257Y-38459223D01*
X16748495Y-38459223D01*
X16891352Y-38411604D01*
X17462780Y-37840176D01*
X17462780Y-38459223D01*
X16558019Y-38840176D02*
X16510400Y-38887795D01*
X16462780Y-38983033D01*
X16462780Y-39221128D01*
X16510400Y-39316366D01*
X16558019Y-39363985D01*
X16653257Y-39411604D01*
X16748495Y-39411604D01*
X16891352Y-39363985D01*
X17462780Y-38792557D01*
X17462780Y-39411604D01*
%TO.C,C23*%
X17273542Y-55186342D02*
X17321161Y-55138723D01*
X17368780Y-54995866D01*
X17368780Y-54900628D01*
X17321161Y-54757771D01*
X17225923Y-54662533D01*
X17130685Y-54614914D01*
X16940209Y-54567295D01*
X16797352Y-54567295D01*
X16606876Y-54614914D01*
X16511638Y-54662533D01*
X16416400Y-54757771D01*
X16368780Y-54900628D01*
X16368780Y-54995866D01*
X16416400Y-55138723D01*
X16464019Y-55186342D01*
X16464019Y-55567295D02*
X16416400Y-55614914D01*
X16368780Y-55710152D01*
X16368780Y-55948247D01*
X16416400Y-56043485D01*
X16464019Y-56091104D01*
X16559257Y-56138723D01*
X16654495Y-56138723D01*
X16797352Y-56091104D01*
X17368780Y-55519676D01*
X17368780Y-56138723D01*
X16368780Y-56472057D02*
X16368780Y-57091104D01*
X16749733Y-56757771D01*
X16749733Y-56900628D01*
X16797352Y-56995866D01*
X16844971Y-57043485D01*
X16940209Y-57091104D01*
X17178304Y-57091104D01*
X17273542Y-57043485D01*
X17321161Y-56995866D01*
X17368780Y-56900628D01*
X17368780Y-56614914D01*
X17321161Y-56519676D01*
X17273542Y-56472057D01*
%TO.C,C24*%
X17367542Y-51730842D02*
X17415161Y-51683223D01*
X17462780Y-51540366D01*
X17462780Y-51445128D01*
X17415161Y-51302271D01*
X17319923Y-51207033D01*
X17224685Y-51159414D01*
X17034209Y-51111795D01*
X16891352Y-51111795D01*
X16700876Y-51159414D01*
X16605638Y-51207033D01*
X16510400Y-51302271D01*
X16462780Y-51445128D01*
X16462780Y-51540366D01*
X16510400Y-51683223D01*
X16558019Y-51730842D01*
X16558019Y-52111795D02*
X16510400Y-52159414D01*
X16462780Y-52254652D01*
X16462780Y-52492747D01*
X16510400Y-52587985D01*
X16558019Y-52635604D01*
X16653257Y-52683223D01*
X16748495Y-52683223D01*
X16891352Y-52635604D01*
X17462780Y-52064176D01*
X17462780Y-52683223D01*
X16796114Y-53540366D02*
X17462780Y-53540366D01*
X16415161Y-53302271D02*
X17129447Y-53064176D01*
X17129447Y-53683223D01*
%TO.C,C25*%
X33021542Y-43602842D02*
X33069161Y-43555223D01*
X33116780Y-43412366D01*
X33116780Y-43317128D01*
X33069161Y-43174271D01*
X32973923Y-43079033D01*
X32878685Y-43031414D01*
X32688209Y-42983795D01*
X32545352Y-42983795D01*
X32354876Y-43031414D01*
X32259638Y-43079033D01*
X32164400Y-43174271D01*
X32116780Y-43317128D01*
X32116780Y-43412366D01*
X32164400Y-43555223D01*
X32212019Y-43602842D01*
X32212019Y-43983795D02*
X32164400Y-44031414D01*
X32116780Y-44126652D01*
X32116780Y-44364747D01*
X32164400Y-44459985D01*
X32212019Y-44507604D01*
X32307257Y-44555223D01*
X32402495Y-44555223D01*
X32545352Y-44507604D01*
X33116780Y-43936176D01*
X33116780Y-44555223D01*
X32116780Y-45459985D02*
X32116780Y-44983795D01*
X32592971Y-44936176D01*
X32545352Y-44983795D01*
X32497733Y-45079033D01*
X32497733Y-45317128D01*
X32545352Y-45412366D01*
X32592971Y-45459985D01*
X32688209Y-45507604D01*
X32926304Y-45507604D01*
X33021542Y-45459985D01*
X33069161Y-45412366D01*
X33116780Y-45317128D01*
X33116780Y-45079033D01*
X33069161Y-44983795D01*
X33021542Y-44936176D01*
%TO.C,C26*%
X33021542Y-57599342D02*
X33069161Y-57551723D01*
X33116780Y-57408866D01*
X33116780Y-57313628D01*
X33069161Y-57170771D01*
X32973923Y-57075533D01*
X32878685Y-57027914D01*
X32688209Y-56980295D01*
X32545352Y-56980295D01*
X32354876Y-57027914D01*
X32259638Y-57075533D01*
X32164400Y-57170771D01*
X32116780Y-57313628D01*
X32116780Y-57408866D01*
X32164400Y-57551723D01*
X32212019Y-57599342D01*
X32212019Y-57980295D02*
X32164400Y-58027914D01*
X32116780Y-58123152D01*
X32116780Y-58361247D01*
X32164400Y-58456485D01*
X32212019Y-58504104D01*
X32307257Y-58551723D01*
X32402495Y-58551723D01*
X32545352Y-58504104D01*
X33116780Y-57932676D01*
X33116780Y-58551723D01*
X32116780Y-59408866D02*
X32116780Y-59218390D01*
X32164400Y-59123152D01*
X32212019Y-59075533D01*
X32354876Y-58980295D01*
X32545352Y-58932676D01*
X32926304Y-58932676D01*
X33021542Y-58980295D01*
X33069161Y-59027914D01*
X33116780Y-59123152D01*
X33116780Y-59313628D01*
X33069161Y-59408866D01*
X33021542Y-59456485D01*
X32926304Y-59504104D01*
X32688209Y-59504104D01*
X32592971Y-59456485D01*
X32545352Y-59408866D01*
X32497733Y-59313628D01*
X32497733Y-59123152D01*
X32545352Y-59027914D01*
X32592971Y-58980295D01*
X32688209Y-58932676D01*
%TO.C,C27*%
X33148542Y-29685842D02*
X33196161Y-29638223D01*
X33243780Y-29495366D01*
X33243780Y-29400128D01*
X33196161Y-29257271D01*
X33100923Y-29162033D01*
X33005685Y-29114414D01*
X32815209Y-29066795D01*
X32672352Y-29066795D01*
X32481876Y-29114414D01*
X32386638Y-29162033D01*
X32291400Y-29257271D01*
X32243780Y-29400128D01*
X32243780Y-29495366D01*
X32291400Y-29638223D01*
X32339019Y-29685842D01*
X32339019Y-30066795D02*
X32291400Y-30114414D01*
X32243780Y-30209652D01*
X32243780Y-30447747D01*
X32291400Y-30542985D01*
X32339019Y-30590604D01*
X32434257Y-30638223D01*
X32529495Y-30638223D01*
X32672352Y-30590604D01*
X33243780Y-30019176D01*
X33243780Y-30638223D01*
X32243780Y-30971557D02*
X32243780Y-31638223D01*
X33243780Y-31209652D01*
%TO.C,R36*%
X18217757Y-46281580D02*
X18551090Y-45805390D01*
X18789185Y-46281580D02*
X18789185Y-45281580D01*
X18408233Y-45281580D01*
X18312995Y-45329200D01*
X18265376Y-45376819D01*
X18217757Y-45472057D01*
X18217757Y-45614914D01*
X18265376Y-45710152D01*
X18312995Y-45757771D01*
X18408233Y-45805390D01*
X18789185Y-45805390D01*
X17884423Y-45281580D02*
X17265376Y-45281580D01*
X17598709Y-45662533D01*
X17455852Y-45662533D01*
X17360614Y-45710152D01*
X17312995Y-45757771D01*
X17265376Y-45853009D01*
X17265376Y-46091104D01*
X17312995Y-46186342D01*
X17360614Y-46233961D01*
X17455852Y-46281580D01*
X17741566Y-46281580D01*
X17836804Y-46233961D01*
X17884423Y-46186342D01*
X16408233Y-45281580D02*
X16598709Y-45281580D01*
X16693947Y-45329200D01*
X16741566Y-45376819D01*
X16836804Y-45519676D01*
X16884423Y-45710152D01*
X16884423Y-46091104D01*
X16836804Y-46186342D01*
X16789185Y-46233961D01*
X16693947Y-46281580D01*
X16503471Y-46281580D01*
X16408233Y-46233961D01*
X16360614Y-46186342D01*
X16312995Y-46091104D01*
X16312995Y-45853009D01*
X16360614Y-45757771D01*
X16408233Y-45710152D01*
X16503471Y-45662533D01*
X16693947Y-45662533D01*
X16789185Y-45710152D01*
X16836804Y-45757771D01*
X16884423Y-45853009D01*
%TO.C,R37*%
X18217757Y-34437580D02*
X18551090Y-33961390D01*
X18789185Y-34437580D02*
X18789185Y-33437580D01*
X18408233Y-33437580D01*
X18312995Y-33485200D01*
X18265376Y-33532819D01*
X18217757Y-33628057D01*
X18217757Y-33770914D01*
X18265376Y-33866152D01*
X18312995Y-33913771D01*
X18408233Y-33961390D01*
X18789185Y-33961390D01*
X17884423Y-33437580D02*
X17265376Y-33437580D01*
X17598709Y-33818533D01*
X17455852Y-33818533D01*
X17360614Y-33866152D01*
X17312995Y-33913771D01*
X17265376Y-34009009D01*
X17265376Y-34247104D01*
X17312995Y-34342342D01*
X17360614Y-34389961D01*
X17455852Y-34437580D01*
X17741566Y-34437580D01*
X17836804Y-34389961D01*
X17884423Y-34342342D01*
X16932042Y-33437580D02*
X16265376Y-33437580D01*
X16693947Y-34437580D01*
%TO.C,R43*%
X18217757Y-60505580D02*
X18551090Y-60029390D01*
X18789185Y-60505580D02*
X18789185Y-59505580D01*
X18408233Y-59505580D01*
X18312995Y-59553200D01*
X18265376Y-59600819D01*
X18217757Y-59696057D01*
X18217757Y-59838914D01*
X18265376Y-59934152D01*
X18312995Y-59981771D01*
X18408233Y-60029390D01*
X18789185Y-60029390D01*
X17360614Y-59838914D02*
X17360614Y-60505580D01*
X17598709Y-59457961D02*
X17836804Y-60172247D01*
X17217757Y-60172247D01*
X16932042Y-59505580D02*
X16312995Y-59505580D01*
X16646328Y-59886533D01*
X16503471Y-59886533D01*
X16408233Y-59934152D01*
X16360614Y-59981771D01*
X16312995Y-60077009D01*
X16312995Y-60315104D01*
X16360614Y-60410342D01*
X16408233Y-60457961D01*
X16503471Y-60505580D01*
X16789185Y-60505580D01*
X16884423Y-60457961D01*
X16932042Y-60410342D01*
%TO.C,R44*%
X18217757Y-48661580D02*
X18551090Y-48185390D01*
X18789185Y-48661580D02*
X18789185Y-47661580D01*
X18408233Y-47661580D01*
X18312995Y-47709200D01*
X18265376Y-47756819D01*
X18217757Y-47852057D01*
X18217757Y-47994914D01*
X18265376Y-48090152D01*
X18312995Y-48137771D01*
X18408233Y-48185390D01*
X18789185Y-48185390D01*
X17360614Y-47994914D02*
X17360614Y-48661580D01*
X17598709Y-47613961D02*
X17836804Y-48328247D01*
X17217757Y-48328247D01*
X16408233Y-47994914D02*
X16408233Y-48661580D01*
X16646328Y-47613961D02*
X16884423Y-48328247D01*
X16265376Y-48328247D01*
%TO.C,U6*%
X34032780Y-11965295D02*
X34842304Y-11965295D01*
X34937542Y-12012914D01*
X34985161Y-12060533D01*
X35032780Y-12155771D01*
X35032780Y-12346247D01*
X34985161Y-12441485D01*
X34937542Y-12489104D01*
X34842304Y-12536723D01*
X34032780Y-12536723D01*
X34032780Y-13441485D02*
X34032780Y-13251009D01*
X34080400Y-13155771D01*
X34128019Y-13108152D01*
X34270876Y-13012914D01*
X34461352Y-12965295D01*
X34842304Y-12965295D01*
X34937542Y-13012914D01*
X34985161Y-13060533D01*
X35032780Y-13155771D01*
X35032780Y-13346247D01*
X34985161Y-13441485D01*
X34937542Y-13489104D01*
X34842304Y-13536723D01*
X34604209Y-13536723D01*
X34508971Y-13489104D01*
X34461352Y-13441485D01*
X34413733Y-13346247D01*
X34413733Y-13155771D01*
X34461352Y-13060533D01*
X34508971Y-13012914D01*
X34604209Y-12965295D01*
%TO.C,U10*%
X33778780Y-38840105D02*
X34588304Y-38840105D01*
X34683542Y-38887724D01*
X34731161Y-38935343D01*
X34778780Y-39030581D01*
X34778780Y-39221058D01*
X34731161Y-39316296D01*
X34683542Y-39363915D01*
X34588304Y-39411534D01*
X33778780Y-39411534D01*
X34778780Y-40411534D02*
X34778780Y-39840105D01*
X34778780Y-40125820D02*
X33778780Y-40125820D01*
X33921638Y-40030581D01*
X34016876Y-39935343D01*
X34064495Y-39840105D01*
X33778780Y-41030581D02*
X33778780Y-41125820D01*
X33826400Y-41221058D01*
X33874019Y-41268677D01*
X33969257Y-41316296D01*
X34159733Y-41363915D01*
X34397828Y-41363915D01*
X34588304Y-41316296D01*
X34683542Y-41268677D01*
X34731161Y-41221058D01*
X34778780Y-41125820D01*
X34778780Y-41030581D01*
X34731161Y-40935343D01*
X34683542Y-40887724D01*
X34588304Y-40840105D01*
X34397828Y-40792486D01*
X34159733Y-40792486D01*
X33969257Y-40840105D01*
X33874019Y-40887724D01*
X33826400Y-40935343D01*
X33778780Y-41030581D01*
%TO.C,U11*%
X33981781Y-52605105D02*
X34791305Y-52605105D01*
X34886543Y-52652724D01*
X34934162Y-52700343D01*
X34981781Y-52795581D01*
X34981781Y-52986058D01*
X34934162Y-53081296D01*
X34886543Y-53128915D01*
X34791305Y-53176534D01*
X33981781Y-53176534D01*
X34981781Y-54176534D02*
X34981781Y-53605105D01*
X34981781Y-53890820D02*
X33981781Y-53890820D01*
X34124639Y-53795581D01*
X34219877Y-53700343D01*
X34267496Y-53605105D01*
X34981781Y-55128915D02*
X34981781Y-54557486D01*
X34981781Y-54843201D02*
X33981781Y-54843201D01*
X34124639Y-54747962D01*
X34219877Y-54652724D01*
X34267496Y-54557486D01*
%TO.C,U12*%
X34032780Y-25303104D02*
X34842304Y-25303104D01*
X34937542Y-25350723D01*
X34985161Y-25398342D01*
X35032780Y-25493580D01*
X35032780Y-25684057D01*
X34985161Y-25779295D01*
X34937542Y-25826914D01*
X34842304Y-25874533D01*
X34032780Y-25874533D01*
X35032780Y-26874533D02*
X35032780Y-26303104D01*
X35032780Y-26588819D02*
X34032780Y-26588819D01*
X34175638Y-26493580D01*
X34270876Y-26398342D01*
X34318495Y-26303104D01*
X34128019Y-27255485D02*
X34080400Y-27303104D01*
X34032780Y-27398342D01*
X34032780Y-27636438D01*
X34080400Y-27731676D01*
X34128019Y-27779295D01*
X34223257Y-27826914D01*
X34318495Y-27826914D01*
X34461352Y-27779295D01*
X35032780Y-27207866D01*
X35032780Y-27826914D01*
%TO.C,C2*%
X88705942Y-45806233D02*
X88753561Y-45758614D01*
X88801180Y-45615757D01*
X88801180Y-45520519D01*
X88753561Y-45377661D01*
X88658323Y-45282423D01*
X88563085Y-45234804D01*
X88372609Y-45187185D01*
X88229752Y-45187185D01*
X88039276Y-45234804D01*
X87944038Y-45282423D01*
X87848800Y-45377661D01*
X87801180Y-45520519D01*
X87801180Y-45615757D01*
X87848800Y-45758614D01*
X87896419Y-45806233D01*
X87896419Y-46187185D02*
X87848800Y-46234804D01*
X87801180Y-46330042D01*
X87801180Y-46568138D01*
X87848800Y-46663376D01*
X87896419Y-46710995D01*
X87991657Y-46758614D01*
X88086895Y-46758614D01*
X88229752Y-46710995D01*
X88801180Y-46139566D01*
X88801180Y-46758614D01*
%TO.C,C6*%
X84653942Y-58131733D02*
X84701561Y-58084114D01*
X84749180Y-57941257D01*
X84749180Y-57846019D01*
X84701561Y-57703161D01*
X84606323Y-57607923D01*
X84511085Y-57560304D01*
X84320609Y-57512685D01*
X84177752Y-57512685D01*
X83987276Y-57560304D01*
X83892038Y-57607923D01*
X83796800Y-57703161D01*
X83749180Y-57846019D01*
X83749180Y-57941257D01*
X83796800Y-58084114D01*
X83844419Y-58131733D01*
X83749180Y-58988876D02*
X83749180Y-58798400D01*
X83796800Y-58703161D01*
X83844419Y-58655542D01*
X83987276Y-58560304D01*
X84177752Y-58512685D01*
X84558704Y-58512685D01*
X84653942Y-58560304D01*
X84701561Y-58607923D01*
X84749180Y-58703161D01*
X84749180Y-58893638D01*
X84701561Y-58988876D01*
X84653942Y-59036495D01*
X84558704Y-59084114D01*
X84320609Y-59084114D01*
X84225371Y-59036495D01*
X84177752Y-58988876D01*
X84130133Y-58893638D01*
X84130133Y-58703161D01*
X84177752Y-58607923D01*
X84225371Y-58560304D01*
X84320609Y-58512685D01*
%TO.C,C5*%
X74913466Y-42337542D02*
X74961085Y-42385161D01*
X75103942Y-42432780D01*
X75199180Y-42432780D01*
X75342038Y-42385161D01*
X75437276Y-42289923D01*
X75484895Y-42194685D01*
X75532514Y-42004209D01*
X75532514Y-41861352D01*
X75484895Y-41670876D01*
X75437276Y-41575638D01*
X75342038Y-41480400D01*
X75199180Y-41432780D01*
X75103942Y-41432780D01*
X74961085Y-41480400D01*
X74913466Y-41528019D01*
X74008704Y-41432780D02*
X74484895Y-41432780D01*
X74532514Y-41908971D01*
X74484895Y-41861352D01*
X74389657Y-41813733D01*
X74151561Y-41813733D01*
X74056323Y-41861352D01*
X74008704Y-41908971D01*
X73961085Y-42004209D01*
X73961085Y-42242304D01*
X74008704Y-42337542D01*
X74056323Y-42385161D01*
X74151561Y-42432780D01*
X74389657Y-42432780D01*
X74484895Y-42385161D01*
X74532514Y-42337542D01*
%TO.C,C1*%
X76517966Y-52165542D02*
X76565585Y-52213161D01*
X76708442Y-52260780D01*
X76803680Y-52260780D01*
X76946538Y-52213161D01*
X77041776Y-52117923D01*
X77089395Y-52022685D01*
X77137014Y-51832209D01*
X77137014Y-51689352D01*
X77089395Y-51498876D01*
X77041776Y-51403638D01*
X76946538Y-51308400D01*
X76803680Y-51260780D01*
X76708442Y-51260780D01*
X76565585Y-51308400D01*
X76517966Y-51356019D01*
X75565585Y-52260780D02*
X76137014Y-52260780D01*
X75851300Y-52260780D02*
X75851300Y-51260780D01*
X75946538Y-51403638D01*
X76041776Y-51498876D01*
X76137014Y-51546495D01*
%TO.C,F1*%
X80751371Y-60779066D02*
X80751371Y-60445733D01*
X81275180Y-60445733D02*
X80275180Y-60445733D01*
X80275180Y-60921923D01*
X81275180Y-61826685D02*
X81275180Y-61255257D01*
X81275180Y-61540971D02*
X80275180Y-61540971D01*
X80418038Y-61445733D01*
X80513276Y-61350495D01*
X80560895Y-61255257D01*
%TO.C,U2*%
X88696704Y-52690780D02*
X88696704Y-53500304D01*
X88649085Y-53595542D01*
X88601466Y-53643161D01*
X88506228Y-53690780D01*
X88315752Y-53690780D01*
X88220514Y-53643161D01*
X88172895Y-53595542D01*
X88125276Y-53500304D01*
X88125276Y-52690780D01*
X87696704Y-52786019D02*
X87649085Y-52738400D01*
X87553847Y-52690780D01*
X87315752Y-52690780D01*
X87220514Y-52738400D01*
X87172895Y-52786019D01*
X87125276Y-52881257D01*
X87125276Y-52976495D01*
X87172895Y-53119352D01*
X87744323Y-53690780D01*
X87125276Y-53690780D01*
%TO.C,C4*%
X93117942Y-53325733D02*
X93165561Y-53278114D01*
X93213180Y-53135257D01*
X93213180Y-53040019D01*
X93165561Y-52897161D01*
X93070323Y-52801923D01*
X92975085Y-52754304D01*
X92784609Y-52706685D01*
X92641752Y-52706685D01*
X92451276Y-52754304D01*
X92356038Y-52801923D01*
X92260800Y-52897161D01*
X92213180Y-53040019D01*
X92213180Y-53135257D01*
X92260800Y-53278114D01*
X92308419Y-53325733D01*
X92546514Y-54182876D02*
X93213180Y-54182876D01*
X92165561Y-53944780D02*
X92879847Y-53706685D01*
X92879847Y-54325733D01*
%TO.C,U1*%
X83108704Y-42022780D02*
X83108704Y-42832304D01*
X83061085Y-42927542D01*
X83013466Y-42975161D01*
X82918228Y-43022780D01*
X82727752Y-43022780D01*
X82632514Y-42975161D01*
X82584895Y-42927542D01*
X82537276Y-42832304D01*
X82537276Y-42022780D01*
X81537276Y-43022780D02*
X82108704Y-43022780D01*
X81822990Y-43022780D02*
X81822990Y-42022780D01*
X81918228Y-42165638D01*
X82013466Y-42260876D01*
X82108704Y-42308495D01*
%TO.C,Q1*%
X83108419Y-56699161D02*
X83060800Y-56603923D01*
X82965561Y-56508685D01*
X82822704Y-56365828D01*
X82775085Y-56270590D01*
X82775085Y-56175352D01*
X83013180Y-56222971D02*
X82965561Y-56127733D01*
X82870323Y-56032495D01*
X82679847Y-55984876D01*
X82346514Y-55984876D01*
X82156038Y-56032495D01*
X82060800Y-56127733D01*
X82013180Y-56222971D01*
X82013180Y-56413447D01*
X82060800Y-56508685D01*
X82156038Y-56603923D01*
X82346514Y-56651542D01*
X82679847Y-56651542D01*
X82870323Y-56603923D01*
X82965561Y-56508685D01*
X83013180Y-56413447D01*
X83013180Y-56222971D01*
X83013180Y-57603923D02*
X83013180Y-57032495D01*
X83013180Y-57318209D02*
X82013180Y-57318209D01*
X82156038Y-57222971D01*
X82251276Y-57127733D01*
X82298895Y-57032495D01*
%TO.C,C3*%
X86222966Y-41149542D02*
X86270585Y-41197161D01*
X86413442Y-41244780D01*
X86508680Y-41244780D01*
X86651538Y-41197161D01*
X86746776Y-41101923D01*
X86794395Y-41006685D01*
X86842014Y-40816209D01*
X86842014Y-40673352D01*
X86794395Y-40482876D01*
X86746776Y-40387638D01*
X86651538Y-40292400D01*
X86508680Y-40244780D01*
X86413442Y-40244780D01*
X86270585Y-40292400D01*
X86222966Y-40340019D01*
X85889633Y-40244780D02*
X85270585Y-40244780D01*
X85603919Y-40625733D01*
X85461061Y-40625733D01*
X85365823Y-40673352D01*
X85318204Y-40720971D01*
X85270585Y-40816209D01*
X85270585Y-41054304D01*
X85318204Y-41149542D01*
X85365823Y-41197161D01*
X85461061Y-41244780D01*
X85746776Y-41244780D01*
X85842014Y-41197161D01*
X85889633Y-41149542D01*
%TO.C,C10*%
X107783257Y-9502342D02*
X107830876Y-9549961D01*
X107973733Y-9597580D01*
X108068971Y-9597580D01*
X108211828Y-9549961D01*
X108307066Y-9454723D01*
X108354685Y-9359485D01*
X108402304Y-9169009D01*
X108402304Y-9026152D01*
X108354685Y-8835676D01*
X108307066Y-8740438D01*
X108211828Y-8645200D01*
X108068971Y-8597580D01*
X107973733Y-8597580D01*
X107830876Y-8645200D01*
X107783257Y-8692819D01*
X106830876Y-9597580D02*
X107402304Y-9597580D01*
X107116590Y-9597580D02*
X107116590Y-8597580D01*
X107211828Y-8740438D01*
X107307066Y-8835676D01*
X107402304Y-8883295D01*
X106211828Y-8597580D02*
X106116590Y-8597580D01*
X106021352Y-8645200D01*
X105973733Y-8692819D01*
X105926114Y-8788057D01*
X105878495Y-8978533D01*
X105878495Y-9216628D01*
X105926114Y-9407104D01*
X105973733Y-9502342D01*
X106021352Y-9549961D01*
X106116590Y-9597580D01*
X106211828Y-9597580D01*
X106307066Y-9549961D01*
X106354685Y-9502342D01*
X106402304Y-9407104D01*
X106449923Y-9216628D01*
X106449923Y-8978533D01*
X106402304Y-8788057D01*
X106354685Y-8692819D01*
X106307066Y-8645200D01*
X106211828Y-8597580D01*
%TO.C,C11*%
X124112257Y-33643842D02*
X124159876Y-33691461D01*
X124302733Y-33739080D01*
X124397971Y-33739080D01*
X124540828Y-33691461D01*
X124636066Y-33596223D01*
X124683685Y-33500985D01*
X124731304Y-33310509D01*
X124731304Y-33167652D01*
X124683685Y-32977176D01*
X124636066Y-32881938D01*
X124540828Y-32786700D01*
X124397971Y-32739080D01*
X124302733Y-32739080D01*
X124159876Y-32786700D01*
X124112257Y-32834319D01*
X123159876Y-33739080D02*
X123731304Y-33739080D01*
X123445590Y-33739080D02*
X123445590Y-32739080D01*
X123540828Y-32881938D01*
X123636066Y-32977176D01*
X123731304Y-33024795D01*
X122207495Y-33739080D02*
X122778923Y-33739080D01*
X122493209Y-33739080D02*
X122493209Y-32739080D01*
X122588447Y-32881938D01*
X122683685Y-32977176D01*
X122778923Y-33024795D01*
%TO.C,C30*%
X99823542Y-40454342D02*
X99871161Y-40406723D01*
X99918780Y-40263866D01*
X99918780Y-40168628D01*
X99871161Y-40025771D01*
X99775923Y-39930533D01*
X99680685Y-39882914D01*
X99490209Y-39835295D01*
X99347352Y-39835295D01*
X99156876Y-39882914D01*
X99061638Y-39930533D01*
X98966400Y-40025771D01*
X98918780Y-40168628D01*
X98918780Y-40263866D01*
X98966400Y-40406723D01*
X99014019Y-40454342D01*
X98918780Y-40787676D02*
X98918780Y-41406723D01*
X99299733Y-41073390D01*
X99299733Y-41216247D01*
X99347352Y-41311485D01*
X99394971Y-41359104D01*
X99490209Y-41406723D01*
X99728304Y-41406723D01*
X99823542Y-41359104D01*
X99871161Y-41311485D01*
X99918780Y-41216247D01*
X99918780Y-40930533D01*
X99871161Y-40835295D01*
X99823542Y-40787676D01*
X98918780Y-42025771D02*
X98918780Y-42121009D01*
X98966400Y-42216247D01*
X99014019Y-42263866D01*
X99109257Y-42311485D01*
X99299733Y-42359104D01*
X99537828Y-42359104D01*
X99728304Y-42311485D01*
X99823542Y-42263866D01*
X99871161Y-42216247D01*
X99918780Y-42121009D01*
X99918780Y-42025771D01*
X99871161Y-41930533D01*
X99823542Y-41882914D01*
X99728304Y-41835295D01*
X99537828Y-41787676D01*
X99299733Y-41787676D01*
X99109257Y-41835295D01*
X99014019Y-41882914D01*
X98966400Y-41930533D01*
X98918780Y-42025771D01*
%TO.C,C32*%
X107824542Y-40454342D02*
X107872161Y-40406723D01*
X107919780Y-40263866D01*
X107919780Y-40168628D01*
X107872161Y-40025771D01*
X107776923Y-39930533D01*
X107681685Y-39882914D01*
X107491209Y-39835295D01*
X107348352Y-39835295D01*
X107157876Y-39882914D01*
X107062638Y-39930533D01*
X106967400Y-40025771D01*
X106919780Y-40168628D01*
X106919780Y-40263866D01*
X106967400Y-40406723D01*
X107015019Y-40454342D01*
X106919780Y-40787676D02*
X106919780Y-41406723D01*
X107300733Y-41073390D01*
X107300733Y-41216247D01*
X107348352Y-41311485D01*
X107395971Y-41359104D01*
X107491209Y-41406723D01*
X107729304Y-41406723D01*
X107824542Y-41359104D01*
X107872161Y-41311485D01*
X107919780Y-41216247D01*
X107919780Y-40930533D01*
X107872161Y-40835295D01*
X107824542Y-40787676D01*
X107015019Y-41787676D02*
X106967400Y-41835295D01*
X106919780Y-41930533D01*
X106919780Y-42168628D01*
X106967400Y-42263866D01*
X107015019Y-42311485D01*
X107110257Y-42359104D01*
X107205495Y-42359104D01*
X107348352Y-42311485D01*
X107919780Y-41740057D01*
X107919780Y-42359104D01*
%TO.C,C35*%
X115317542Y-40581342D02*
X115365161Y-40533723D01*
X115412780Y-40390866D01*
X115412780Y-40295628D01*
X115365161Y-40152771D01*
X115269923Y-40057533D01*
X115174685Y-40009914D01*
X114984209Y-39962295D01*
X114841352Y-39962295D01*
X114650876Y-40009914D01*
X114555638Y-40057533D01*
X114460400Y-40152771D01*
X114412780Y-40295628D01*
X114412780Y-40390866D01*
X114460400Y-40533723D01*
X114508019Y-40581342D01*
X114412780Y-40914676D02*
X114412780Y-41533723D01*
X114793733Y-41200390D01*
X114793733Y-41343247D01*
X114841352Y-41438485D01*
X114888971Y-41486104D01*
X114984209Y-41533723D01*
X115222304Y-41533723D01*
X115317542Y-41486104D01*
X115365161Y-41438485D01*
X115412780Y-41343247D01*
X115412780Y-41057533D01*
X115365161Y-40962295D01*
X115317542Y-40914676D01*
X114412780Y-42438485D02*
X114412780Y-41962295D01*
X114888971Y-41914676D01*
X114841352Y-41962295D01*
X114793733Y-42057533D01*
X114793733Y-42295628D01*
X114841352Y-42390866D01*
X114888971Y-42438485D01*
X114984209Y-42486104D01*
X115222304Y-42486104D01*
X115317542Y-42438485D01*
X115365161Y-42390866D01*
X115412780Y-42295628D01*
X115412780Y-42057533D01*
X115365161Y-41962295D01*
X115317542Y-41914676D01*
%TO.C,C36*%
X122937542Y-40581342D02*
X122985161Y-40533723D01*
X123032780Y-40390866D01*
X123032780Y-40295628D01*
X122985161Y-40152771D01*
X122889923Y-40057533D01*
X122794685Y-40009914D01*
X122604209Y-39962295D01*
X122461352Y-39962295D01*
X122270876Y-40009914D01*
X122175638Y-40057533D01*
X122080400Y-40152771D01*
X122032780Y-40295628D01*
X122032780Y-40390866D01*
X122080400Y-40533723D01*
X122128019Y-40581342D01*
X122032780Y-40914676D02*
X122032780Y-41533723D01*
X122413733Y-41200390D01*
X122413733Y-41343247D01*
X122461352Y-41438485D01*
X122508971Y-41486104D01*
X122604209Y-41533723D01*
X122842304Y-41533723D01*
X122937542Y-41486104D01*
X122985161Y-41438485D01*
X123032780Y-41343247D01*
X123032780Y-41057533D01*
X122985161Y-40962295D01*
X122937542Y-40914676D01*
X122032780Y-42390866D02*
X122032780Y-42200390D01*
X122080400Y-42105152D01*
X122128019Y-42057533D01*
X122270876Y-41962295D01*
X122461352Y-41914676D01*
X122842304Y-41914676D01*
X122937542Y-41962295D01*
X122985161Y-42009914D01*
X123032780Y-42105152D01*
X123032780Y-42295628D01*
X122985161Y-42390866D01*
X122937542Y-42438485D01*
X122842304Y-42486104D01*
X122604209Y-42486104D01*
X122508971Y-42438485D01*
X122461352Y-42390866D01*
X122413733Y-42295628D01*
X122413733Y-42105152D01*
X122461352Y-42009914D01*
X122508971Y-41962295D01*
X122604209Y-41914676D01*
%TO.C,R30*%
X18170757Y-19959580D02*
X18504090Y-19483390D01*
X18742185Y-19959580D02*
X18742185Y-18959580D01*
X18361233Y-18959580D01*
X18265995Y-19007200D01*
X18218376Y-19054819D01*
X18170757Y-19150057D01*
X18170757Y-19292914D01*
X18218376Y-19388152D01*
X18265995Y-19435771D01*
X18361233Y-19483390D01*
X18742185Y-19483390D01*
X17837423Y-18959580D02*
X17218376Y-18959580D01*
X17551709Y-19340533D01*
X17408852Y-19340533D01*
X17313614Y-19388152D01*
X17265995Y-19435771D01*
X17218376Y-19531009D01*
X17218376Y-19769104D01*
X17265995Y-19864342D01*
X17313614Y-19911961D01*
X17408852Y-19959580D01*
X17694566Y-19959580D01*
X17789804Y-19911961D01*
X17837423Y-19864342D01*
X16599328Y-18959580D02*
X16504090Y-18959580D01*
X16408852Y-19007200D01*
X16361233Y-19054819D01*
X16313614Y-19150057D01*
X16265995Y-19340533D01*
X16265995Y-19578628D01*
X16313614Y-19769104D01*
X16361233Y-19864342D01*
X16408852Y-19911961D01*
X16504090Y-19959580D01*
X16599328Y-19959580D01*
X16694566Y-19911961D01*
X16742185Y-19864342D01*
X16789804Y-19769104D01*
X16837423Y-19578628D01*
X16837423Y-19340533D01*
X16789804Y-19150057D01*
X16742185Y-19054819D01*
X16694566Y-19007200D01*
X16599328Y-18959580D01*
%TO.C,R29*%
X18170757Y-31549580D02*
X18504090Y-31073390D01*
X18742185Y-31549580D02*
X18742185Y-30549580D01*
X18361233Y-30549580D01*
X18265995Y-30597200D01*
X18218376Y-30644819D01*
X18170757Y-30740057D01*
X18170757Y-30882914D01*
X18218376Y-30978152D01*
X18265995Y-31025771D01*
X18361233Y-31073390D01*
X18742185Y-31073390D01*
X17789804Y-30644819D02*
X17742185Y-30597200D01*
X17646947Y-30549580D01*
X17408852Y-30549580D01*
X17313614Y-30597200D01*
X17265995Y-30644819D01*
X17218376Y-30740057D01*
X17218376Y-30835295D01*
X17265995Y-30978152D01*
X17837423Y-31549580D01*
X17218376Y-31549580D01*
X16742185Y-31549580D02*
X16551709Y-31549580D01*
X16456471Y-31501961D01*
X16408852Y-31454342D01*
X16313614Y-31311485D01*
X16265995Y-31121009D01*
X16265995Y-30740057D01*
X16313614Y-30644819D01*
X16361233Y-30597200D01*
X16456471Y-30549580D01*
X16646947Y-30549580D01*
X16742185Y-30597200D01*
X16789804Y-30644819D01*
X16837423Y-30740057D01*
X16837423Y-30978152D01*
X16789804Y-31073390D01*
X16742185Y-31121009D01*
X16646947Y-31168628D01*
X16456471Y-31168628D01*
X16361233Y-31121009D01*
X16313614Y-31073390D01*
X16265995Y-30978152D01*
%TO.C,R15*%
X18217757Y-5227580D02*
X18551090Y-4751390D01*
X18789185Y-5227580D02*
X18789185Y-4227580D01*
X18408233Y-4227580D01*
X18312995Y-4275200D01*
X18265376Y-4322819D01*
X18217757Y-4418057D01*
X18217757Y-4560914D01*
X18265376Y-4656152D01*
X18312995Y-4703771D01*
X18408233Y-4751390D01*
X18789185Y-4751390D01*
X17265376Y-5227580D02*
X17836804Y-5227580D01*
X17551090Y-5227580D02*
X17551090Y-4227580D01*
X17646328Y-4370438D01*
X17741566Y-4465676D01*
X17836804Y-4513295D01*
X16360614Y-4227580D02*
X16836804Y-4227580D01*
X16884423Y-4703771D01*
X16836804Y-4656152D01*
X16741566Y-4608533D01*
X16503471Y-4608533D01*
X16408233Y-4656152D01*
X16360614Y-4703771D01*
X16312995Y-4799009D01*
X16312995Y-5037104D01*
X16360614Y-5132342D01*
X16408233Y-5179961D01*
X16503471Y-5227580D01*
X16741566Y-5227580D01*
X16836804Y-5179961D01*
X16884423Y-5132342D01*
%TO.C,R14*%
X18321257Y-17927580D02*
X18654590Y-17451390D01*
X18892685Y-17927580D02*
X18892685Y-16927580D01*
X18511733Y-16927580D01*
X18416495Y-16975200D01*
X18368876Y-17022819D01*
X18321257Y-17118057D01*
X18321257Y-17260914D01*
X18368876Y-17356152D01*
X18416495Y-17403771D01*
X18511733Y-17451390D01*
X18892685Y-17451390D01*
X17368876Y-17927580D02*
X17940304Y-17927580D01*
X17654590Y-17927580D02*
X17654590Y-16927580D01*
X17749828Y-17070438D01*
X17845066Y-17165676D01*
X17940304Y-17213295D01*
X16511733Y-17260914D02*
X16511733Y-17927580D01*
X16749828Y-16879961D02*
X16987923Y-17594247D01*
X16368876Y-17594247D01*
%TO.C,C20*%
X17367542Y-22928342D02*
X17415161Y-22880723D01*
X17462780Y-22737866D01*
X17462780Y-22642628D01*
X17415161Y-22499771D01*
X17319923Y-22404533D01*
X17224685Y-22356914D01*
X17034209Y-22309295D01*
X16891352Y-22309295D01*
X16700876Y-22356914D01*
X16605638Y-22404533D01*
X16510400Y-22499771D01*
X16462780Y-22642628D01*
X16462780Y-22737866D01*
X16510400Y-22880723D01*
X16558019Y-22928342D01*
X16558019Y-23309295D02*
X16510400Y-23356914D01*
X16462780Y-23452152D01*
X16462780Y-23690247D01*
X16510400Y-23785485D01*
X16558019Y-23833104D01*
X16653257Y-23880723D01*
X16748495Y-23880723D01*
X16891352Y-23833104D01*
X17462780Y-23261676D01*
X17462780Y-23880723D01*
X16462780Y-24499771D02*
X16462780Y-24595009D01*
X16510400Y-24690247D01*
X16558019Y-24737866D01*
X16653257Y-24785485D01*
X16843733Y-24833104D01*
X17081828Y-24833104D01*
X17272304Y-24785485D01*
X17367542Y-24737866D01*
X17415161Y-24690247D01*
X17462780Y-24595009D01*
X17462780Y-24499771D01*
X17415161Y-24404533D01*
X17367542Y-24356914D01*
X17272304Y-24309295D01*
X17081828Y-24261676D01*
X16843733Y-24261676D01*
X16653257Y-24309295D01*
X16558019Y-24356914D01*
X16510400Y-24404533D01*
X16462780Y-24499771D01*
%TO.C,C16*%
X17273542Y-12159842D02*
X17321161Y-12112223D01*
X17368780Y-11969366D01*
X17368780Y-11874128D01*
X17321161Y-11731271D01*
X17225923Y-11636033D01*
X17130685Y-11588414D01*
X16940209Y-11540795D01*
X16797352Y-11540795D01*
X16606876Y-11588414D01*
X16511638Y-11636033D01*
X16416400Y-11731271D01*
X16368780Y-11874128D01*
X16368780Y-11969366D01*
X16416400Y-12112223D01*
X16464019Y-12159842D01*
X17368780Y-13112223D02*
X17368780Y-12540795D01*
X17368780Y-12826509D02*
X16368780Y-12826509D01*
X16511638Y-12731271D01*
X16606876Y-12636033D01*
X16654495Y-12540795D01*
X16368780Y-13969366D02*
X16368780Y-13778890D01*
X16416400Y-13683652D01*
X16464019Y-13636033D01*
X16606876Y-13540795D01*
X16797352Y-13493176D01*
X17178304Y-13493176D01*
X17273542Y-13540795D01*
X17321161Y-13588414D01*
X17368780Y-13683652D01*
X17368780Y-13874128D01*
X17321161Y-13969366D01*
X17273542Y-14016985D01*
X17178304Y-14064604D01*
X16940209Y-14064604D01*
X16844971Y-14016985D01*
X16797352Y-13969366D01*
X16749733Y-13874128D01*
X16749733Y-13683652D01*
X16797352Y-13588414D01*
X16844971Y-13540795D01*
X16940209Y-13493176D01*
%TO.C,C19*%
X17273542Y-26484342D02*
X17321161Y-26436723D01*
X17368780Y-26293866D01*
X17368780Y-26198628D01*
X17321161Y-26055771D01*
X17225923Y-25960533D01*
X17130685Y-25912914D01*
X16940209Y-25865295D01*
X16797352Y-25865295D01*
X16606876Y-25912914D01*
X16511638Y-25960533D01*
X16416400Y-26055771D01*
X16368780Y-26198628D01*
X16368780Y-26293866D01*
X16416400Y-26436723D01*
X16464019Y-26484342D01*
X17368780Y-27436723D02*
X17368780Y-26865295D01*
X17368780Y-27151009D02*
X16368780Y-27151009D01*
X16511638Y-27055771D01*
X16606876Y-26960533D01*
X16654495Y-26865295D01*
X17368780Y-27912914D02*
X17368780Y-28103390D01*
X17321161Y-28198628D01*
X17273542Y-28246247D01*
X17130685Y-28341485D01*
X16940209Y-28389104D01*
X16559257Y-28389104D01*
X16464019Y-28341485D01*
X16416400Y-28293866D01*
X16368780Y-28198628D01*
X16368780Y-28008152D01*
X16416400Y-27912914D01*
X16464019Y-27865295D01*
X16559257Y-27817676D01*
X16797352Y-27817676D01*
X16892590Y-27865295D01*
X16940209Y-27912914D01*
X16987828Y-28008152D01*
X16987828Y-28198628D01*
X16940209Y-28293866D01*
X16892590Y-28341485D01*
X16797352Y-28389104D01*
%TO.C,C17*%
X17367542Y-8296842D02*
X17415161Y-8249223D01*
X17462780Y-8106366D01*
X17462780Y-8011128D01*
X17415161Y-7868271D01*
X17319923Y-7773033D01*
X17224685Y-7725414D01*
X17034209Y-7677795D01*
X16891352Y-7677795D01*
X16700876Y-7725414D01*
X16605638Y-7773033D01*
X16510400Y-7868271D01*
X16462780Y-8011128D01*
X16462780Y-8106366D01*
X16510400Y-8249223D01*
X16558019Y-8296842D01*
X17462780Y-9249223D02*
X17462780Y-8677795D01*
X17462780Y-8963509D02*
X16462780Y-8963509D01*
X16605638Y-8868271D01*
X16700876Y-8773033D01*
X16748495Y-8677795D01*
X16462780Y-9582557D02*
X16462780Y-10249223D01*
X17462780Y-9820652D01*
%TO.C,R45*%
X10599657Y-39321980D02*
X10932990Y-38845790D01*
X11171085Y-39321980D02*
X11171085Y-38321980D01*
X10790133Y-38321980D01*
X10694895Y-38369600D01*
X10647276Y-38417219D01*
X10599657Y-38512457D01*
X10599657Y-38655314D01*
X10647276Y-38750552D01*
X10694895Y-38798171D01*
X10790133Y-38845790D01*
X11171085Y-38845790D01*
X9742514Y-38655314D02*
X9742514Y-39321980D01*
X9980609Y-38274361D02*
X10218704Y-38988647D01*
X9599657Y-38988647D01*
X8742514Y-38321980D02*
X9218704Y-38321980D01*
X9266323Y-38798171D01*
X9218704Y-38750552D01*
X9123466Y-38702933D01*
X8885371Y-38702933D01*
X8790133Y-38750552D01*
X8742514Y-38798171D01*
X8694895Y-38893409D01*
X8694895Y-39131504D01*
X8742514Y-39226742D01*
X8790133Y-39274361D01*
X8885371Y-39321980D01*
X9123466Y-39321980D01*
X9218704Y-39274361D01*
X9266323Y-39226742D01*
%TO.C,SW6*%
X23315561Y-38646266D02*
X23363180Y-38789123D01*
X23363180Y-39027219D01*
X23315561Y-39122457D01*
X23267942Y-39170076D01*
X23172704Y-39217695D01*
X23077466Y-39217695D01*
X22982228Y-39170076D01*
X22934609Y-39122457D01*
X22886990Y-39027219D01*
X22839371Y-38836742D01*
X22791752Y-38741504D01*
X22744133Y-38693885D01*
X22648895Y-38646266D01*
X22553657Y-38646266D01*
X22458419Y-38693885D01*
X22410800Y-38741504D01*
X22363180Y-38836742D01*
X22363180Y-39074838D01*
X22410800Y-39217695D01*
X22363180Y-39551028D02*
X23363180Y-39789123D01*
X22648895Y-39979600D01*
X23363180Y-40170076D01*
X22363180Y-40408171D01*
X22363180Y-41217695D02*
X22363180Y-41027219D01*
X22410800Y-40931980D01*
X22458419Y-40884361D01*
X22601276Y-40789123D01*
X22791752Y-40741504D01*
X23172704Y-40741504D01*
X23267942Y-40789123D01*
X23315561Y-40836742D01*
X23363180Y-40931980D01*
X23363180Y-41122457D01*
X23315561Y-41217695D01*
X23267942Y-41265314D01*
X23172704Y-41312933D01*
X22934609Y-41312933D01*
X22839371Y-41265314D01*
X22791752Y-41217695D01*
X22744133Y-41122457D01*
X22744133Y-40931980D01*
X22791752Y-40836742D01*
X22839371Y-40789123D01*
X22934609Y-40741504D01*
%TO.C,TP5*%
X83481657Y-64349980D02*
X83148323Y-65349980D01*
X82814990Y-64349980D01*
X82148323Y-64826171D02*
X82005466Y-64873790D01*
X81957847Y-64921409D01*
X81910228Y-65016647D01*
X81910228Y-65159504D01*
X81957847Y-65254742D01*
X82005466Y-65302361D01*
X82100704Y-65349980D01*
X82481657Y-65349980D01*
X82481657Y-64349980D01*
X82148323Y-64349980D01*
X82053085Y-64397600D01*
X82005466Y-64445219D01*
X81957847Y-64540457D01*
X81957847Y-64635695D01*
X82005466Y-64730933D01*
X82053085Y-64778552D01*
X82148323Y-64826171D01*
X82481657Y-64826171D01*
X81529276Y-65064266D02*
X81053085Y-65064266D01*
X81624514Y-65349980D02*
X81291180Y-64349980D01*
X80957847Y-65349980D01*
X80767371Y-64349980D02*
X80195942Y-64349980D01*
X80481657Y-65349980D02*
X80481657Y-64349980D01*
%TO.C,R42*%
X10752057Y-25097980D02*
X11085390Y-24621790D01*
X11323485Y-25097980D02*
X11323485Y-24097980D01*
X10942533Y-24097980D01*
X10847295Y-24145600D01*
X10799676Y-24193219D01*
X10752057Y-24288457D01*
X10752057Y-24431314D01*
X10799676Y-24526552D01*
X10847295Y-24574171D01*
X10942533Y-24621790D01*
X11323485Y-24621790D01*
X9894914Y-24431314D02*
X9894914Y-25097980D01*
X10133009Y-24050361D02*
X10371104Y-24764647D01*
X9752057Y-24764647D01*
X9418723Y-24193219D02*
X9371104Y-24145600D01*
X9275866Y-24097980D01*
X9037771Y-24097980D01*
X8942533Y-24145600D01*
X8894914Y-24193219D01*
X8847295Y-24288457D01*
X8847295Y-24383695D01*
X8894914Y-24526552D01*
X9466342Y-25097980D01*
X8847295Y-25097980D01*
%TO.C,TP6*%
X86906076Y-64400780D02*
X87382266Y-64400780D01*
X87429885Y-64876971D01*
X87382266Y-64829352D01*
X87287028Y-64781733D01*
X87048933Y-64781733D01*
X86953695Y-64829352D01*
X86906076Y-64876971D01*
X86858457Y-64972209D01*
X86858457Y-65210304D01*
X86906076Y-65305542D01*
X86953695Y-65353161D01*
X87048933Y-65400780D01*
X87287028Y-65400780D01*
X87382266Y-65353161D01*
X87429885Y-65305542D01*
X86572742Y-64400780D02*
X86239409Y-65400780D01*
X85906076Y-64400780D01*
%TO.C,TP4*%
X125164647Y-24576666D02*
X124688457Y-24576666D01*
X125259885Y-24862380D02*
X124926552Y-23862380D01*
X124593219Y-24862380D01*
X124355123Y-23862380D02*
X123736076Y-23862380D01*
X124069409Y-24243333D01*
X123926552Y-24243333D01*
X123831314Y-24290952D01*
X123783695Y-24338571D01*
X123736076Y-24433809D01*
X123736076Y-24671904D01*
X123783695Y-24767142D01*
X123831314Y-24814761D01*
X123926552Y-24862380D01*
X124212266Y-24862380D01*
X124307504Y-24814761D01*
X124355123Y-24767142D01*
X123450361Y-23862380D02*
X123117028Y-24862380D01*
X122783695Y-23862380D01*
X122545600Y-23862380D02*
X121926552Y-23862380D01*
X122259885Y-24243333D01*
X122117028Y-24243333D01*
X122021790Y-24290952D01*
X121974171Y-24338571D01*
X121926552Y-24433809D01*
X121926552Y-24671904D01*
X121974171Y-24767142D01*
X122021790Y-24814761D01*
X122117028Y-24862380D01*
X122402742Y-24862380D01*
X122497980Y-24814761D01*
X122545600Y-24767142D01*
%TO.C,TP15*%
X92574857Y-65400780D02*
X92574857Y-64400780D01*
X92336761Y-64400780D01*
X92193904Y-64448400D01*
X92098666Y-64543638D01*
X92051047Y-64638876D01*
X92003428Y-64829352D01*
X92003428Y-64972209D01*
X92051047Y-65162685D01*
X92098666Y-65257923D01*
X92193904Y-65353161D01*
X92336761Y-65400780D01*
X92574857Y-65400780D01*
X91670095Y-64400780D02*
X91051047Y-64400780D01*
X91384380Y-64781733D01*
X91241523Y-64781733D01*
X91146285Y-64829352D01*
X91098666Y-64876971D01*
X91051047Y-64972209D01*
X91051047Y-65210304D01*
X91098666Y-65305542D01*
X91146285Y-65353161D01*
X91241523Y-65400780D01*
X91527238Y-65400780D01*
X91622476Y-65353161D01*
X91670095Y-65305542D01*
X90765333Y-64400780D02*
X90432000Y-65400780D01*
X90098666Y-64400780D01*
X89860571Y-64400780D02*
X89241523Y-64400780D01*
X89574857Y-64781733D01*
X89432000Y-64781733D01*
X89336761Y-64829352D01*
X89289142Y-64876971D01*
X89241523Y-64972209D01*
X89241523Y-65210304D01*
X89289142Y-65305542D01*
X89336761Y-65353161D01*
X89432000Y-65400780D01*
X89717714Y-65400780D01*
X89812952Y-65353161D01*
X89860571Y-65305542D01*
%TO.C,R46*%
X10650457Y-53545980D02*
X10983790Y-53069790D01*
X11221885Y-53545980D02*
X11221885Y-52545980D01*
X10840933Y-52545980D01*
X10745695Y-52593600D01*
X10698076Y-52641219D01*
X10650457Y-52736457D01*
X10650457Y-52879314D01*
X10698076Y-52974552D01*
X10745695Y-53022171D01*
X10840933Y-53069790D01*
X11221885Y-53069790D01*
X9793314Y-52879314D02*
X9793314Y-53545980D01*
X10031409Y-52498361D02*
X10269504Y-53212647D01*
X9650457Y-53212647D01*
X8840933Y-52545980D02*
X9031409Y-52545980D01*
X9126647Y-52593600D01*
X9174266Y-52641219D01*
X9269504Y-52784076D01*
X9317123Y-52974552D01*
X9317123Y-53355504D01*
X9269504Y-53450742D01*
X9221885Y-53498361D01*
X9126647Y-53545980D01*
X8936171Y-53545980D01*
X8840933Y-53498361D01*
X8793314Y-53450742D01*
X8745695Y-53355504D01*
X8745695Y-53117409D01*
X8793314Y-53022171D01*
X8840933Y-52974552D01*
X8936171Y-52926933D01*
X9126647Y-52926933D01*
X9221885Y-52974552D01*
X9269504Y-53022171D01*
X9317123Y-53117409D01*
%TO.C,R41*%
X10902557Y-10873980D02*
X11235890Y-10397790D01*
X11473985Y-10873980D02*
X11473985Y-9873980D01*
X11093033Y-9873980D01*
X10997795Y-9921600D01*
X10950176Y-9969219D01*
X10902557Y-10064457D01*
X10902557Y-10207314D01*
X10950176Y-10302552D01*
X10997795Y-10350171D01*
X11093033Y-10397790D01*
X11473985Y-10397790D01*
X10045414Y-10207314D02*
X10045414Y-10873980D01*
X10283509Y-9826361D02*
X10521604Y-10540647D01*
X9902557Y-10540647D01*
X8997795Y-10873980D02*
X9569223Y-10873980D01*
X9283509Y-10873980D02*
X9283509Y-9873980D01*
X9378747Y-10016838D01*
X9473985Y-10112076D01*
X9569223Y-10159695D01*
%TO.C,SW5*%
X22909161Y-24396866D02*
X22956780Y-24539723D01*
X22956780Y-24777819D01*
X22909161Y-24873057D01*
X22861542Y-24920676D01*
X22766304Y-24968295D01*
X22671066Y-24968295D01*
X22575828Y-24920676D01*
X22528209Y-24873057D01*
X22480590Y-24777819D01*
X22432971Y-24587342D01*
X22385352Y-24492104D01*
X22337733Y-24444485D01*
X22242495Y-24396866D01*
X22147257Y-24396866D01*
X22052019Y-24444485D01*
X22004400Y-24492104D01*
X21956780Y-24587342D01*
X21956780Y-24825438D01*
X22004400Y-24968295D01*
X21956780Y-25301628D02*
X22956780Y-25539723D01*
X22242495Y-25730200D01*
X22956780Y-25920676D01*
X21956780Y-26158771D01*
X21956780Y-27015914D02*
X21956780Y-26539723D01*
X22432971Y-26492104D01*
X22385352Y-26539723D01*
X22337733Y-26634961D01*
X22337733Y-26873057D01*
X22385352Y-26968295D01*
X22432971Y-27015914D01*
X22528209Y-27063533D01*
X22766304Y-27063533D01*
X22861542Y-27015914D01*
X22909161Y-26968295D01*
X22956780Y-26873057D01*
X22956780Y-26634961D01*
X22909161Y-26539723D01*
X22861542Y-26492104D01*
%TO.C,SW4*%
X22909161Y-10172866D02*
X22956780Y-10315723D01*
X22956780Y-10553819D01*
X22909161Y-10649057D01*
X22861542Y-10696676D01*
X22766304Y-10744295D01*
X22671066Y-10744295D01*
X22575828Y-10696676D01*
X22528209Y-10649057D01*
X22480590Y-10553819D01*
X22432971Y-10363342D01*
X22385352Y-10268104D01*
X22337733Y-10220485D01*
X22242495Y-10172866D01*
X22147257Y-10172866D01*
X22052019Y-10220485D01*
X22004400Y-10268104D01*
X21956780Y-10363342D01*
X21956780Y-10601438D01*
X22004400Y-10744295D01*
X21956780Y-11077628D02*
X22956780Y-11315723D01*
X22242495Y-11506200D01*
X22956780Y-11696676D01*
X21956780Y-11934771D01*
X22290114Y-12744295D02*
X22956780Y-12744295D01*
X21909161Y-12506200D02*
X22623447Y-12268104D01*
X22623447Y-12887152D01*
%TO.C,SW7*%
X22909161Y-52870266D02*
X22956780Y-53013123D01*
X22956780Y-53251219D01*
X22909161Y-53346457D01*
X22861542Y-53394076D01*
X22766304Y-53441695D01*
X22671066Y-53441695D01*
X22575828Y-53394076D01*
X22528209Y-53346457D01*
X22480590Y-53251219D01*
X22432971Y-53060742D01*
X22385352Y-52965504D01*
X22337733Y-52917885D01*
X22242495Y-52870266D01*
X22147257Y-52870266D01*
X22052019Y-52917885D01*
X22004400Y-52965504D01*
X21956780Y-53060742D01*
X21956780Y-53298838D01*
X22004400Y-53441695D01*
X21956780Y-53775028D02*
X22956780Y-54013123D01*
X22242495Y-54203600D01*
X22956780Y-54394076D01*
X21956780Y-54632171D01*
X21956780Y-54917885D02*
X21956780Y-55584552D01*
X22956780Y-55155980D01*
D13*
%TO.C,C18*%
X34698400Y-17213967D02*
X34698400Y-16921433D01*
X33678400Y-17213967D02*
X33678400Y-16921433D01*
%TO.C,C21*%
X18950400Y-41904967D02*
X18950400Y-41612433D01*
X17930400Y-41904967D02*
X17930400Y-41612433D01*
%TO.C,C22*%
X17930400Y-38003433D02*
X17930400Y-38295967D01*
X18950400Y-38003433D02*
X18950400Y-38295967D01*
%TO.C,C23*%
X18950400Y-56128967D02*
X18950400Y-55836433D01*
X17930400Y-56128967D02*
X17930400Y-55836433D01*
%TO.C,C24*%
X17930400Y-52227433D02*
X17930400Y-52519967D01*
X18950400Y-52227433D02*
X18950400Y-52519967D01*
%TO.C,C25*%
X33678400Y-44391967D02*
X33678400Y-44099433D01*
X34698400Y-44391967D02*
X34698400Y-44099433D01*
%TO.C,C26*%
X33678400Y-58234967D02*
X33678400Y-57942433D01*
X34698400Y-58234967D02*
X34698400Y-57942433D01*
%TO.C,C27*%
X33805400Y-30474967D02*
X33805400Y-30182433D01*
X34825400Y-30474967D02*
X34825400Y-30182433D01*
%TO.C,R36*%
X17320176Y-43876700D02*
X17829624Y-43876700D01*
X17320176Y-44921700D02*
X17829624Y-44921700D01*
%TO.C,R37*%
X17320176Y-34986700D02*
X17829624Y-34986700D01*
X17320176Y-36031700D02*
X17829624Y-36031700D01*
%TO.C,R43*%
X17320176Y-58100700D02*
X17829624Y-58100700D01*
X17320176Y-59145700D02*
X17829624Y-59145700D01*
%TO.C,R44*%
X17320176Y-49210700D02*
X17829624Y-49210700D01*
X17320176Y-50255700D02*
X17829624Y-50255700D01*
%TO.C,SW1*%
X74832400Y-10305200D02*
X74832400Y-9305200D01*
X75082400Y-9305200D02*
X72542400Y-9305200D01*
X74282400Y-4885200D02*
X74282400Y-4285200D01*
X71162400Y-4285200D02*
X76462400Y-4285200D01*
X76752400Y-5315200D02*
X76752400Y-9315200D01*
X76462400Y-10305200D02*
X71162400Y-10305200D01*
X74832400Y-8775200D02*
X72792400Y-8775200D01*
X72792400Y-10305200D02*
X72792400Y-9305200D01*
X71162400Y-10305200D02*
X71162400Y-4285200D01*
X76462400Y-4285200D02*
X76462400Y-10305200D01*
X75082400Y-10305200D02*
X75082400Y-9305200D01*
X75882400Y-4885200D02*
X74282400Y-4885200D01*
X75882400Y-4285200D02*
X75882400Y-4885200D01*
X73342400Y-4285200D02*
X73342400Y-4885200D01*
X71742400Y-4885200D02*
X71742400Y-4285200D01*
X72542400Y-9305200D02*
X72542400Y-10305200D01*
X75082400Y-9305200D02*
X74832400Y-8775200D01*
X73342400Y-4885200D02*
X71742400Y-4885200D01*
X72792400Y-8775200D02*
X72542400Y-9305200D01*
%TO.C,U6*%
X35415400Y-16587200D02*
X35660400Y-16587200D01*
X35415400Y-12727200D02*
X35415400Y-8867200D01*
X47185400Y-12727200D02*
X47185400Y-16587200D01*
X35415400Y-8867200D02*
X35660400Y-8867200D01*
X47185400Y-12727200D02*
X47185400Y-8867200D01*
X47185400Y-16587200D02*
X46940400Y-16587200D01*
X35660400Y-8867200D02*
X35660400Y-7052200D01*
X35415400Y-12727200D02*
X35415400Y-16587200D01*
X47185400Y-8867200D02*
X46940400Y-8867200D01*
%TO.C,U10*%
X46931400Y-40078201D02*
X46931400Y-36218201D01*
X46931400Y-43938201D02*
X46686400Y-43938201D01*
X46931400Y-36218201D02*
X46686400Y-36218201D01*
X35406400Y-36218201D02*
X35406400Y-34403201D01*
X35161400Y-40078201D02*
X35161400Y-36218201D01*
X35161400Y-40078201D02*
X35161400Y-43938201D01*
X35161400Y-36218201D02*
X35406400Y-36218201D01*
X35161400Y-43938201D02*
X35406400Y-43938201D01*
X46931400Y-40078201D02*
X46931400Y-43938201D01*
%TO.C,U11*%
X47134401Y-53843201D02*
X47134401Y-49983201D01*
X35364401Y-53843201D02*
X35364401Y-57703201D01*
X47134401Y-53843201D02*
X47134401Y-57703201D01*
X35364401Y-53843201D02*
X35364401Y-49983201D01*
X35609401Y-49983201D02*
X35609401Y-48168201D01*
X47134401Y-49983201D02*
X46889401Y-49983201D01*
X35364401Y-49983201D02*
X35609401Y-49983201D01*
X47134401Y-57703201D02*
X46889401Y-57703201D01*
X35364401Y-57703201D02*
X35609401Y-57703201D01*
%TO.C,U12*%
X35415400Y-22681200D02*
X35660400Y-22681200D01*
X35415400Y-26541200D02*
X35415400Y-22681200D01*
X35415400Y-30401200D02*
X35660400Y-30401200D01*
X47185400Y-26541200D02*
X47185400Y-30401200D01*
X47185400Y-26541200D02*
X47185400Y-22681200D01*
X47185400Y-30401200D02*
X46940400Y-30401200D01*
X47185400Y-22681200D02*
X46940400Y-22681200D01*
X35415400Y-26541200D02*
X35415400Y-30401200D01*
X35660400Y-22681200D02*
X35660400Y-20866200D01*
%TO.C,C2*%
X87428800Y-46119167D02*
X87428800Y-45826633D01*
X86408800Y-46119167D02*
X86408800Y-45826633D01*
%TO.C,C6*%
X89736800Y-59019400D02*
X91846800Y-59019400D01*
X85635800Y-59339400D02*
X87656800Y-59339400D01*
X85481800Y-58618400D02*
X87656800Y-58618400D01*
X85710800Y-59539400D02*
X87656800Y-59539400D01*
X85490800Y-58698400D02*
X87656800Y-58698400D01*
X85862800Y-59859400D02*
X87656800Y-59859400D01*
X86353800Y-60539400D02*
X87656800Y-60539400D01*
X89736800Y-59179400D02*
X91806800Y-59179400D01*
X89736800Y-58978400D02*
X91855800Y-58978400D01*
X85780800Y-59699400D02*
X87656800Y-59699400D01*
X89736800Y-59579400D02*
X91666800Y-59579400D01*
X89736800Y-58818400D02*
X91885800Y-58818400D01*
X85507800Y-58818400D02*
X87656800Y-58818400D01*
X85546800Y-59019400D02*
X87656800Y-59019400D01*
X89736800Y-59939400D02*
X91486800Y-59939400D01*
X89736800Y-58538400D02*
X91918800Y-58538400D01*
X89736800Y-59099400D02*
X91827800Y-59099400D01*
X88294800Y-61539400D02*
X89098800Y-61539400D01*
X89736800Y-59219400D02*
X91794800Y-59219400D01*
X89736800Y-60299400D02*
X91244800Y-60299400D01*
X86982800Y-61059400D02*
X90410800Y-61059400D01*
X87894800Y-61459400D02*
X89498800Y-61459400D01*
X89736800Y-60499400D02*
X91076800Y-60499400D01*
X85495800Y-58738400D02*
X87656800Y-58738400D01*
X89736800Y-58898400D02*
X91871800Y-58898400D01*
X89736800Y-59659400D02*
X91630800Y-59659400D01*
X85840800Y-59819400D02*
X87656800Y-59819400D01*
X86806800Y-60939400D02*
X90586800Y-60939400D01*
X87756800Y-61419400D02*
X89636800Y-61419400D01*
X89736800Y-60019400D02*
X91438800Y-60019400D01*
X86006800Y-60099400D02*
X87656800Y-60099400D01*
X86559800Y-60739400D02*
X90833800Y-60739400D01*
X89736800Y-59299400D02*
X91770800Y-59299400D01*
X89736800Y-60539400D02*
X91039800Y-60539400D01*
X86316800Y-60499400D02*
X87656800Y-60499400D01*
X87264800Y-61219400D02*
X90128800Y-61219400D01*
X85726800Y-59579400D02*
X87656800Y-59579400D01*
X87187800Y-61179400D02*
X90205800Y-61179400D01*
X89736800Y-60139400D02*
X91360800Y-60139400D01*
X85610800Y-59259400D02*
X87656800Y-59259400D01*
X86060800Y-60179400D02*
X87656800Y-60179400D01*
X85514800Y-58858400D02*
X87656800Y-58858400D01*
X86148800Y-60299400D02*
X87656800Y-60299400D01*
X85800800Y-59739400D02*
X87656800Y-59739400D01*
X85678800Y-59459400D02*
X87656800Y-59459400D01*
X89736800Y-60419400D02*
X91146800Y-60419400D01*
X87434800Y-61299400D02*
X89958800Y-61299400D01*
X89736800Y-59619400D02*
X91648800Y-59619400D01*
X87346800Y-61259400D02*
X90046800Y-61259400D01*
X85501800Y-58778400D02*
X87656800Y-58778400D01*
X85537800Y-58978400D02*
X87656800Y-58978400D01*
X89736800Y-60219400D02*
X91303800Y-60219400D01*
X89736800Y-58578400D02*
X91914800Y-58578400D01*
X86514800Y-60699400D02*
X90878800Y-60699400D01*
X86652800Y-60819400D02*
X90740800Y-60819400D01*
X88063800Y-61499400D02*
X89329800Y-61499400D01*
X86032800Y-60139400D02*
X87656800Y-60139400D01*
X85954800Y-60019400D02*
X87656800Y-60019400D01*
X89736800Y-59539400D02*
X91682800Y-59539400D01*
X89736800Y-59059400D02*
X91837800Y-59059400D01*
X87046800Y-61099400D02*
X90346800Y-61099400D01*
X85884800Y-59899400D02*
X87656800Y-59899400D01*
X86089800Y-60219400D02*
X87656800Y-60219400D01*
X89736800Y-59459400D02*
X91714800Y-59459400D01*
X89736800Y-59499400D02*
X91698800Y-59499400D01*
X85820800Y-59779400D02*
X87656800Y-59779400D01*
X86431800Y-60619400D02*
X90961800Y-60619400D01*
X86701800Y-60859400D02*
X90691800Y-60859400D01*
X86212800Y-60379400D02*
X87656800Y-60379400D01*
X89736800Y-58698400D02*
X91902800Y-58698400D01*
X89736800Y-59819400D02*
X91552800Y-59819400D01*
X86920800Y-61019400D02*
X90472800Y-61019400D01*
X85565800Y-59099400D02*
X87656800Y-59099400D01*
X86280800Y-60459400D02*
X87656800Y-60459400D01*
X89736800Y-59419400D02*
X91729800Y-59419400D01*
X89736800Y-60579400D02*
X91001800Y-60579400D01*
X86857800Y-54798159D02*
X86857800Y-55428159D01*
X89736800Y-60459400D02*
X91112800Y-60459400D01*
X85694800Y-59499400D02*
X87656800Y-59499400D01*
X85521800Y-58898400D02*
X87656800Y-58898400D01*
X85930800Y-59979400D02*
X87656800Y-59979400D01*
X89736800Y-59899400D02*
X91508800Y-59899400D01*
X89736800Y-59339400D02*
X91757800Y-59339400D01*
X86391800Y-60579400D02*
X87656800Y-60579400D01*
X87531800Y-61339400D02*
X89861800Y-61339400D01*
X89736800Y-58938400D02*
X91863800Y-58938400D01*
X85762800Y-59659400D02*
X87656800Y-59659400D01*
X85474800Y-58538400D02*
X87656800Y-58538400D01*
X89736800Y-59979400D02*
X91462800Y-59979400D01*
X89736800Y-60179400D02*
X91332800Y-60179400D01*
X86542800Y-55113159D02*
X87172800Y-55113159D01*
X85906800Y-59939400D02*
X87656800Y-59939400D01*
X89736800Y-59859400D02*
X91530800Y-59859400D01*
X86752800Y-60899400D02*
X90640800Y-60899400D01*
X85663800Y-59419400D02*
X87656800Y-59419400D01*
X85466800Y-58378400D02*
X91926800Y-58378400D01*
X89736800Y-59379400D02*
X91743800Y-59379400D01*
X85469800Y-58458400D02*
X91923800Y-58458400D01*
X89736800Y-59779400D02*
X91572800Y-59779400D01*
X89736800Y-60379400D02*
X91180800Y-60379400D01*
X85586800Y-59179400D02*
X87656800Y-59179400D01*
X85472800Y-58498400D02*
X91920800Y-58498400D01*
X87115800Y-61139400D02*
X90277800Y-61139400D01*
X86180800Y-60339400D02*
X87656800Y-60339400D01*
X87637800Y-61379400D02*
X89755800Y-61379400D01*
X89736800Y-59139400D02*
X91817800Y-59139400D01*
X85478800Y-58578400D02*
X87656800Y-58578400D01*
X85529800Y-58938400D02*
X87656800Y-58938400D01*
X86118800Y-60259400D02*
X87656800Y-60259400D01*
X86246800Y-60419400D02*
X87656800Y-60419400D01*
X89736800Y-58658400D02*
X91907800Y-58658400D01*
X89736800Y-60099400D02*
X91386800Y-60099400D01*
X85980800Y-60059400D02*
X87656800Y-60059400D01*
X89736800Y-60259400D02*
X91274800Y-60259400D01*
X85598800Y-59219400D02*
X87656800Y-59219400D01*
X89736800Y-58738400D02*
X91897800Y-58738400D01*
X89736800Y-58858400D02*
X91878800Y-58858400D01*
X89736800Y-60339400D02*
X91212800Y-60339400D01*
X85555800Y-59059400D02*
X87656800Y-59059400D01*
X89736800Y-59739400D02*
X91592800Y-59739400D01*
X85466800Y-58338400D02*
X91926800Y-58338400D01*
X86604800Y-60779400D02*
X90788800Y-60779400D01*
X85622800Y-59299400D02*
X87656800Y-59299400D01*
X85468800Y-58418400D02*
X91924800Y-58418400D01*
X86862800Y-60979400D02*
X90530800Y-60979400D01*
X85466800Y-58298400D02*
X91926800Y-58298400D01*
X85485800Y-58658400D02*
X87656800Y-58658400D01*
X89736800Y-58778400D02*
X91891800Y-58778400D01*
X85744800Y-59619400D02*
X87656800Y-59619400D01*
X85649800Y-59379400D02*
X87656800Y-59379400D01*
X89736800Y-60059400D02*
X91412800Y-60059400D01*
X85575800Y-59139400D02*
X87656800Y-59139400D01*
X86472800Y-60659400D02*
X90920800Y-60659400D01*
X89736800Y-58618400D02*
X91911800Y-58618400D01*
X89736800Y-59259400D02*
X91782800Y-59259400D01*
X89736800Y-59699400D02*
X91612800Y-59699400D01*
X91966800Y-58298400D02*
G75*
G03*
X91966800Y-58298400I-3270000J0D01*
G01*
%TO.C,C5*%
X74586800Y-43153400D02*
X74586800Y-49607400D01*
X74025800Y-43230400D02*
X74025800Y-45340400D01*
X71585800Y-45578400D02*
X71585800Y-47182400D01*
X72305800Y-44243400D02*
X72305800Y-48517400D01*
X71905800Y-44799400D02*
X71905800Y-47961400D01*
X74386800Y-47420400D02*
X74386800Y-49591400D01*
X73345800Y-47420400D02*
X73345800Y-49296400D01*
X74066800Y-47420400D02*
X74066800Y-49539400D01*
X73625800Y-47420400D02*
X73625800Y-49413400D01*
X73505800Y-47420400D02*
X73505800Y-49366400D01*
X73985800Y-47420400D02*
X73985800Y-49521400D01*
X73585800Y-47420400D02*
X73585800Y-49398400D01*
X73585800Y-43362400D02*
X73585800Y-45340400D01*
X71505800Y-45978400D02*
X71505800Y-46782400D01*
X73905800Y-43259400D02*
X73905800Y-45340400D01*
X72985800Y-43664400D02*
X72985800Y-45340400D01*
X71865800Y-44871400D02*
X71865800Y-47889400D01*
X73745800Y-47420400D02*
X73745800Y-49454400D01*
X71745800Y-45118400D02*
X71745800Y-47642400D01*
X73425800Y-43428400D02*
X73425800Y-45340400D01*
X72665800Y-43896400D02*
X72665800Y-45340400D01*
X72865800Y-47420400D02*
X72865800Y-49016400D01*
X72745800Y-47420400D02*
X72745800Y-48928400D01*
X72225800Y-44336400D02*
X72225800Y-48424400D01*
X72545800Y-47420400D02*
X72545800Y-48760400D01*
X72945800Y-43690400D02*
X72945800Y-45340400D01*
X73745800Y-43306400D02*
X73745800Y-45340400D01*
X73825800Y-43282400D02*
X73825800Y-45340400D01*
X73025800Y-43638400D02*
X73025800Y-45340400D01*
X72825800Y-43773400D02*
X72825800Y-45340400D01*
X73305800Y-43484400D02*
X73305800Y-45340400D01*
X73825800Y-47420400D02*
X73825800Y-49478400D01*
X73545800Y-43378400D02*
X73545800Y-45340400D01*
X73625800Y-43347400D02*
X73625800Y-45340400D01*
X71705800Y-45215400D02*
X71705800Y-47545400D01*
X74466800Y-43162400D02*
X74466800Y-45340400D01*
X72745800Y-43832400D02*
X72745800Y-45340400D01*
X72625800Y-43930400D02*
X72625800Y-45340400D01*
X72665800Y-47420400D02*
X72665800Y-48864400D01*
X72585800Y-47420400D02*
X72585800Y-48796400D01*
X72785800Y-47420400D02*
X72785800Y-48958400D01*
X77932041Y-44226400D02*
X77932041Y-44856400D01*
X74186800Y-43198400D02*
X74186800Y-45340400D01*
X72425800Y-44115400D02*
X72425800Y-48645400D01*
X72985800Y-47420400D02*
X72985800Y-49096400D01*
X72825800Y-47420400D02*
X72825800Y-48987400D01*
X73105800Y-43590400D02*
X73105800Y-45340400D01*
X73225800Y-43524400D02*
X73225800Y-45340400D01*
X73785800Y-43294400D02*
X73785800Y-45340400D01*
X73425800Y-47420400D02*
X73425800Y-49332400D01*
X74666800Y-43150400D02*
X74666800Y-49610400D01*
X74066800Y-43221400D02*
X74066800Y-45340400D01*
X72145800Y-44436400D02*
X72145800Y-48324400D01*
X73465800Y-47420400D02*
X73465800Y-49350400D01*
X74306800Y-43179400D02*
X74306800Y-45340400D01*
X73185800Y-43546400D02*
X73185800Y-45340400D01*
X72385800Y-44156400D02*
X72385800Y-48604400D01*
X73985800Y-43239400D02*
X73985800Y-45340400D01*
X73505800Y-43394400D02*
X73505800Y-45340400D01*
X73705800Y-43319400D02*
X73705800Y-45340400D01*
X74626800Y-43152400D02*
X74626800Y-49608400D01*
X72705800Y-47420400D02*
X72705800Y-48896400D01*
X74025800Y-47420400D02*
X74025800Y-49530400D01*
X74266800Y-47420400D02*
X74266800Y-49575400D01*
X74306800Y-47420400D02*
X74306800Y-49581400D01*
X74146800Y-47420400D02*
X74146800Y-49555400D01*
X74426800Y-47420400D02*
X74426800Y-49595400D01*
X74506800Y-43158400D02*
X74506800Y-45340400D01*
X71985800Y-44666400D02*
X71985800Y-48094400D01*
X72585800Y-43964400D02*
X72585800Y-45340400D01*
X73145800Y-47420400D02*
X73145800Y-49192400D01*
X74146800Y-43205400D02*
X74146800Y-45340400D01*
X72505800Y-44037400D02*
X72505800Y-45340400D01*
X71665800Y-45321400D02*
X71665800Y-47439400D01*
X73145800Y-43568400D02*
X73145800Y-45340400D01*
X73105800Y-47420400D02*
X73105800Y-49170400D01*
X73945800Y-43249400D02*
X73945800Y-45340400D01*
X73385800Y-47420400D02*
X73385800Y-49314400D01*
X72945800Y-47420400D02*
X72945800Y-49070400D01*
X74346800Y-47420400D02*
X74346800Y-49586400D01*
X72065800Y-44546400D02*
X72065800Y-48214400D01*
X72465800Y-44075400D02*
X72465800Y-45340400D01*
X74546800Y-43156400D02*
X74546800Y-49604400D01*
X73865800Y-43270400D02*
X73865800Y-45340400D01*
X71945800Y-44730400D02*
X71945800Y-48030400D01*
X71785800Y-45030400D02*
X71785800Y-47730400D01*
X72185800Y-44385400D02*
X72185800Y-48375400D01*
X72345800Y-44198400D02*
X72345800Y-48562400D01*
X73225800Y-47420400D02*
X73225800Y-49236400D01*
X71625800Y-45440400D02*
X71625800Y-47320400D01*
X73665800Y-47420400D02*
X73665800Y-49427400D01*
X73465800Y-43410400D02*
X73465800Y-45340400D01*
X72785800Y-43802400D02*
X72785800Y-45340400D01*
X72705800Y-43864400D02*
X72705800Y-45340400D01*
X73905800Y-47420400D02*
X73905800Y-49501400D01*
X73265800Y-43504400D02*
X73265800Y-45340400D01*
X74506800Y-47420400D02*
X74506800Y-49602400D01*
X74106800Y-43213400D02*
X74106800Y-45340400D01*
X74746800Y-43150400D02*
X74746800Y-49610400D01*
X74226800Y-43191400D02*
X74226800Y-45340400D01*
X72105800Y-44490400D02*
X72105800Y-48270400D01*
X73305800Y-47420400D02*
X73305800Y-49276400D01*
X72905800Y-43716400D02*
X72905800Y-45340400D01*
X72545800Y-44000400D02*
X72545800Y-45340400D01*
X73185800Y-47420400D02*
X73185800Y-49214400D01*
X71825800Y-44948400D02*
X71825800Y-47812400D01*
X72505800Y-47420400D02*
X72505800Y-48723400D01*
X72865800Y-43744400D02*
X72865800Y-45340400D01*
X73945800Y-47420400D02*
X73945800Y-49511400D01*
X74706800Y-43150400D02*
X74706800Y-49610400D01*
X73265800Y-47420400D02*
X73265800Y-49256400D01*
X73025800Y-47420400D02*
X73025800Y-49122400D01*
X72625800Y-47420400D02*
X72625800Y-48830400D01*
X74186800Y-47420400D02*
X74186800Y-49562400D01*
X74226800Y-47420400D02*
X74226800Y-49569400D01*
X78247041Y-44541400D02*
X77617041Y-44541400D01*
X74346800Y-43174400D02*
X74346800Y-45340400D01*
X74106800Y-47420400D02*
X74106800Y-49547400D01*
X73545800Y-47420400D02*
X73545800Y-49382400D01*
X73345800Y-43464400D02*
X73345800Y-45340400D01*
X74466800Y-47420400D02*
X74466800Y-49598400D01*
X72025800Y-44604400D02*
X72025800Y-48156400D01*
X73065800Y-43614400D02*
X73065800Y-45340400D01*
X72465800Y-47420400D02*
X72465800Y-48685400D01*
X74426800Y-43165400D02*
X74426800Y-45340400D01*
X72265800Y-44288400D02*
X72265800Y-48472400D01*
X74386800Y-43169400D02*
X74386800Y-45340400D01*
X73785800Y-47420400D02*
X73785800Y-49466400D01*
X73705800Y-47420400D02*
X73705800Y-49441400D01*
X74266800Y-43185400D02*
X74266800Y-45340400D01*
X73665800Y-43333400D02*
X73665800Y-45340400D01*
X72905800Y-47420400D02*
X72905800Y-49044400D01*
X71545800Y-45747400D02*
X71545800Y-47013400D01*
X73385800Y-43446400D02*
X73385800Y-45340400D01*
X73865800Y-47420400D02*
X73865800Y-49490400D01*
X73065800Y-47420400D02*
X73065800Y-49146400D01*
X78016800Y-46380400D02*
G75*
G03*
X78016800Y-46380400I-3270000J0D01*
G01*
%TO.C,C1*%
X76497567Y-52728400D02*
X76205033Y-52728400D01*
X76497567Y-53748400D02*
X76205033Y-53748400D01*
%TO.C,F1*%
X79954800Y-60546836D02*
X79954800Y-61750964D01*
X78134800Y-60546836D02*
X78134800Y-61750964D01*
%TO.C,U2*%
X87034800Y-49088400D02*
X88834800Y-49088400D01*
X88834800Y-52308400D02*
X86384800Y-52308400D01*
%TO.C,C4*%
X90726800Y-53192633D02*
X90726800Y-53485167D01*
X91746800Y-53192633D02*
X91746800Y-53485167D01*
%TO.C,J1*%
X73774400Y-65717200D02*
X73774400Y-65117200D01*
X70654400Y-59697200D02*
X75954400Y-59697200D01*
X73774400Y-65117200D02*
X75374400Y-65117200D01*
X72034400Y-60697200D02*
X74574400Y-60697200D01*
X71234400Y-65717200D02*
X71234400Y-65117200D01*
X72034400Y-60697200D02*
X72284400Y-61227200D01*
X75954400Y-59697200D02*
X75954400Y-65717200D01*
X70364400Y-64687200D02*
X70364400Y-60687200D01*
X74324400Y-61227200D02*
X74574400Y-60697200D01*
X71234400Y-65117200D02*
X72834400Y-65117200D01*
X72834400Y-65117200D02*
X72834400Y-65717200D01*
X70654400Y-65717200D02*
X70654400Y-59697200D01*
X75954400Y-65717200D02*
X70654400Y-65717200D01*
X74324400Y-59697200D02*
X74324400Y-60697200D01*
X74574400Y-60697200D02*
X74574400Y-59697200D01*
X75374400Y-65117200D02*
X75374400Y-65717200D01*
X72284400Y-61227200D02*
X74324400Y-61227200D01*
X72034400Y-59697200D02*
X72034400Y-60697200D01*
X72284400Y-59697200D02*
X72284400Y-60697200D01*
%TO.C,U1*%
X85526800Y-51458400D02*
X85526800Y-54288400D01*
X78896800Y-51458400D02*
X79166800Y-51458400D01*
X85796800Y-49958400D02*
X85796800Y-51458400D01*
X79166800Y-51458400D02*
X79166800Y-52558400D01*
X85796800Y-51458400D02*
X85526800Y-51458400D01*
X78896800Y-49958400D02*
X78896800Y-51458400D01*
%TO.C,Q1*%
X78480800Y-56034400D02*
X79410800Y-56034400D01*
X81640800Y-56034400D02*
X80710800Y-56034400D01*
X81640800Y-56034400D02*
X81640800Y-58194400D01*
X78480800Y-56034400D02*
X78480800Y-57494400D01*
%TO.C,C3*%
X85910033Y-41806400D02*
X86202567Y-41806400D01*
X85910033Y-42826400D02*
X86202567Y-42826400D01*
%TO.C,C10*%
X100720400Y-7245200D02*
X101620400Y-8145200D01*
X101620400Y-1405200D02*
X116260400Y-1405200D01*
X98020400Y-8145200D02*
X99820400Y-8145200D01*
X99820400Y-8145200D02*
X100720400Y-7245200D01*
X96080400Y-4775200D02*
X98020400Y-4775200D01*
X101620400Y-8145200D02*
X116260400Y-8145200D01*
X95920400Y-7375200D02*
X97720400Y-7375200D01*
X98020400Y-8145200D02*
X98020400Y-1405200D01*
X118200400Y-4775200D02*
X116260400Y-4775200D01*
X99820400Y-1405200D02*
X100720400Y-2305200D01*
X98020400Y-1405200D02*
X99820400Y-1405200D01*
X96820400Y-8275200D02*
X96820400Y-6475200D01*
X116260400Y-8145200D02*
X116260400Y-1405200D01*
X100720400Y-2305200D02*
X101620400Y-1405200D01*
%TO.C,C11*%
X121430400Y-32461200D02*
X121430400Y-4461200D01*
X136430400Y-32461200D02*
X121430400Y-32461200D01*
X136430400Y-4461200D02*
X121430400Y-4461200D01*
X136430400Y-32461200D02*
X136430400Y-4461200D01*
%TO.C,C30*%
X100296400Y-44753200D02*
X99396400Y-45653200D01*
X94456400Y-45653200D02*
X93556400Y-46553200D01*
X100296400Y-46553200D02*
X100296400Y-61193200D01*
X93426400Y-41753200D02*
X95226400Y-41753200D01*
X96926400Y-63133200D02*
X96926400Y-61193200D01*
X93556400Y-42953200D02*
X93556400Y-44753200D01*
X100296400Y-42953200D02*
X100296400Y-44753200D01*
X94326400Y-40853200D02*
X94326400Y-42653200D01*
X93556400Y-46553200D02*
X93556400Y-61193200D01*
X93556400Y-61193200D02*
X100296400Y-61193200D01*
X93556400Y-44753200D02*
X94456400Y-45653200D01*
X99396400Y-45653200D02*
X100296400Y-46553200D01*
X96926400Y-41013200D02*
X96926400Y-42953200D01*
X93556400Y-42953200D02*
X100296400Y-42953200D01*
%TO.C,C32*%
X107524400Y-45653200D02*
X108424400Y-46553200D01*
X102584400Y-45653200D02*
X101684400Y-46553200D01*
X108424400Y-42953200D02*
X108424400Y-44753200D01*
X108424400Y-44753200D02*
X107524400Y-45653200D01*
X101684400Y-44753200D02*
X102584400Y-45653200D01*
X101684400Y-61193200D02*
X108424400Y-61193200D01*
X105054400Y-63133200D02*
X105054400Y-61193200D01*
X101684400Y-42953200D02*
X101684400Y-44753200D01*
X102454400Y-40853200D02*
X102454400Y-42653200D01*
X101684400Y-42953200D02*
X108424400Y-42953200D01*
X101684400Y-46553200D02*
X101684400Y-61193200D01*
X105054400Y-41013200D02*
X105054400Y-42953200D01*
X108424400Y-46553200D02*
X108424400Y-61193200D01*
X101554400Y-41753200D02*
X103354400Y-41753200D01*
%TO.C,C35*%
X109304400Y-42953200D02*
X116044400Y-42953200D01*
X109304400Y-61193200D02*
X116044400Y-61193200D01*
X109304400Y-44753200D02*
X110204400Y-45653200D01*
X116044400Y-42953200D02*
X116044400Y-44753200D01*
X110204400Y-45653200D02*
X109304400Y-46553200D01*
X109304400Y-46553200D02*
X109304400Y-61193200D01*
X110074400Y-40853200D02*
X110074400Y-42653200D01*
X115144400Y-45653200D02*
X116044400Y-46553200D01*
X109304400Y-42953200D02*
X109304400Y-44753200D01*
X116044400Y-46553200D02*
X116044400Y-61193200D01*
X109174400Y-41753200D02*
X110974400Y-41753200D01*
X112674400Y-41013200D02*
X112674400Y-42953200D01*
X112674400Y-63133200D02*
X112674400Y-61193200D01*
X116044400Y-44753200D02*
X115144400Y-45653200D01*
%TO.C,C36*%
X120294400Y-41013200D02*
X120294400Y-42953200D01*
X116794400Y-41753200D02*
X118594400Y-41753200D01*
X123664400Y-44753200D02*
X122764400Y-45653200D01*
X116924400Y-42953200D02*
X123664400Y-42953200D01*
X122764400Y-45653200D02*
X123664400Y-46553200D01*
X117694400Y-40853200D02*
X117694400Y-42653200D01*
X116924400Y-44753200D02*
X117824400Y-45653200D01*
X123664400Y-46553200D02*
X123664400Y-61193200D01*
X117824400Y-45653200D02*
X116924400Y-46553200D01*
X116924400Y-61193200D02*
X123664400Y-61193200D01*
X123664400Y-42953200D02*
X123664400Y-44753200D01*
X116924400Y-42953200D02*
X116924400Y-44753200D01*
X116924400Y-46553200D02*
X116924400Y-61193200D01*
X120294400Y-63133200D02*
X120294400Y-61193200D01*
%TO.C,J4*%
X136278400Y-40953200D02*
X130258400Y-40953200D01*
X130258400Y-35653200D02*
X136278400Y-35653200D01*
X135678400Y-38773200D02*
X136278400Y-38773200D01*
X130258400Y-39573200D02*
X131258400Y-39573200D01*
X136278400Y-37833200D02*
X135678400Y-37833200D01*
X130258400Y-37283200D02*
X131258400Y-37283200D01*
X131788400Y-37283200D02*
X131258400Y-37033200D01*
X135678400Y-37833200D02*
X135678400Y-36233200D01*
X131788400Y-39323200D02*
X131788400Y-37283200D01*
X135248400Y-41243200D02*
X131248400Y-41243200D01*
X130258400Y-40953200D02*
X130258400Y-35653200D01*
X131258400Y-37033200D02*
X130258400Y-37033200D01*
X130258400Y-39323200D02*
X131258400Y-39323200D01*
X131258400Y-39573200D02*
X131788400Y-39323200D01*
X131258400Y-39573200D02*
X131258400Y-37033200D01*
X135678400Y-36233200D02*
X136278400Y-36233200D01*
X135678400Y-40373200D02*
X135678400Y-38773200D01*
X136278400Y-40373200D02*
X135678400Y-40373200D01*
X136278400Y-35653200D02*
X136278400Y-40953200D01*
%TO.C,J3*%
X135678400Y-53581200D02*
X135678400Y-51981200D01*
X130258400Y-45411200D02*
X131258400Y-45411200D01*
X135678400Y-48501200D02*
X135678400Y-46901200D01*
X136278400Y-45961200D02*
X135678400Y-45961200D01*
X130258400Y-55071200D02*
X131258400Y-55071200D01*
X131258400Y-45161200D02*
X130258400Y-45161200D01*
X135248400Y-56991200D02*
X131248400Y-56991200D01*
X131258400Y-55321200D02*
X131258400Y-45161200D01*
X136278400Y-56701200D02*
X130258400Y-56701200D01*
X131788400Y-45411200D02*
X131258400Y-45161200D01*
X135678400Y-45961200D02*
X135678400Y-44361200D01*
X135678400Y-51041200D02*
X135678400Y-49441200D01*
X130258400Y-55321200D02*
X131258400Y-55321200D01*
X130258400Y-43781200D02*
X136278400Y-43781200D01*
X135678400Y-44361200D02*
X136278400Y-44361200D01*
X136278400Y-43781200D02*
X136278400Y-56701200D01*
X135678400Y-51981200D02*
X136278400Y-51981200D01*
X136278400Y-53581200D02*
X135678400Y-53581200D01*
X136278400Y-56121200D02*
X135678400Y-56121200D01*
X131258400Y-55321200D02*
X131788400Y-55071200D01*
X135678400Y-54521200D02*
X136278400Y-54521200D01*
X135678400Y-46901200D02*
X136278400Y-46901200D01*
X131788400Y-55071200D02*
X131788400Y-45411200D01*
X136278400Y-51041200D02*
X135678400Y-51041200D01*
X130258400Y-56701200D02*
X130258400Y-43781200D01*
X135678400Y-56121200D02*
X135678400Y-54521200D01*
X135678400Y-49441200D02*
X136278400Y-49441200D01*
X136278400Y-48501200D02*
X135678400Y-48501200D01*
%TO.C,R30*%
X17273176Y-21553700D02*
X17782624Y-21553700D01*
X17273176Y-20508700D02*
X17782624Y-20508700D01*
%TO.C,R29*%
X17273176Y-30189700D02*
X17782624Y-30189700D01*
X17273176Y-29144700D02*
X17782624Y-29144700D01*
%TO.C,R15*%
X17320176Y-5776700D02*
X17829624Y-5776700D01*
X17320176Y-6821700D02*
X17829624Y-6821700D01*
%TO.C,R14*%
X17423676Y-15428700D02*
X17933124Y-15428700D01*
X17423676Y-16473700D02*
X17933124Y-16473700D01*
%TO.C,C20*%
X17930400Y-23424933D02*
X17930400Y-23717467D01*
X18950400Y-23424933D02*
X18950400Y-23717467D01*
%TO.C,C16*%
X18950400Y-12948967D02*
X18950400Y-12656433D01*
X17930400Y-12948967D02*
X17930400Y-12656433D01*
%TO.C,C19*%
X18950400Y-27172967D02*
X18950400Y-26880433D01*
X17930400Y-27172967D02*
X17930400Y-26880433D01*
%TO.C,C17*%
X17930400Y-8793433D02*
X17930400Y-9085967D01*
X18950400Y-8793433D02*
X18950400Y-9085967D01*
%TO.C,SW2*%
X68478400Y-9305200D02*
X65938400Y-9305200D01*
X65138400Y-4885200D02*
X65138400Y-4285200D01*
X64558400Y-4285200D02*
X69858400Y-4285200D01*
X69278400Y-4885200D02*
X67678400Y-4885200D01*
X66188400Y-8775200D02*
X65938400Y-9305200D01*
X68478400Y-10305200D02*
X68478400Y-9305200D01*
X69858400Y-10305200D02*
X64558400Y-10305200D01*
X67678400Y-4885200D02*
X67678400Y-4285200D01*
X65938400Y-9305200D02*
X65938400Y-10305200D01*
X69858400Y-4285200D02*
X69858400Y-10305200D01*
X64558400Y-10305200D02*
X64558400Y-4285200D01*
X66738400Y-4285200D02*
X66738400Y-4885200D01*
X68478400Y-9305200D02*
X68228400Y-8775200D01*
X66738400Y-4885200D02*
X65138400Y-4885200D01*
X70148400Y-5315200D02*
X70148400Y-9315200D01*
X68228400Y-8775200D02*
X66188400Y-8775200D01*
X69278400Y-4285200D02*
X69278400Y-4885200D01*
X68228400Y-10305200D02*
X68228400Y-9305200D01*
X66188400Y-10305200D02*
X66188400Y-9305200D01*
%TO.C,R45*%
X9702076Y-36917100D02*
X10211524Y-36917100D01*
X9702076Y-37962100D02*
X10211524Y-37962100D01*
%TO.C,SW6*%
X19625400Y-46154200D02*
X19625400Y-33754200D01*
X6425400Y-46154200D02*
X19625400Y-46154200D01*
X6425400Y-33754200D02*
X6425400Y-46154200D01*
X19625400Y-33754200D02*
X6425400Y-33754200D01*
%TO.C,TP5*%
X81138800Y-62647600D02*
X81138800Y-64047600D01*
X82538800Y-62647600D02*
X81138800Y-62647600D01*
X82538800Y-64047600D02*
X82538800Y-62647600D01*
X81138800Y-64047600D02*
X82538800Y-64047600D01*
%TO.C,R42*%
X9854476Y-22693100D02*
X10363924Y-22693100D01*
X9854476Y-23738100D02*
X10363924Y-23738100D01*
%TO.C,TP6*%
X87415600Y-62698400D02*
X86015600Y-62698400D01*
X86015600Y-62698400D02*
X86015600Y-64098400D01*
X86015600Y-64098400D02*
X87415600Y-64098400D01*
X87415600Y-64098400D02*
X87415600Y-62698400D01*
%TO.C,TP4*%
X124245600Y-22160000D02*
X122845600Y-22160000D01*
X122845600Y-22160000D02*
X122845600Y-23560000D01*
X122845600Y-23560000D02*
X124245600Y-23560000D01*
X124245600Y-23560000D02*
X124245600Y-22160000D01*
%TO.C,TP15*%
X90232000Y-62698400D02*
X90232000Y-64098400D01*
X90232000Y-64098400D02*
X91632000Y-64098400D01*
X91632000Y-62698400D02*
X90232000Y-62698400D01*
X91632000Y-64098400D02*
X91632000Y-62698400D01*
%TO.C,R46*%
X9752876Y-51141100D02*
X10262324Y-51141100D01*
X9752876Y-52186100D02*
X10262324Y-52186100D01*
%TO.C,R41*%
X10004976Y-8469100D02*
X10514424Y-8469100D01*
X10004976Y-9514100D02*
X10514424Y-9514100D01*
%TO.C,SW5*%
X19625400Y-31930200D02*
X19625400Y-19530200D01*
X6425400Y-31930200D02*
X19625400Y-31930200D01*
X6425400Y-19530200D02*
X6425400Y-31930200D01*
X19625400Y-19530200D02*
X6425400Y-19530200D01*
%TO.C,SW4*%
X19599400Y-5306200D02*
X6399400Y-5306200D01*
X19599400Y-17706200D02*
X19599400Y-5306200D01*
X6399400Y-5306200D02*
X6399400Y-17706200D01*
X6399400Y-17706200D02*
X19599400Y-17706200D01*
%TO.C,SW7*%
X19599400Y-60378200D02*
X19599400Y-47978200D01*
X6399400Y-47978200D02*
X6399400Y-60378200D01*
X19599400Y-47978200D02*
X6399400Y-47978200D01*
X6399400Y-60378200D02*
X19599400Y-60378200D01*
%TD*%
M02*
