%TF.GenerationSoftware,KiCad,Pcbnew,6.0.3-a3aad9c10e~116~ubuntu20.04.1*%
%TF.CreationDate,2022-03-31T16:15:10-05:00*%
%TF.ProjectId,audio-processor,61756469-6f2d-4707-926f-636573736f72,rev?*%
%TF.SameCoordinates,Original*%
%TF.FileFunction,Profile,NP*%
%FSLAX46Y46*%
G04 Gerber Fmt 4.6, Leading zero omitted, Abs format (unit mm)*
G04 Created by KiCad (PCBNEW 6.0.3-a3aad9c10e~116~ubuntu20.04.1) date 2022-03-31 16:15:10*
%MOMM*%
%LPD*%
G01*
G04 APERTURE LIST*
%TA.AperFunction,Profile*%
%ADD10C,0.050000*%
%TD*%
G04 APERTURE END LIST*
D10*
X4724400Y-457200D02*
X132740400Y-457200D01*
X136804400Y-62433200D02*
X136804400Y-4521200D01*
X136804400Y-62433200D02*
G75*
G03*
X132740400Y-66497200I0J-4064000D01*
G01*
X132740400Y-457200D02*
G75*
G03*
X136804400Y-4521200I4064000J0D01*
G01*
X4724400Y-66497200D02*
G75*
G03*
X660400Y-62433200I-4064000J0D01*
G01*
X660400Y-4521200D02*
X660400Y-62433200D01*
X4724400Y-66497200D02*
X132740400Y-66497200D01*
X660400Y-4521200D02*
G75*
G03*
X4724400Y-457200I0J4064000D01*
G01*
M02*
