[SCRIPT]
;Script : AK7776
;  by AK7776 Control Software
;
RI:L ; AK7776 PDN pin = "L"
RI:H ; AK7776 PDN pin = "H"
T,50mS

;
; B Board Setting
;
; FPGA Setting
X:0x00,0x0002
X:0x01,0x0000
X:0x02,0x0000
X:0x03,0x0000
X:0x04,0x0000
X:0x05,0x0000
X:0x06,0x0000
;
; AK4118A1 Setting
D1:0x00,0x23
D1:0x01,0x5A
D1:0x03,0x4B
D1:0x0D,0x04
;
; AK7776 Setting
W:0xC0,0x0000,0x03
W:0xC0,0x0001,0x05
W:0xC0,0x0002,0x00
W:0xC0,0x0003,0x5C
W:0xC0,0x0004,0x00
W:0xC0,0x0005,0x00
W:0xC0,0x0008,0x01
W:0xC0,0x0009,0x01
W:0xC0,0x000A,0x01
W:0xC0,0x000B,0x00
W:0xC0,0x000C,0x00
W:0xC0,0x000D,0x02
W:0xC0,0x000E,0x01
W:0xC0,0x0010,0x00
W:0xC0,0x0011,0x01
W:0xC0,0x0012,0x17
W:0xC0,0x0013,0x00
W:0xC0,0x0014,0x80
W:0xC0,0x0015,0x00
W:0xC0,0x0016,0x00
W:0xC0,0x0017,0x00
W:0xC0,0x0018,0x80
W:0xC0,0x0019,0x01
W:0xC0,0x001A,0x47
W:0xC0,0x001B,0x00
W:0xC0,0x001C,0x00
W:0xC0,0x001D,0x00
W:0xC0,0x001E,0x00
W:0xC0,0x001F,0x00
W:0xC0,0x0020,0x00
W:0xC0,0x0021,0x00
W:0xC0,0x0022,0x00
W:0xC0,0x0023,0x00
W:0xC0,0x0025,0x00
W:0xC0,0x0026,0x00
W:0xC0,0x0027,0x00
W:0xC0,0x0029,0x00
W:0xC0,0x002A,0x00
W:0xC0,0x002B,0x00
W:0xC0,0x002D,0x00
W:0xC0,0x0031,0x00
W:0xC0,0x0040,0x00
W:0xC0,0x0041,0x01
W:0xC0,0x0042,0x00
W:0xC0,0x0043,0x01
W:0xC0,0x0044,0x00
W:0xC0,0x0045,0x03
W:0xC0,0x0046,0x00
W:0xC0,0x0047,0x01
W:0xC0,0x0048,0x00
W:0xC0,0x0049,0x00
W:0xC0,0x0050,0x00
W:0xC0,0x0051,0x01
W:0xC0,0x0052,0x00
W:0xC0,0x0053,0x02
W:0xC0,0x0054,0x00
W:0xC0,0x0055,0x00
W:0xC0,0x0056,0x00
W:0xC0,0x0057,0x04
W:0xC0,0x0058,0x00
W:0xC0,0x0059,0x00
W:0xC0,0x005A,0x00
W:0xC0,0x005B,0x00
W:0xC0,0x0060,0x00
W:0xC0,0x0061,0x01
W:0xC0,0x0062,0x00
W:0xC0,0x0063,0x01
W:0xC0,0x0064,0x00
W:0xC0,0x0065,0x00
W:0xC0,0x0066,0x00
W:0xC0,0x0067,0x04
W:0xC0,0x0068,0x00
W:0xC0,0x0069,0x00
W:0xC0,0x006A,0x00
W:0xC0,0x006B,0x00
W:0xC0,0x0087,0x00
W:0xC0,0x0088,0x01
W:0xC0,0x0089,0x04
W:0xC0,0x0098,0x01
W:0xC0,0x0099,0x00
W:0xC0,0x00A0,0x03
W:0xC0,0x00A1,0x03
W:0xC0,0x00A2,0x03
W:0xC0,0x00A3,0x01
W:0xC0,0x00A4,0x01
W:0xC0,0x00A5,0x00
W:0xC0,0x00A6,0x00
W:0xC0,0x00A7,0x00
W:0xC0,0x00B0,0x04
W:0xC0,0x00B1,0x00
W:0xC0,0x00C0,0x04
W:0xC0,0x00C1,0x03
W:0xC0,0x00C2,0x03
W:0xC0,0x00C3,0x00
W:0xC0,0x00C4,0x00
W:0xC0,0x00C5,0x00
W:0xC0,0x00C6,0x00
W:0xC0,0x00C7,0x00
W:0xC0,0x00C8,0x00
W:0xC0,0x00C9,0x00
W:0xC0,0x00CA,0x00
W:0xC0,0x00CB,0x00
W:0xC0,0x0106,0x80
W:0xC0,0x0108,0x58
W:0xC0,0x0109,0x58
W:0xC0,0x0118,0x40
W:0xC0,0x0119,0x48
W:0xC0,0x011A,0x00
W:0xC0,0x011B,0x00
W:0xC0,0x0120,0x08
W:0xC0,0x0121,0x09
W:0xC0,0x0122,0x18
W:0xC0,0x0123,0x81
W:0xC0,0x0124,0x80
W:0xC0,0x0125,0x00
W:0xC0,0x0126,0x00
W:0xC0,0x0127,0x00
W:0xC0,0x0140,0x08
W:0xC0,0x0141,0x00
W:0xC0,0x0142,0x00
W:0xC0,0x0143,0x00
W:0xC0,0x0144,0x00
W:0xC0,0x0145,0x00
W:0xC0,0x0146,0x00
W:0xC0,0x0147,0x00
W:0xC0,0x0148,0x24
W:0xC0,0x0149,0x00
W:0xC0,0x014A,0x00
W:0xC0,0x014B,0x00
W:0xC0,0x014C,0x00
W:0xC0,0x014D,0x00
W:0xC0,0x014E,0x00
W:0xC0,0x014F,0x00
W:0xC0,0x0150,0x00
W:0xC0,0x0151,0x00
W:0xC0,0x0152,0x00
W:0xC0,0x0153,0x00
W:0xC0,0x0154,0x00
W:0xC0,0x0155,0x00
W:0xC0,0x0156,0x00
W:0xC0,0x0157,0x00
W:0xC0,0x0158,0x80
W:0xC0,0x0159,0x00
W:0xC0,0x015A,0x00
W:0xC0,0x015B,0x00
W:0xC0,0x015C,0x00
W:0xC0,0x015D,0x00
W:0xC0,0x015E,0x00
W:0xC0,0x015F,0x00
W:0xC0,0x0160,0x00
W:0xC0,0x0161,0x00
W:0xC0,0x0162,0x00
W:0xC0,0x0163,0x00
W:0xC0,0x0164,0x00
W:0xC0,0x0165,0x00
W:0xC0,0x0166,0x00
W:0xC0,0x0167,0x00
W:0xC0,0x0168,0x00
W:0xC0,0x0169,0x00
W:0xC0,0x016A,0x00
W:0xC0,0x016B,0x00
W:0xC0,0x016C,0x00
W:0xC0,0x016D,0x00
W:0xC0,0x016E,0x00
W:0xC0,0x016F,0x00
W:0xC0,0x0180,0x58
W:0xC0,0x0181,0x21
W:0xC0,0x0182,0x22
W:0xC0,0x0183,0x00
W:0xC0,0x0184,0x00
W:0xC0,0x0185,0x00
W:0xC0,0x0186,0x00
W:0xC0,0x0187,0x00
W:0xC0,0x0188,0x00
W:0xC0,0x0189,0x00
W:0xC0,0x018A,0x00
W:0xC0,0x018B,0x00
W:0xC0,0x0200,0x11
W:0xC0,0x0201,0xD4
W:0xC0,0x0202,0x00
W:0xC0,0x0203,0x04
W:0xC0,0x0204,0x00
W:0xC0,0x0205,0x00
W:0xC0,0x0206,0x00
W:0xC0,0x0210,0x00
W:0xC0,0x0211,0x00
W:0xC0,0x0212,0x00
W:0xC0,0x0213,0x00
W:0xC0,0x0214,0x00
W:0xC0,0x0215,0x00
W:0xC0,0x0216,0x00
W:0xC0,0x0217,0x00
W:0xC0,0x0218,0x00
W:0xC0,0x0219,0x00
W:0xC0,0x021A,0x00
W:0xC0,0x021B,0x00
W:0xC0,0x021C,0x00
W:0xC0,0x021D,0x00
W:0xC0,0x021E,0x00
W:0xC0,0x021F,0x00
W:0xC0,0x0220,0x00
W:0xC0,0x0221,0x00
W:0xC0,0x0222,0x00
W:0xC0,0x0223,0x00
W:0xC0,0x0224,0x00
W:0xC0,0x0225,0x00
W:0xC0,0x0226,0x00
W:0xC0,0x0227,0x00
W:0xC0,0x0228,0x00
W:0xC0,0x0229,0x00
W:0xC0,0x022A,0x00
W:0xC0,0x022B,0x00
W:0xC0,0x022C,0x00
W:0xC0,0x022D,0x00
W:0xC0,0x022E,0x00
W:0xC0,0x022F,0x00
W:0xC0,0x0400,0x00
W:0xC0,0x0401,0x00
W:0xC0,0x0402,0x00
W:0xC0,0x0403,0x00
W:0xC0,0x0404,0x00
W:0xC0,0x0405,0x00
W:0xC0,0x0410,0x00
W:0xC0,0x0411,0x00
W:0xC0,0x0412,0x00
W:0xC0,0x0413,0x00
W:0xC1,0x0000,0x00 ; Reset DSP1, DSP2 and DSP3 not to output signal accidentally.
W:0xC1,0x0001,0x00
W:0xC1,0x0002,0x00
W:0xC1,0x0004,0x00
W:0xC1,0x0011,0x21
W:0xC1,0x0012,0x00
W:0xC1,0x0013,0x00
W:0xC1,0x0021,0x30
W:0xC1,0x0022,0x00
W:0xC1,0x0031,0x12
W:0xC1,0x0032,0x00
W:0xC1,0x0033,0x00
W:0xC1,0x0040,0x08
W:0xC1,0x0041,0x00
W:0xC1,0x0042,0x00
W:0xC1,0x0060,0x00
W:0xC1,0x0061,0x00
W:0xC2,0x0000,0xF0
W:0xC2,0x0001,0x00
W:0xC2,0x0003,0x00
W:0xC2,0x0004,0x00
W:0xC2,0x0005,0x00
W:0xC2,0x0006,0x00
W:0xC2,0x0007,0x00
W:0xC2,0x0020,0x00
W:0xC2,0x0021,0x00
W:0xC2,0x0022,0x00
W:0xC2,0x0024,0x00
W:0xC2,0x0101,0x08
W:0xC2,0x0102,0x00
W:0xC2,0x0103,0x00
W:0xC2,0x0104,0x00
W:0xC2,0x0105,0x00
W:0xC2,0x0106,0x00
W:0xC2,0x0120,0x00
W:0xC2,0x0121,0x00
W:0xC2,0x0122,0x00
W:0xC2,0x0123,0x00
W:0xC2,0x0200,0x01
W:0xC2,0x0210,0x00
W:0xC2,0x0211,0x00
W:0xC3,0x0000,0x36
W:0xC3,0x0001,0x20
W:0xC3,0x0002,0x01
W:0xC3,0x0003,0x04
W:0xC3,0x0004,0x11
W:0xC3,0x0005,0x30
W:0xC3,0x0006,0x30
W:0xC3,0x0007,0x30
W:0xC3,0x0008,0x30
W:0xC3,0x0009,0x04
W:0xC3,0x000A,0x00
W:0xC3,0x000B,0x00
W:0xC3,0x000C,0x18
W:0xC3,0x000D,0x18
W:0xC3,0x000E,0x18
W:0xC3,0x000F,0x18
W:0xC3,0x0010,0x18
W:0xC3,0x0011,0x18
W:0xC3,0x0013,0x15
W:0xC3,0x0014,0x02
W:0xC3,0x0015,0x00
W:0xC3,0x0020,0x00
W:0xC3,0x0021,0x00
W:0xC3,0x0022,0x00
W:0xC3,0x0023,0x00
W:0xC3,0x0024,0x00
;
;
;
[/SCRIPT]
