EESchema Schematic File Version 4
EELAYER 30 0
EELAYER END
$Descr A4 11693 8268
encoding utf-8
Sheet 13 15
Title ""
Date ""
Rev ""
Comp "ECE445 Team 22"
Comment1 ""
Comment2 ""
Comment3 ""
Comment4 ""
$EndDescr
Wire Wire Line
	5800 4750 5650 4750
Wire Wire Line
	5650 4750 5650 4550
Wire Wire Line
	5800 4650 5550 4650
Wire Wire Line
	8400 4750 9050 4750
Wire Wire Line
	7600 5950 7600 6100
Wire Wire Line
	8400 4850 8900 4850
Wire Wire Line
	8400 4550 9050 4550
$Comp
L power:GND #PWR0139
U 1 1 621EA528
P 5550 4950
F 0 "#PWR0139" H 5550 4700 50  0001 C CNN
F 1 "GND" V 5555 4822 50  0000 R CNN
F 2 "" H 5550 4950 50  0001 C CNN
F 3 "" H 5550 4950 50  0001 C CNN
	1    5550 4950
	1    0    0    -1  
$EndComp
Wire Wire Line
	8400 4150 10000 4150
Wire Wire Line
	8400 3450 10850 3450
Wire Wire Line
	8400 3350 10450 3350
Wire Wire Line
	10450 3350 10450 1850
Wire Wire Line
	10850 1850 10850 3450
Wire Wire Line
	10050 2250 10050 1850
Wire Wire Line
	7700 2250 7700 2150
Wire Wire Line
	9600 1850 9600 2150
Wire Wire Line
	6900 2250 6900 2100
Wire Wire Line
	6600 2250 6600 2100
Wire Wire Line
	6600 2100 6900 2100
Wire Wire Line
	5800 4550 5650 4550
Connection ~ 5650 4550
Connection ~ 5550 4650
Wire Wire Line
	5800 4250 5550 4250
Wire Wire Line
	5800 4150 5550 4150
Wire Wire Line
	5550 4150 5550 4250
Connection ~ 5550 4250
Wire Wire Line
	5800 4850 5550 4850
Wire Wire Line
	5550 4850 5550 4650
Wire Wire Line
	5800 3650 5550 3650
Wire Wire Line
	5550 3650 5550 3850
Connection ~ 5550 4150
Wire Wire Line
	5800 3850 5550 3850
Connection ~ 5550 3850
Wire Wire Line
	5550 3850 5550 4150
Wire Wire Line
	10000 4150 10000 3900
Text Label 3700 1300 2    50   ~ 0
ADC1
Text Label 9600 1850 2    50   ~ 0
ADC1
Text Label 10050 1850 2    50   ~ 0
ADC2
Text Label 10450 1850 2    50   ~ 0
ADC3
Text Label 10850 1850 2    50   ~ 0
ADC4
$Comp
L power:GND #PWR010
U 1 1 6229A61F
P 10650 4600
F 0 "#PWR010" H 10650 4350 50  0001 C CNN
F 1 "GND" V 10655 4472 50  0000 R CNN
F 2 "" H 10650 4600 50  0001 C CNN
F 3 "" H 10650 4600 50  0001 C CNN
	1    10650 4600
	1    0    0    -1  
$EndComp
Text Label 5150 3450 0    50   ~ 0
DAC_OUT
Wire Wire Line
	5150 3550 5800 3550
Text Label 5150 3950 0    50   ~ 0
CLK_OUT
Wire Wire Line
	5150 3950 5800 3950
$Comp
L power:+3V3 #PWR07
U 1 1 622DBAE0
P 4650 4450
F 0 "#PWR07" H 4650 4300 50  0001 C CNN
F 1 "+3V3" H 4665 4623 50  0000 C CNN
F 2 "" H 4650 4450 50  0001 C CNN
F 3 "" H 4650 4450 50  0001 C CNN
	1    4650 4450
	1    0    0    -1  
$EndComp
$Comp
L power:+3V3 #PWR09
U 1 1 622E04A0
P 10000 3900
F 0 "#PWR09" H 10000 3750 50  0001 C CNN
F 1 "+3V3" H 10015 4073 50  0000 C CNN
F 2 "" H 10000 3900 50  0001 C CNN
F 3 "" H 10000 3900 50  0001 C CNN
	1    10000 3900
	1    0    0    -1  
$EndComp
Wire Wire Line
	5550 4850 5550 4950
Connection ~ 5550 4850
$Sheet
S 2200 1200 900  300 
U 623408EC
F0 "Piezo Preamp 1/2" 50
F1 "dsp_preamp.sch" 50
F2 "PIEZO_IN1" I L 2200 1300 50 
F3 "ADC_OUT1" O R 3100 1300 50 
F4 "PIEZO_IN2" I L 2200 1400 50 
F5 "ADC_OUT2" O R 3100 1400 50 
$EndSheet
Wire Wire Line
	3100 1300 3700 1300
Text Label 3700 1400 2    50   ~ 0
ADC2
Wire Wire Line
	3100 1400 3250 1400
Text Label 3700 1800 2    50   ~ 0
ADC3
Text Label 3700 1900 2    50   ~ 0
ADC4
Wire Wire Line
	1850 1300 2200 1300
Wire Wire Line
	8400 4450 9050 4450
Wire Wire Line
	8400 4650 9050 4650
Text HLabel 9050 4450 2    50   Input ~ 0
SDI
Text HLabel 9050 4550 2    50   Input ~ 0
SCK
Text HLabel 9050 4650 2    50   Output ~ 0
SDO
Text HLabel 9050 4750 2    50   Input ~ 0
~CS
Text Label 8900 4850 2    50   ~ 0
STATUS\TEST
Text Label 1450 2950 0    50   ~ 0
DAC_OUT
Text HLabel 1850 1300 0    50   Input ~ 0
PIEZO1
Text HLabel 1850 1400 0    50   Input ~ 0
PIEZO2
Text HLabel 1850 1800 0    50   Input ~ 0
PIEZO3
Text HLabel 1850 1900 0    50   Input ~ 0
PIEZO4
Text HLabel 4450 2950 2    50   Output ~ 0
INSTR_OUT
$Comp
L Device:C C10
U 1 1 62519B00
P 2450 3300
F 0 "C10" H 2335 3209 50  0000 R CNN
F 1 "4700p" H 2335 3300 50  0000 R CNN
F 2 "Capacitor_THT:CP_Axial_L18.0mm_D6.5mm_P25.00mm_Horizontal" H 2488 3150 50  0001 C CNN
F 3 "~" H 2450 3300 50  0001 C CNN
F 4 "Film" H 2335 3391 50  0000 R CNN "Note"
	1    2450 3300
	-1   0    0    1   
$EndComp
$Comp
L Device:C C11
U 1 1 6245C816
P 2750 2950
F 0 "C11" V 2408 2950 50  0000 C CNN
F 1 "0.47u" V 2499 2950 50  0000 C CNN
F 2 "CustomParts:Cap_Axial_D15x29mm" H 2788 2800 50  0001 C CNN
F 3 "~" H 2750 2950 50  0001 C CNN
F 4 "Film" V 2590 2950 50  0000 C CNN "Note"
	1    2750 2950
	0    1    1    0   
$EndComp
Wire Wire Line
	5150 3450 5800 3450
$Comp
L Device:R R16
U 1 1 6252F52D
P 2150 2950
F 0 "R16" V 1943 2950 50  0000 C CNN
F 1 "1k" V 2034 2950 50  0000 C CNN
F 2 "Resistor_SMD:R_0603_1608Metric_Pad0.98x0.95mm_HandSolder" V 2080 2950 50  0001 C CNN
F 3 "~" H 2150 2950 50  0001 C CNN
	1    2150 2950
	0    1    1    0   
$EndComp
Wire Wire Line
	2000 2950 1450 2950
Wire Wire Line
	2300 2950 2450 2950
Wire Wire Line
	2450 2950 2450 3150
Connection ~ 2450 2950
Wire Wire Line
	2450 2950 2600 2950
$Comp
L power:GND #PWR03
U 1 1 62546B28
P 2450 3550
F 0 "#PWR03" H 2450 3300 50  0001 C CNN
F 1 "GND" H 2455 3377 50  0000 C CNN
F 2 "" H 2450 3550 50  0001 C CNN
F 3 "" H 2450 3550 50  0001 C CNN
	1    2450 3550
	1    0    0    -1  
$EndComp
Wire Wire Line
	2450 3450 2450 3550
Text Notes 2350 3150 2    50   ~ 0
Cutoff freq (-3dB point) is about 33 kHz
$Comp
L SparkFun-IC-Amplifiers:TPA6111SMD-T U5
U 1 1 62555F3D
P 3750 2950
F 0 "U5" H 3750 3410 45  0000 C CNN
F 1 "TPA6111SMD-T" H 3750 3326 45  0000 C CNN
F 2 "Package_SO:SOIC-8-1EP_3.9x4.9mm_P1.27mm_EP2.29x3mm" H 3750 3300 20  0001 C CNN
F 3 "" H 3750 2950 50  0001 C CNN
F 4 "IC-10149" H 3750 3231 60  0000 C CNN "Field4"
	1    3750 2950
	1    0    0    -1  
$EndComp
$Comp
L power:GND #PWR05
U 1 1 62556D22
P 3150 3350
F 0 "#PWR05" H 3150 3100 50  0001 C CNN
F 1 "GND" H 3155 3177 50  0000 C CNN
F 2 "" H 3150 3350 50  0001 C CNN
F 3 "" H 3150 3350 50  0001 C CNN
	1    3150 3350
	1    0    0    -1  
$EndComp
Wire Wire Line
	3350 3250 3150 3250
Wire Wire Line
	3150 3250 3150 3350
Wire Wire Line
	3350 3050 3150 3050
Wire Wire Line
	3150 3050 3150 3150
Connection ~ 3150 3250
$Comp
L Device:C C12
U 1 1 6255F96F
P 4300 3450
F 0 "C12" H 4415 3496 50  0000 L CNN
F 1 "0.1u" H 4415 3405 50  0000 L CNN
F 2 "Capacitor_SMD:C_0603_1608Metric_Pad1.08x0.95mm_HandSolder" H 4338 3300 50  0001 C CNN
F 3 "~" H 4300 3450 50  0001 C CNN
	1    4300 3450
	1    0    0    -1  
$EndComp
Wire Wire Line
	3150 2700 3150 2850
Wire Wire Line
	3150 2850 3350 2850
$Comp
L power:+5V #PWR04
U 1 1 62565CA5
P 3150 2700
F 0 "#PWR04" H 3150 2550 50  0001 C CNN
F 1 "+5V" H 3165 2873 50  0000 C CNN
F 2 "" H 3150 2700 50  0001 C CNN
F 3 "" H 3150 2700 50  0001 C CNN
	1    3150 2700
	1    0    0    -1  
$EndComp
Wire Wire Line
	4450 2950 4150 2950
Wire Wire Line
	3350 3150 3150 3150
Connection ~ 3150 3150
Wire Wire Line
	3150 3150 3150 3250
Wire Wire Line
	2900 2950 3350 2950
Wire Wire Line
	4150 3250 4300 3250
Wire Wire Line
	4300 3250 4300 3300
$Comp
L power:GND #PWR06
U 1 1 62591BF8
P 4300 3600
F 0 "#PWR06" H 4300 3350 50  0001 C CNN
F 1 "GND" H 4305 3427 50  0000 C CNN
F 2 "" H 4300 3600 50  0001 C CNN
F 3 "" H 4300 3600 50  0001 C CNN
	1    4300 3600
	1    0    0    -1  
$EndComp
Wire Wire Line
	1850 1400 2200 1400
$Sheet
S 2200 1700 900  300 
U 62294633
F0 "Piezo Preamp 3/4" 50
F1 "dsp_preamp.sch" 50
F2 "PIEZO_IN1" I L 2200 1800 50 
F3 "ADC_OUT1" O R 3100 1800 50 
F4 "PIEZO_IN2" I L 2200 1900 50 
F5 "ADC_OUT2" O R 3100 1900 50 
$EndSheet
Wire Wire Line
	3100 1800 3700 1800
Wire Wire Line
	3100 1900 3250 1900
Wire Wire Line
	1850 1800 2200 1800
Wire Wire Line
	1850 1900 2200 1900
$Comp
L Device:C C37
U 1 1 62234463
P 5100 4800
F 0 "C37" H 5215 4846 50  0000 L CNN
F 1 "0.1u" H 5215 4755 50  0000 L CNN
F 2 "Capacitor_SMD:C_0603_1608Metric_Pad1.08x0.95mm_HandSolder" H 5138 4650 50  0001 C CNN
F 3 "~" H 5100 4800 50  0001 C CNN
	1    5100 4800
	1    0    0    -1  
$EndComp
Wire Wire Line
	5100 4550 5100 4650
$Comp
L power:GND #PWR0136
U 1 1 6223938A
P 5100 5000
F 0 "#PWR0136" H 5100 4750 50  0001 C CNN
F 1 "GND" V 5105 4872 50  0000 R CNN
F 2 "" H 5100 5000 50  0001 C CNN
F 3 "" H 5100 5000 50  0001 C CNN
	1    5100 5000
	1    0    0    -1  
$EndComp
Wire Wire Line
	5100 4950 5100 5000
Connection ~ 5100 4550
Wire Wire Line
	5100 4550 5650 4550
Wire Wire Line
	8550 5650 8550 5750
Wire Wire Line
	8550 6100 7600 6100
$Comp
L Device:C C40
U 1 1 6224F9DC
P 8750 6000
F 0 "C40" H 8865 6046 50  0000 L CNN
F 1 "0.1u" H 8865 5955 50  0000 L CNN
F 2 "Capacitor_SMD:C_0603_1608Metric_Pad1.08x0.95mm_HandSolder" H 8788 5850 50  0001 C CNN
F 3 "~" H 8750 6000 50  0001 C CNN
	1    8750 6000
	1    0    0    -1  
$EndComp
$Comp
L power:GND #PWR0143
U 1 1 62250569
P 8750 6200
F 0 "#PWR0143" H 8750 5950 50  0001 C CNN
F 1 "GND" H 8755 6027 50  0000 C CNN
F 2 "" H 8750 6200 50  0001 C CNN
F 3 "" H 8750 6200 50  0001 C CNN
	1    8750 6200
	1    0    0    -1  
$EndComp
$Comp
L power:+3V3 #PWR0156
U 1 1 622522AF
P 8550 5650
F 0 "#PWR0156" H 8550 5500 50  0001 C CNN
F 1 "+3V3" H 8565 5823 50  0000 C CNN
F 2 "" H 8550 5650 50  0001 C CNN
F 3 "" H 8550 5650 50  0001 C CNN
	1    8550 5650
	1    0    0    -1  
$EndComp
Wire Wire Line
	8750 6200 8750 6150
Wire Wire Line
	8750 5850 8750 5750
Wire Wire Line
	8750 5750 8550 5750
Connection ~ 8550 5750
Wire Wire Line
	8550 5750 8550 6100
$Comp
L CustomParts:XC6227C331PR U?
U 1 1 622724E5
P 5150 1400
AR Path="/6206DF01/622724E5" Ref="U?"  Part="1" 
AR Path="/6206DF42/622724E5" Ref="U9"  Part="1" 
F 0 "U9" H 5150 1767 50  0000 C CNN
F 1 "XC6227C331PR" H 5150 1676 50  0000 C CNN
F 2 "Package_TO_SOT_SMD:SOT-23-5" H 5150 1400 50  0001 C CNN
F 3 "https://www.torexsemi.com/file/xc6220/XC6220.pdf" H 5900 400 50  0001 C CNN
	1    5150 1400
	1    0    0    -1  
$EndComp
$Comp
L power:+5V #PWR0186
U 1 1 62276EE4
P 4350 1200
F 0 "#PWR0186" H 4350 1050 50  0001 C CNN
F 1 "+5V" H 4365 1373 50  0000 C CNN
F 2 "" H 4350 1200 50  0001 C CNN
F 3 "" H 4350 1200 50  0001 C CNN
	1    4350 1200
	1    0    0    -1  
$EndComp
Wire Wire Line
	4350 1200 4350 1300
Wire Wire Line
	4350 1300 4650 1300
Wire Wire Line
	4650 1500 4350 1500
Wire Wire Line
	4350 1500 4350 1300
Connection ~ 4350 1300
$Comp
L power:GND #PWR0187
U 1 1 62280BE2
P 5150 1900
F 0 "#PWR0187" H 5150 1650 50  0001 C CNN
F 1 "GND" H 5155 1727 50  0000 C CNN
F 2 "" H 5150 1900 50  0001 C CNN
F 3 "" H 5150 1900 50  0001 C CNN
	1    5150 1900
	1    0    0    -1  
$EndComp
Wire Wire Line
	5150 1800 5150 1900
$Comp
L Device:C C13
U 1 1 62285C63
P 4350 1800
F 0 "C13" H 4465 1846 50  0000 L CNN
F 1 "0.1u" H 4465 1755 50  0000 L CNN
F 2 "Capacitor_SMD:C_0603_1608Metric_Pad1.08x0.95mm_HandSolder" H 4388 1650 50  0001 C CNN
F 3 "~" H 4350 1800 50  0001 C CNN
	1    4350 1800
	1    0    0    -1  
$EndComp
$Comp
L Device:C C38
U 1 1 622862EB
P 5800 1800
F 0 "C38" H 5915 1846 50  0000 L CNN
F 1 "0.1u" H 5915 1755 50  0000 L CNN
F 2 "Capacitor_SMD:C_0603_1608Metric_Pad1.08x0.95mm_HandSolder" H 5838 1650 50  0001 C CNN
F 3 "~" H 5800 1800 50  0001 C CNN
	1    5800 1800
	1    0    0    -1  
$EndComp
Text Notes 4550 950  0    50   ~ 0
Regulator for 3.3V analog power
Wire Wire Line
	6700 1800 6700 2250
$Comp
L Device:C C39
U 1 1 622A7987
P 6750 1650
F 0 "C39" V 6498 1650 50  0000 C CNN
F 1 "2.2u" V 6589 1650 50  0000 C CNN
F 2 "Capacitor_SMD:C_0603_1608Metric_Pad1.08x0.95mm_HandSolder" H 6788 1500 50  0001 C CNN
F 3 "~" H 6750 1650 50  0001 C CNN
	1    6750 1650
	0    1    1    0   
$EndComp
Wire Wire Line
	6700 1800 6600 1800
Wire Wire Line
	6600 1800 6600 1650
Wire Wire Line
	6800 2250 6800 1800
Wire Wire Line
	6800 1800 6900 1800
Wire Wire Line
	6900 1800 6900 1650
Wire Wire Line
	6900 1650 7150 1650
Wire Wire Line
	7150 1650 7150 1700
Connection ~ 6900 1650
$Comp
L power:GND #PWR0188
U 1 1 622B67F4
P 7150 1700
F 0 "#PWR0188" H 7150 1450 50  0001 C CNN
F 1 "GND" H 7155 1527 50  0000 C CNN
F 2 "" H 7150 1700 50  0001 C CNN
F 3 "" H 7150 1700 50  0001 C CNN
	1    7150 1700
	1    0    0    -1  
$EndComp
Wire Wire Line
	6600 1900 6500 1900
Wire Wire Line
	6500 1900 6500 1300
Wire Wire Line
	6500 1300 5800 1300
Wire Wire Line
	6600 1900 6600 2100
Connection ~ 6600 2100
Wire Wire Line
	4350 1650 4350 1500
Connection ~ 4350 1500
Connection ~ 5800 1300
Wire Wire Line
	5800 1300 5650 1300
Wire Wire Line
	5800 1300 5800 1650
$Comp
L power:GND #PWR0194
U 1 1 622EF55E
P 5800 2050
F 0 "#PWR0194" H 5800 1800 50  0001 C CNN
F 1 "GND" H 5805 1877 50  0000 C CNN
F 2 "" H 5800 2050 50  0001 C CNN
F 3 "" H 5800 2050 50  0001 C CNN
	1    5800 2050
	1    0    0    -1  
$EndComp
Wire Wire Line
	5800 1950 5800 2050
$Comp
L power:GND #PWR0195
U 1 1 622F45A0
P 4350 2050
F 0 "#PWR0195" H 4350 1800 50  0001 C CNN
F 1 "GND" H 4355 1877 50  0000 C CNN
F 2 "" H 4350 2050 50  0001 C CNN
F 3 "" H 4350 2050 50  0001 C CNN
	1    4350 2050
	1    0    0    -1  
$EndComp
Wire Wire Line
	4350 1950 4350 2050
$Comp
L power:GND #PWR0196
U 1 1 622FE957
P 9600 4500
F 0 "#PWR0196" H 9600 4250 50  0001 C CNN
F 1 "GND" H 9605 4327 50  0000 C CNN
F 2 "" H 9600 4500 50  0001 C CNN
F 3 "" H 9600 4500 50  0001 C CNN
	1    9600 4500
	1    0    0    -1  
$EndComp
Wire Wire Line
	9600 4500 9600 4350
Wire Wire Line
	9600 4350 8400 4350
$Comp
L Device:C C28
U 1 1 6230719F
P 4650 4800
F 0 "C28" H 4765 4846 50  0000 L CNN
F 1 "0.1u" H 4765 4755 50  0000 L CNN
F 2 "Capacitor_SMD:C_0603_1608Metric_Pad1.08x0.95mm_HandSolder" H 4688 4650 50  0001 C CNN
F 3 "~" H 4650 4800 50  0001 C CNN
	1    4650 4800
	1    0    0    -1  
$EndComp
Wire Wire Line
	4650 4450 4650 4550
Connection ~ 4650 4650
Wire Wire Line
	4650 4650 4650 4700
Wire Wire Line
	4650 4550 5100 4550
Connection ~ 4650 4550
Wire Wire Line
	4650 4550 4650 4650
$Comp
L power:GND #PWR0197
U 1 1 62325C39
P 4650 5000
F 0 "#PWR0197" H 4650 4750 50  0001 C CNN
F 1 "GND" V 4655 4872 50  0000 R CNN
F 2 "" H 4650 5000 50  0001 C CNN
F 3 "" H 4650 5000 50  0001 C CNN
	1    4650 5000
	1    0    0    -1  
$EndComp
Wire Wire Line
	4650 4950 4650 5000
$Comp
L power:GND #PWR0231
U 1 1 6232D878
P 5150 3600
F 0 "#PWR0231" H 5150 3350 50  0001 C CNN
F 1 "GND" V 5155 3472 50  0000 R CNN
F 2 "" H 5150 3600 50  0001 C CNN
F 3 "" H 5150 3600 50  0001 C CNN
	1    5150 3600
	1    0    0    -1  
$EndComp
Wire Wire Line
	5150 3550 5150 3600
Wire Wire Line
	8400 4250 9900 4250
Wire Wire Line
	9900 4250 9900 4450
$Comp
L Device:C C41
U 1 1 6236BF11
P 10350 4450
F 0 "C41" V 10098 4450 50  0000 C CNN
F 1 "2.2u" V 10189 4450 50  0000 C CNN
F 2 "Capacitor_SMD:C_0603_1608Metric_Pad1.08x0.95mm_HandSolder" H 10388 4300 50  0001 C CNN
F 3 "~" H 10350 4450 50  0001 C CNN
	1    10350 4450
	0    1    1    0   
$EndComp
Wire Wire Line
	10650 4050 10650 4450
Connection ~ 10650 4450
Wire Wire Line
	10650 4450 10650 4600
Wire Wire Line
	10500 4450 10650 4450
Wire Wire Line
	9900 4450 10200 4450
Wire Wire Line
	8400 4050 10650 4050
Wire Wire Line
	7700 5950 7700 6050
Wire Wire Line
	6300 6050 6300 6200
$Comp
L power:GND #PWR0140
U 1 1 621EA75F
P 6300 6200
F 0 "#PWR0140" H 6300 5950 50  0001 C CNN
F 1 "GND" H 6305 6027 50  0000 C CNN
F 2 "" H 6300 6200 50  0001 C CNN
F 3 "" H 6300 6200 50  0001 C CNN
	1    6300 6200
	1    0    0    -1  
$EndComp
Wire Wire Line
	7500 6050 7700 6050
Connection ~ 7500 6050
Wire Wire Line
	7500 5950 7500 6050
Wire Wire Line
	7400 6050 7500 6050
Connection ~ 7400 6050
Wire Wire Line
	7400 5950 7400 6050
Wire Wire Line
	7300 6050 7400 6050
Connection ~ 7300 6050
Wire Wire Line
	7300 5950 7300 6050
Wire Wire Line
	7200 6050 7300 6050
Connection ~ 7200 6050
Wire Wire Line
	7200 5950 7200 6050
Connection ~ 6300 6050
Wire Wire Line
	6300 5950 6300 6050
Connection ~ 6700 6050
Wire Wire Line
	6700 5950 6700 6050
Wire Wire Line
	6600 6050 6700 6050
Connection ~ 6600 6050
Wire Wire Line
	6600 5950 6600 6050
Wire Wire Line
	6700 6050 6900 6050
Connection ~ 6900 6050
Wire Wire Line
	6900 5950 6900 6050
Wire Wire Line
	6300 6050 6500 6050
Wire Wire Line
	6500 6050 6600 6050
Connection ~ 6500 6050
Wire Wire Line
	6500 5950 6500 6050
Wire Wire Line
	6900 6050 7000 6050
Connection ~ 7000 6050
Wire Wire Line
	7000 5950 7000 6050
Wire Wire Line
	7000 6050 7100 6050
Wire Wire Line
	7100 6050 7200 6050
Connection ~ 7100 6050
Wire Wire Line
	7100 5950 7100 6050
$Comp
L Connector:TestPoint TP?
U 1 1 622689FB
P 3250 900
AR Path="/6206DF1F/622689FB" Ref="TP?"  Part="1" 
AR Path="/6206DF42/623408EC/622689FB" Ref="TP?"  Part="1" 
AR Path="/6206DF42/622689FB" Ref="TP11"  Part="1" 
F 0 "TP11" H 3308 1018 50  0000 L CNN
F 1 "ADC2" H 3308 927 50  0000 L CNN
F 2 "TestPoint:TestPoint_Pad_2.5x2.5mm" H 3450 900 50  0001 C CNN
F 3 "~" H 3450 900 50  0001 C CNN
	1    3250 900 
	1    0    0    -1  
$EndComp
$Comp
L Connector:TestPoint TP?
U 1 1 6226DBC2
P 3700 900
AR Path="/6206DF1F/6226DBC2" Ref="TP?"  Part="1" 
AR Path="/6206DF42/623408EC/6226DBC2" Ref="TP?"  Part="1" 
AR Path="/6206DF42/6226DBC2" Ref="TP13"  Part="1" 
F 0 "TP13" H 3758 1018 50  0000 L CNN
F 1 "ADC1" H 3758 927 50  0000 L CNN
F 2 "TestPoint:TestPoint_Pad_2.5x2.5mm" H 3900 900 50  0001 C CNN
F 3 "~" H 3900 900 50  0001 C CNN
	1    3700 900 
	1    0    0    -1  
$EndComp
Wire Wire Line
	3700 900  3700 1300
Wire Wire Line
	3250 900  3250 1400
Connection ~ 3250 1400
Wire Wire Line
	3250 1400 3700 1400
$Comp
L Connector:TestPoint TP?
U 1 1 6227DF2F
P 3250 1700
AR Path="/6206DF1F/6227DF2F" Ref="TP?"  Part="1" 
AR Path="/6206DF42/623408EC/6227DF2F" Ref="TP?"  Part="1" 
AR Path="/6206DF42/6227DF2F" Ref="TP12"  Part="1" 
F 0 "TP12" H 3308 1818 50  0000 L CNN
F 1 "ADC4" H 3308 1727 50  0000 L CNN
F 2 "TestPoint:TestPoint_Pad_2.5x2.5mm" H 3450 1700 50  0001 C CNN
F 3 "~" H 3450 1700 50  0001 C CNN
	1    3250 1700
	1    0    0    -1  
$EndComp
$Comp
L Connector:TestPoint TP?
U 1 1 6227DF35
P 3700 1700
AR Path="/6206DF1F/6227DF35" Ref="TP?"  Part="1" 
AR Path="/6206DF42/623408EC/6227DF35" Ref="TP?"  Part="1" 
AR Path="/6206DF42/6227DF35" Ref="TP14"  Part="1" 
F 0 "TP14" H 3758 1818 50  0000 L CNN
F 1 "ADC3" H 3758 1727 50  0000 L CNN
F 2 "TestPoint:TestPoint_Pad_2.5x2.5mm" H 3900 1700 50  0001 C CNN
F 3 "~" H 3900 1700 50  0001 C CNN
	1    3700 1700
	1    0    0    -1  
$EndComp
Wire Wire Line
	3700 1700 3700 1800
Wire Wire Line
	3250 1700 3250 1900
Connection ~ 3250 1900
Wire Wire Line
	3250 1900 3700 1900
NoConn ~ 4150 3050
NoConn ~ 8400 3550
NoConn ~ 8400 3650
NoConn ~ 8400 3750
NoConn ~ 8400 3850
NoConn ~ 8400 3950
NoConn ~ 7800 5950
NoConn ~ 6800 5950
NoConn ~ 6400 5950
NoConn ~ 5800 4050
NoConn ~ 5800 3750
NoConn ~ 5800 3350
NoConn ~ 6300 2250
NoConn ~ 6400 2250
NoConn ~ 6500 2250
NoConn ~ 7000 2250
NoConn ~ 7100 2250
NoConn ~ 7200 2250
NoConn ~ 7300 2250
NoConn ~ 7400 2250
NoConn ~ 7500 2250
NoConn ~ 7600 2250
Wire Wire Line
	5550 4250 5550 4650
Wire Wire Line
	7800 2250 10050 2250
Wire Wire Line
	7700 2150 9600 2150
$Comp
L audio-processor-rescue:AK7738VQ-AK7738VQ IC1
U 1 1 621D704E
P 5800 3350
AR Path="/621D704E" Ref="IC1"  Part="1" 
AR Path="/6206DF42/621D704E" Ref="IC1"  Part="1" 
F 0 "IC1" H 6000 900 50  0000 L CNN
F 1 "AK7738VQ" H 7950 900 50  0000 L CNN
F 2 "Package_QFP:LQFP-64-1EP_10x10mm_P0.5mm_EP5x5mm" H 8250 4250 50  0001 L CNN
F 3 "https://4donline.ihs.com/images/VipMasterIC/IC/ASKM/ASKM-S-A0000242570/ASKM-S-A0000242570-1.pdf?hkey=EF798316E3902B6ED9A73243A3159BB0" H 8250 4150 50  0001 L CNN
F 4 "Multi DSP with 5ch ADC + 4ch DAC + 8ch SRC" H 8250 4050 50  0001 L CNN "Description"
F 5 "1.6" H 8250 3950 50  0001 L CNN "Height"
F 6 "AKM" H 8250 3850 50  0001 L CNN "Manufacturer_Name"
F 7 "AK7738VQ" H 8250 3750 50  0001 L CNN "Manufacturer_Part_Number"
F 8 "" H 8250 3650 50  0001 L CNN "Mouser Part Number"
F 9 "" H 8250 3550 50  0001 L CNN "Mouser Price/Stock"
F 10 "" H 8250 3450 50  0001 L CNN "Arrow Part Number"
F 11 "" H 8250 3350 50  0001 L CNN "Arrow Price/Stock"
	1    5800 3350
	1    0    0    -1  
$EndComp
$Comp
L Device:Crystal Y1
U 1 1 622637F2
P 3500 4700
F 0 "Y1" H 3500 4968 50  0000 C CNN
F 1 "16MHz" H 3500 4877 50  0000 C CNN
F 2 "Crystal:Crystal_SMD_5032-2Pin_5.0x3.2mm" H 3500 4700 50  0001 C CNN
F 3 "~" H 3500 4700 50  0001 C CNN
	1    3500 4700
	1    0    0    -1  
$EndComp
$Comp
L power:GND #PWR0232
U 1 1 622654B1
P 3850 5300
F 0 "#PWR0232" H 3850 5050 50  0001 C CNN
F 1 "GND" V 3855 5172 50  0000 R CNN
F 2 "" H 3850 5300 50  0001 C CNN
F 3 "" H 3850 5300 50  0001 C CNN
	1    3850 5300
	1    0    0    -1  
$EndComp
$Comp
L power:GND #PWR0233
U 1 1 6226ADEB
P 3150 5300
F 0 "#PWR0233" H 3150 5050 50  0001 C CNN
F 1 "GND" V 3155 5172 50  0000 R CNN
F 2 "" H 3150 5300 50  0001 C CNN
F 3 "" H 3150 5300 50  0001 C CNN
	1    3150 5300
	1    0    0    -1  
$EndComp
$Comp
L Device:C C43
U 1 1 62270C2F
P 3850 5000
F 0 "C43" H 3965 5046 50  0000 L CNN
F 1 "8p" H 3965 4955 50  0000 L CNN
F 2 "Capacitor_SMD:C_0603_1608Metric_Pad1.08x0.95mm_HandSolder" H 3888 4850 50  0001 C CNN
F 3 "~" H 3850 5000 50  0001 C CNN
	1    3850 5000
	1    0    0    -1  
$EndComp
$Comp
L Device:C C42
U 1 1 62271060
P 3150 5000
F 0 "C42" H 3265 5046 50  0000 L CNN
F 1 "8p" H 3265 4955 50  0000 L CNN
F 2 "Capacitor_SMD:C_0603_1608Metric_Pad1.08x0.95mm_HandSolder" H 3188 4850 50  0001 C CNN
F 3 "~" H 3150 5000 50  0001 C CNN
	1    3150 5000
	1    0    0    -1  
$EndComp
Wire Wire Line
	3150 4850 3150 4700
Wire Wire Line
	3150 4700 3350 4700
Wire Wire Line
	3650 4700 3850 4700
Wire Wire Line
	3850 4700 3850 4850
Wire Wire Line
	3850 5150 3850 5300
Wire Wire Line
	3150 5150 3150 5300
Text Label 3850 4700 2    50   ~ 0
XTO
Text Label 3150 4700 0    50   ~ 0
XTI
Text Label 5400 4450 0    50   ~ 0
XTI
Text Label 5400 4350 0    50   ~ 0
XTO
Wire Wire Line
	5400 4350 5800 4350
Wire Wire Line
	5800 4450 5400 4450
$EndSCHEMATC
