EESchema Schematic File Version 4
EELAYER 30 0
EELAYER END
$Descr A4 11693 8268
encoding utf-8
Sheet 14 15
Title ""
Date ""
Rev ""
Comp ""
Comment1 ""
Comment2 ""
Comment3 ""
Comment4 ""
$EndDescr
$Comp
L Amplifier_Operational:TL072 U?
U 1 1 6234859E
P 4700 3300
AR Path="/6206DF42/6234859E" Ref="U?"  Part="1" 
AR Path="/6206DF42/623408EC/6234859E" Ref="U7"  Part="1" 
AR Path="/6206DF42/62377565/6234859E" Ref="U8"  Part="1" 
AR Path="/6206DF42/6237A01C/6234859E" Ref="U9"  Part="1" 
AR Path="/6206DF42/6237C80A/6234859E" Ref="U13"  Part="1" 
AR Path="/6206DF42/62294633/6234859E" Ref="U8"  Part="1" 
F 0 "U8" H 4700 3667 50  0000 C CNN
F 1 "TL072" H 4700 3576 50  0000 C CNN
F 2 "Package_SO:SOIC-8_5.275x5.275mm_P1.27mm" H 4700 3300 50  0001 C CNN
F 3 "http://www.ti.com/lit/ds/symlink/tl071.pdf" H 4700 3300 50  0001 C CNN
	1    4700 3300
	1    0    0    1   
$EndComp
$Comp
L Device:R R?
U 1 1 623485AA
P 4800 2300
AR Path="/6206DF42/623485AA" Ref="R?"  Part="1" 
AR Path="/6206DF42/623408EC/623485AA" Ref="R17"  Part="1" 
AR Path="/6206DF42/62377565/623485AA" Ref="R20"  Part="1" 
AR Path="/6206DF42/6237A01C/623485AA" Ref="R33"  Part="1" 
AR Path="/6206DF42/6237C80A/623485AA" Ref="R38"  Part="1" 
AR Path="/6206DF42/62294633/623485AA" Ref="R33"  Part="1" 
F 0 "R33" V 4593 2300 50  0000 C CNN
F 1 "1M" V 4684 2300 50  0000 C CNN
F 2 "Resistor_SMD:R_0603_1608Metric_Pad0.98x0.95mm_HandSolder" V 4730 2300 50  0001 C CNN
F 3 "~" H 4800 2300 50  0001 C CNN
	1    4800 2300
	0    1    1    0   
$EndComp
$Comp
L Device:R R?
U 1 1 623485B0
P 6100 3300
AR Path="/6206DF42/623485B0" Ref="R?"  Part="1" 
AR Path="/6206DF42/623408EC/623485B0" Ref="R18"  Part="1" 
AR Path="/6206DF42/62377565/623485B0" Ref="R31"  Part="1" 
AR Path="/6206DF42/6237A01C/623485B0" Ref="R34"  Part="1" 
AR Path="/6206DF42/6237C80A/623485B0" Ref="R39"  Part="1" 
AR Path="/6206DF42/62294633/623485B0" Ref="R35"  Part="1" 
F 0 "R35" V 5893 3300 50  0000 C CNN
F 1 "4.7k" V 5984 3300 50  0000 C CNN
F 2 "Resistor_SMD:R_0603_1608Metric_Pad0.98x0.95mm_HandSolder" V 6030 3300 50  0001 C CNN
F 3 "~" H 6100 3300 50  0001 C CNN
	1    6100 3300
	0    1    1    0   
$EndComp
$Comp
L Device:R R?
U 1 1 623485B6
P 6500 3450
AR Path="/6206DF42/623485B6" Ref="R?"  Part="1" 
AR Path="/6206DF42/623408EC/623485B6" Ref="R19"  Part="1" 
AR Path="/6206DF42/62377565/623485B6" Ref="R32"  Part="1" 
AR Path="/6206DF42/6237A01C/623485B6" Ref="R35"  Part="1" 
AR Path="/6206DF42/6237C80A/623485B6" Ref="R40"  Part="1" 
AR Path="/6206DF42/62294633/623485B6" Ref="R39"  Part="1" 
F 0 "R39" H 6570 3496 50  0000 L CNN
F 1 "20k" H 6570 3405 50  0000 L CNN
F 2 "Resistor_SMD:R_0603_1608Metric_Pad0.98x0.95mm_HandSolder" V 6430 3450 50  0001 C CNN
F 3 "~" H 6500 3450 50  0001 C CNN
	1    6500 3450
	1    0    0    -1  
$EndComp
Wire Wire Line
	4300 2300 4300 2800
Wire Wire Line
	5100 3300 5100 2800
Wire Wire Line
	5100 2300 5100 2800
Wire Wire Line
	4950 2300 5100 2300
Connection ~ 5100 2800
Wire Wire Line
	4300 2300 4650 2300
Wire Wire Line
	5100 3300 5400 3300
Wire Wire Line
	5700 3300 5950 3300
Wire Wire Line
	6250 3300 6500 3300
Wire Wire Line
	6500 3600 6500 3750
$Comp
L power:GND #PWR?
U 1 1 623485D3
P 4300 3750
AR Path="/6206DF42/623485D3" Ref="#PWR?"  Part="1" 
AR Path="/6206DF42/623408EC/623485D3" Ref="#PWR011"  Part="1" 
AR Path="/6206DF42/62377565/623485D3" Ref="#PWR013"  Part="1" 
AR Path="/6206DF42/6237A01C/623485D3" Ref="#PWR015"  Part="1" 
AR Path="/6206DF42/6237C80A/623485D3" Ref="#PWR017"  Part="1" 
AR Path="/6206DF42/62294633/623485D3" Ref="#PWR0159"  Part="1" 
F 0 "#PWR0159" H 4300 3500 50  0001 C CNN
F 1 "GND" H 4305 3577 50  0000 C CNN
F 2 "" H 4300 3750 50  0001 C CNN
F 3 "" H 4300 3750 50  0001 C CNN
	1    4300 3750
	1    0    0    -1  
$EndComp
$Comp
L power:GND #PWR?
U 1 1 623485D9
P 6500 3750
AR Path="/6206DF42/623485D9" Ref="#PWR?"  Part="1" 
AR Path="/6206DF42/623408EC/623485D9" Ref="#PWR012"  Part="1" 
AR Path="/6206DF42/62377565/623485D9" Ref="#PWR014"  Part="1" 
AR Path="/6206DF42/6237A01C/623485D9" Ref="#PWR016"  Part="1" 
AR Path="/6206DF42/6237C80A/623485D9" Ref="#PWR018"  Part="1" 
AR Path="/6206DF42/62294633/623485D9" Ref="#PWR0176"  Part="1" 
F 0 "#PWR0176" H 6500 3500 50  0001 C CNN
F 1 "GND" H 6505 3577 50  0000 C CNN
F 2 "" H 6500 3750 50  0001 C CNN
F 3 "" H 6500 3750 50  0001 C CNN
	1    6500 3750
	1    0    0    -1  
$EndComp
Wire Wire Line
	6500 3300 7050 3300
Connection ~ 6500 3300
$Comp
L Device:C C29
U 1 1 6234B576
P 4800 2800
AR Path="/6206DF42/623408EC/6234B576" Ref="C29"  Part="1" 
AR Path="/6206DF42/62377565/6234B576" Ref="C31"  Part="1" 
AR Path="/6206DF42/6237A01C/6234B576" Ref="C33"  Part="1" 
AR Path="/6206DF42/6237C80A/6234B576" Ref="C35"  Part="1" 
AR Path="/6206DF42/62294633/6234B576" Ref="C33"  Part="1" 
F 0 "C33" V 4548 2800 50  0000 C CNN
F 1 "1500p" V 4639 2800 50  0000 C CNN
F 2 "Capacitor_SMD:C_0603_1608Metric_Pad1.08x0.95mm_HandSolder" H 4838 2650 50  0001 C CNN
F 3 "~" H 4800 2800 50  0001 C CNN
	1    4800 2800
	0    1    1    0   
$EndComp
Wire Wire Line
	4300 2800 4650 2800
Wire Wire Line
	4950 2800 5100 2800
Text HLabel 4100 2300 0    50   Input ~ 0
PIEZO_IN1
Wire Wire Line
	4100 2300 4300 2300
Connection ~ 4300 2300
Text HLabel 7050 3300 2    50   Output ~ 0
ADC_OUT1
$Comp
L Device:C C30
U 1 1 62508B0B
P 5550 3300
AR Path="/6206DF42/623408EC/62508B0B" Ref="C30"  Part="1" 
AR Path="/6206DF42/62377565/62508B0B" Ref="C32"  Part="1" 
AR Path="/6206DF42/6237A01C/62508B0B" Ref="C34"  Part="1" 
AR Path="/6206DF42/6237C80A/62508B0B" Ref="C36"  Part="1" 
AR Path="/6206DF42/62294633/62508B0B" Ref="C35"  Part="1" 
F 0 "C35" V 5208 3300 50  0000 C CNN
F 1 "4700p" V 5299 3300 50  0000 C CNN
F 2 "Capacitor_THT:CP_Axial_L18.0mm_D6.5mm_P25.00mm_Horizontal" H 5588 3150 50  0001 C CNN
F 3 "~" H 5550 3300 50  0001 C CNN
F 4 "Film" V 5390 3300 50  0000 C CNN "Note"
	1    5550 3300
	0    1    1    0   
$EndComp
Wire Wire Line
	4300 2800 4300 3200
Wire Wire Line
	4300 3200 4400 3200
Connection ~ 4300 2800
Wire Wire Line
	5000 3300 5100 3300
Connection ~ 5100 3300
Wire Wire Line
	4400 3400 4300 3400
Wire Wire Line
	4300 3400 4300 3750
$Comp
L Amplifier_Operational:TL072 U7
U 2 1 6222ECAA
P 4700 5200
AR Path="/6206DF42/623408EC/6222ECAA" Ref="U7"  Part="2" 
AR Path="/6206DF42/62294633/6222ECAA" Ref="U8"  Part="2" 
F 0 "U8" H 4700 5567 50  0000 C CNN
F 1 "TL072" H 4700 5476 50  0000 C CNN
F 2 "Package_SO:SOIC-8_5.275x5.275mm_P1.27mm" H 4700 5200 50  0001 C CNN
F 3 "http://www.ti.com/lit/ds/symlink/tl071.pdf" H 4700 5200 50  0001 C CNN
	2    4700 5200
	1    0    0    1   
$EndComp
$Comp
L Amplifier_Operational:TL072 U8
U 3 1 6222FF73
P 3300 3950
AR Path="/6206DF42/623408EC/6222FF73" Ref="U8"  Part="3" 
AR Path="/6206DF42/62294633/6222FF73" Ref="U7"  Part="3" 
F 0 "U7" H 3258 3996 50  0000 L CNN
F 1 "TL072" H 3258 3905 50  0000 L CNN
F 2 "Package_SO:SOIC-8_5.275x5.275mm_P1.27mm" H 3300 3950 50  0001 C CNN
F 3 "http://www.ti.com/lit/ds/symlink/tl071.pdf" H 3300 3950 50  0001 C CNN
	3    3300 3950
	1    0    0    -1  
$EndComp
$Comp
L power:+5V #PWR0142
U 1 1 62233404
P 3200 3500
AR Path="/6206DF42/623408EC/62233404" Ref="#PWR0142"  Part="1" 
AR Path="/6206DF42/62294633/62233404" Ref="#PWR0177"  Part="1" 
F 0 "#PWR0177" H 3200 3350 50  0001 C CNN
F 1 "+5V" H 3215 3673 50  0000 C CNN
F 2 "" H 3200 3500 50  0001 C CNN
F 3 "" H 3200 3500 50  0001 C CNN
	1    3200 3500
	1    0    0    -1  
$EndComp
$Comp
L power:GND #PWR0149
U 1 1 62233DEF
P 3200 4400
AR Path="/6206DF42/623408EC/62233DEF" Ref="#PWR0149"  Part="1" 
AR Path="/6206DF42/62294633/62233DEF" Ref="#PWR0178"  Part="1" 
F 0 "#PWR0178" H 3200 4150 50  0001 C CNN
F 1 "GND" H 3205 4227 50  0000 C CNN
F 2 "" H 3200 4400 50  0001 C CNN
F 3 "" H 3200 4400 50  0001 C CNN
	1    3200 4400
	1    0    0    -1  
$EndComp
Wire Wire Line
	3200 3500 3200 3650
Wire Wire Line
	3200 4250 3200 4400
$Comp
L Device:R R?
U 1 1 62242CFE
P 4800 4200
AR Path="/6206DF42/62242CFE" Ref="R?"  Part="1" 
AR Path="/6206DF42/623408EC/62242CFE" Ref="R20"  Part="1" 
AR Path="/6206DF42/62377565/62242CFE" Ref="R?"  Part="1" 
AR Path="/6206DF42/6237A01C/62242CFE" Ref="R?"  Part="1" 
AR Path="/6206DF42/6237C80A/62242CFE" Ref="R?"  Part="1" 
AR Path="/6206DF42/62294633/62242CFE" Ref="R34"  Part="1" 
F 0 "R34" V 4593 4200 50  0000 C CNN
F 1 "1M" V 4684 4200 50  0000 C CNN
F 2 "Resistor_SMD:R_0603_1608Metric_Pad0.98x0.95mm_HandSolder" V 4730 4200 50  0001 C CNN
F 3 "~" H 4800 4200 50  0001 C CNN
	1    4800 4200
	0    1    1    0   
$EndComp
$Comp
L Device:R R?
U 1 1 62242D04
P 6100 5200
AR Path="/6206DF42/62242D04" Ref="R?"  Part="1" 
AR Path="/6206DF42/623408EC/62242D04" Ref="R31"  Part="1" 
AR Path="/6206DF42/62377565/62242D04" Ref="R?"  Part="1" 
AR Path="/6206DF42/6237A01C/62242D04" Ref="R?"  Part="1" 
AR Path="/6206DF42/6237C80A/62242D04" Ref="R?"  Part="1" 
AR Path="/6206DF42/62294633/62242D04" Ref="R38"  Part="1" 
F 0 "R38" V 5893 5200 50  0000 C CNN
F 1 "4.7k" V 5984 5200 50  0000 C CNN
F 2 "Resistor_SMD:R_0603_1608Metric_Pad0.98x0.95mm_HandSolder" V 6030 5200 50  0001 C CNN
F 3 "~" H 6100 5200 50  0001 C CNN
	1    6100 5200
	0    1    1    0   
$EndComp
$Comp
L Device:R R?
U 1 1 62242D0A
P 6500 5350
AR Path="/6206DF42/62242D0A" Ref="R?"  Part="1" 
AR Path="/6206DF42/623408EC/62242D0A" Ref="R32"  Part="1" 
AR Path="/6206DF42/62377565/62242D0A" Ref="R?"  Part="1" 
AR Path="/6206DF42/6237A01C/62242D0A" Ref="R?"  Part="1" 
AR Path="/6206DF42/6237C80A/62242D0A" Ref="R?"  Part="1" 
AR Path="/6206DF42/62294633/62242D0A" Ref="R40"  Part="1" 
F 0 "R40" H 6570 5396 50  0000 L CNN
F 1 "20k" H 6570 5305 50  0000 L CNN
F 2 "Resistor_SMD:R_0603_1608Metric_Pad0.98x0.95mm_HandSolder" V 6430 5350 50  0001 C CNN
F 3 "~" H 6500 5350 50  0001 C CNN
	1    6500 5350
	1    0    0    -1  
$EndComp
Wire Wire Line
	4300 4200 4300 4700
Wire Wire Line
	5100 5200 5100 4700
Wire Wire Line
	5100 4200 5100 4700
Wire Wire Line
	4950 4200 5100 4200
Connection ~ 5100 4700
Wire Wire Line
	4300 4200 4650 4200
Wire Wire Line
	5100 5200 5400 5200
Wire Wire Line
	5700 5200 5950 5200
Wire Wire Line
	6250 5200 6500 5200
Wire Wire Line
	6500 5500 6500 5650
$Comp
L power:GND #PWR?
U 1 1 62242D1A
P 4300 5650
AR Path="/6206DF42/62242D1A" Ref="#PWR?"  Part="1" 
AR Path="/6206DF42/623408EC/62242D1A" Ref="#PWR0157"  Part="1" 
AR Path="/6206DF42/62377565/62242D1A" Ref="#PWR?"  Part="1" 
AR Path="/6206DF42/6237A01C/62242D1A" Ref="#PWR?"  Part="1" 
AR Path="/6206DF42/6237C80A/62242D1A" Ref="#PWR?"  Part="1" 
AR Path="/6206DF42/62294633/62242D1A" Ref="#PWR0179"  Part="1" 
F 0 "#PWR0179" H 4300 5400 50  0001 C CNN
F 1 "GND" H 4305 5477 50  0000 C CNN
F 2 "" H 4300 5650 50  0001 C CNN
F 3 "" H 4300 5650 50  0001 C CNN
	1    4300 5650
	1    0    0    -1  
$EndComp
$Comp
L power:GND #PWR?
U 1 1 62242D20
P 6500 5650
AR Path="/6206DF42/62242D20" Ref="#PWR?"  Part="1" 
AR Path="/6206DF42/623408EC/62242D20" Ref="#PWR0158"  Part="1" 
AR Path="/6206DF42/62377565/62242D20" Ref="#PWR?"  Part="1" 
AR Path="/6206DF42/6237A01C/62242D20" Ref="#PWR?"  Part="1" 
AR Path="/6206DF42/6237C80A/62242D20" Ref="#PWR?"  Part="1" 
AR Path="/6206DF42/62294633/62242D20" Ref="#PWR0185"  Part="1" 
F 0 "#PWR0185" H 6500 5400 50  0001 C CNN
F 1 "GND" H 6505 5477 50  0000 C CNN
F 2 "" H 6500 5650 50  0001 C CNN
F 3 "" H 6500 5650 50  0001 C CNN
	1    6500 5650
	1    0    0    -1  
$EndComp
Wire Wire Line
	6500 5200 7050 5200
Connection ~ 6500 5200
$Comp
L Device:C C31
U 1 1 62242D28
P 4800 4700
AR Path="/6206DF42/623408EC/62242D28" Ref="C31"  Part="1" 
AR Path="/6206DF42/62377565/62242D28" Ref="C?"  Part="1" 
AR Path="/6206DF42/6237A01C/62242D28" Ref="C?"  Part="1" 
AR Path="/6206DF42/6237C80A/62242D28" Ref="C?"  Part="1" 
AR Path="/6206DF42/62294633/62242D28" Ref="C34"  Part="1" 
F 0 "C34" V 4548 4700 50  0000 C CNN
F 1 "1500p" V 4639 4700 50  0000 C CNN
F 2 "Capacitor_SMD:C_0603_1608Metric_Pad1.08x0.95mm_HandSolder" H 4838 4550 50  0001 C CNN
F 3 "~" H 4800 4700 50  0001 C CNN
	1    4800 4700
	0    1    1    0   
$EndComp
Wire Wire Line
	4300 4700 4650 4700
Wire Wire Line
	4950 4700 5100 4700
Text HLabel 4100 4200 0    50   Input ~ 0
PIEZO_IN2
Wire Wire Line
	4100 4200 4300 4200
Connection ~ 4300 4200
Text HLabel 7050 5200 2    50   Output ~ 0
ADC_OUT2
$Comp
L Device:C C32
U 1 1 62242D35
P 5550 5200
AR Path="/6206DF42/623408EC/62242D35" Ref="C32"  Part="1" 
AR Path="/6206DF42/62377565/62242D35" Ref="C?"  Part="1" 
AR Path="/6206DF42/6237A01C/62242D35" Ref="C?"  Part="1" 
AR Path="/6206DF42/6237C80A/62242D35" Ref="C?"  Part="1" 
AR Path="/6206DF42/62294633/62242D35" Ref="C36"  Part="1" 
F 0 "C36" V 5208 5200 50  0000 C CNN
F 1 "4700p" V 5299 5200 50  0000 C CNN
F 2 "Capacitor_THT:CP_Axial_L18.0mm_D6.5mm_P25.00mm_Horizontal" H 5588 5050 50  0001 C CNN
F 3 "~" H 5550 5200 50  0001 C CNN
F 4 "Film" V 5390 5200 50  0000 C CNN "Note"
	1    5550 5200
	0    1    1    0   
$EndComp
Wire Wire Line
	4300 4700 4300 5100
Wire Wire Line
	4300 5100 4400 5100
Connection ~ 4300 4700
Wire Wire Line
	5000 5200 5100 5200
Connection ~ 5100 5200
Wire Wire Line
	4400 5300 4300 5300
Wire Wire Line
	4300 5300 4300 5650
$EndSCHEMATC
