(kicad_sch (version 20211123) (generator eeschema)

  (uuid 62ab9051-fded-466c-9df1-9b40d76dc590)

  (paper "A4")

  (lib_symbols
    (symbol "Amplifier_Operational:TL072" (pin_names (offset 0.127)) (in_bom yes) (on_board yes)
      (property "Reference" "U" (id 0) (at 0 5.08 0)
        (effects (font (size 1.27 1.27)) (justify left))
      )
      (property "Value" "TL072" (id 1) (at 0 -5.08 0)
        (effects (font (size 1.27 1.27)) (justify left))
      )
      (property "Footprint" "" (id 2) (at 0 0 0)
        (effects (font (size 1.27 1.27)) hide)
      )
      (property "Datasheet" "http://www.ti.com/lit/ds/symlink/tl071.pdf" (id 3) (at 0 0 0)
        (effects (font (size 1.27 1.27)) hide)
      )
      (property "ki_locked" "" (id 4) (at 0 0 0)
        (effects (font (size 1.27 1.27)))
      )
      (property "ki_keywords" "dual opamp" (id 5) (at 0 0 0)
        (effects (font (size 1.27 1.27)) hide)
      )
      (property "ki_description" "Dual Low-Noise JFET-Input Operational Amplifiers, DIP-8/SOIC-8" (id 6) (at 0 0 0)
        (effects (font (size 1.27 1.27)) hide)
      )
      (property "ki_fp_filters" "SOIC*3.9x4.9mm*P1.27mm* DIP*W7.62mm* TO*99* OnSemi*Micro8* TSSOP*3x3mm*P0.65mm* TSSOP*4.4x3mm*P0.65mm* MSOP*3x3mm*P0.65mm* SSOP*3.9x4.9mm*P0.635mm* LFCSP*2x2mm*P0.5mm* *SIP* SOIC*5.3x6.2mm*P1.27mm*" (id 7) (at 0 0 0)
        (effects (font (size 1.27 1.27)) hide)
      )
      (symbol "TL072_1_1"
        (polyline
          (pts
            (xy -5.08 5.08)
            (xy 5.08 0)
            (xy -5.08 -5.08)
            (xy -5.08 5.08)
          )
          (stroke (width 0.254) (type default) (color 0 0 0 0))
          (fill (type background))
        )
        (pin output line (at 7.62 0 180) (length 2.54)
          (name "~" (effects (font (size 1.27 1.27))))
          (number "1" (effects (font (size 1.27 1.27))))
        )
        (pin input line (at -7.62 -2.54 0) (length 2.54)
          (name "-" (effects (font (size 1.27 1.27))))
          (number "2" (effects (font (size 1.27 1.27))))
        )
        (pin input line (at -7.62 2.54 0) (length 2.54)
          (name "+" (effects (font (size 1.27 1.27))))
          (number "3" (effects (font (size 1.27 1.27))))
        )
      )
      (symbol "TL072_2_1"
        (polyline
          (pts
            (xy -5.08 5.08)
            (xy 5.08 0)
            (xy -5.08 -5.08)
            (xy -5.08 5.08)
          )
          (stroke (width 0.254) (type default) (color 0 0 0 0))
          (fill (type background))
        )
        (pin input line (at -7.62 2.54 0) (length 2.54)
          (name "+" (effects (font (size 1.27 1.27))))
          (number "5" (effects (font (size 1.27 1.27))))
        )
        (pin input line (at -7.62 -2.54 0) (length 2.54)
          (name "-" (effects (font (size 1.27 1.27))))
          (number "6" (effects (font (size 1.27 1.27))))
        )
        (pin output line (at 7.62 0 180) (length 2.54)
          (name "~" (effects (font (size 1.27 1.27))))
          (number "7" (effects (font (size 1.27 1.27))))
        )
      )
      (symbol "TL072_3_1"
        (pin power_in line (at -2.54 -7.62 90) (length 3.81)
          (name "V-" (effects (font (size 1.27 1.27))))
          (number "4" (effects (font (size 1.27 1.27))))
        )
        (pin power_in line (at -2.54 7.62 270) (length 3.81)
          (name "V+" (effects (font (size 1.27 1.27))))
          (number "8" (effects (font (size 1.27 1.27))))
        )
      )
    )
    (symbol "Device:C" (pin_numbers hide) (pin_names (offset 0.254)) (in_bom yes) (on_board yes)
      (property "Reference" "C" (id 0) (at 0.635 2.54 0)
        (effects (font (size 1.27 1.27)) (justify left))
      )
      (property "Value" "C" (id 1) (at 0.635 -2.54 0)
        (effects (font (size 1.27 1.27)) (justify left))
      )
      (property "Footprint" "" (id 2) (at 0.9652 -3.81 0)
        (effects (font (size 1.27 1.27)) hide)
      )
      (property "Datasheet" "~" (id 3) (at 0 0 0)
        (effects (font (size 1.27 1.27)) hide)
      )
      (property "ki_keywords" "cap capacitor" (id 4) (at 0 0 0)
        (effects (font (size 1.27 1.27)) hide)
      )
      (property "ki_description" "Unpolarized capacitor" (id 5) (at 0 0 0)
        (effects (font (size 1.27 1.27)) hide)
      )
      (property "ki_fp_filters" "C_*" (id 6) (at 0 0 0)
        (effects (font (size 1.27 1.27)) hide)
      )
      (symbol "C_0_1"
        (polyline
          (pts
            (xy -2.032 -0.762)
            (xy 2.032 -0.762)
          )
          (stroke (width 0.508) (type default) (color 0 0 0 0))
          (fill (type none))
        )
        (polyline
          (pts
            (xy -2.032 0.762)
            (xy 2.032 0.762)
          )
          (stroke (width 0.508) (type default) (color 0 0 0 0))
          (fill (type none))
        )
      )
      (symbol "C_1_1"
        (pin passive line (at 0 3.81 270) (length 2.794)
          (name "~" (effects (font (size 1.27 1.27))))
          (number "1" (effects (font (size 1.27 1.27))))
        )
        (pin passive line (at 0 -3.81 90) (length 2.794)
          (name "~" (effects (font (size 1.27 1.27))))
          (number "2" (effects (font (size 1.27 1.27))))
        )
      )
    )
    (symbol "Device:R" (pin_numbers hide) (pin_names (offset 0)) (in_bom yes) (on_board yes)
      (property "Reference" "R" (id 0) (at 2.032 0 90)
        (effects (font (size 1.27 1.27)))
      )
      (property "Value" "R" (id 1) (at 0 0 90)
        (effects (font (size 1.27 1.27)))
      )
      (property "Footprint" "" (id 2) (at -1.778 0 90)
        (effects (font (size 1.27 1.27)) hide)
      )
      (property "Datasheet" "~" (id 3) (at 0 0 0)
        (effects (font (size 1.27 1.27)) hide)
      )
      (property "ki_keywords" "R res resistor" (id 4) (at 0 0 0)
        (effects (font (size 1.27 1.27)) hide)
      )
      (property "ki_description" "Resistor" (id 5) (at 0 0 0)
        (effects (font (size 1.27 1.27)) hide)
      )
      (property "ki_fp_filters" "R_*" (id 6) (at 0 0 0)
        (effects (font (size 1.27 1.27)) hide)
      )
      (symbol "R_0_1"
        (rectangle (start -1.016 -2.54) (end 1.016 2.54)
          (stroke (width 0.254) (type default) (color 0 0 0 0))
          (fill (type none))
        )
      )
      (symbol "R_1_1"
        (pin passive line (at 0 3.81 270) (length 1.27)
          (name "~" (effects (font (size 1.27 1.27))))
          (number "1" (effects (font (size 1.27 1.27))))
        )
        (pin passive line (at 0 -3.81 90) (length 1.27)
          (name "~" (effects (font (size 1.27 1.27))))
          (number "2" (effects (font (size 1.27 1.27))))
        )
      )
    )
    (symbol "power:+5V" (power) (pin_names (offset 0)) (in_bom yes) (on_board yes)
      (property "Reference" "#PWR" (id 0) (at 0 -3.81 0)
        (effects (font (size 1.27 1.27)) hide)
      )
      (property "Value" "+5V" (id 1) (at 0 3.556 0)
        (effects (font (size 1.27 1.27)))
      )
      (property "Footprint" "" (id 2) (at 0 0 0)
        (effects (font (size 1.27 1.27)) hide)
      )
      (property "Datasheet" "" (id 3) (at 0 0 0)
        (effects (font (size 1.27 1.27)) hide)
      )
      (property "ki_keywords" "power-flag" (id 4) (at 0 0 0)
        (effects (font (size 1.27 1.27)) hide)
      )
      (property "ki_description" "Power symbol creates a global label with name \"+5V\"" (id 5) (at 0 0 0)
        (effects (font (size 1.27 1.27)) hide)
      )
      (symbol "+5V_0_1"
        (polyline
          (pts
            (xy -0.762 1.27)
            (xy 0 2.54)
          )
          (stroke (width 0) (type default) (color 0 0 0 0))
          (fill (type none))
        )
        (polyline
          (pts
            (xy 0 0)
            (xy 0 2.54)
          )
          (stroke (width 0) (type default) (color 0 0 0 0))
          (fill (type none))
        )
        (polyline
          (pts
            (xy 0 2.54)
            (xy 0.762 1.27)
          )
          (stroke (width 0) (type default) (color 0 0 0 0))
          (fill (type none))
        )
      )
      (symbol "+5V_1_1"
        (pin power_in line (at 0 0 90) (length 0) hide
          (name "+5V" (effects (font (size 1.27 1.27))))
          (number "1" (effects (font (size 1.27 1.27))))
        )
      )
    )
    (symbol "power:GND" (power) (pin_names (offset 0)) (in_bom yes) (on_board yes)
      (property "Reference" "#PWR" (id 0) (at 0 -6.35 0)
        (effects (font (size 1.27 1.27)) hide)
      )
      (property "Value" "GND" (id 1) (at 0 -3.81 0)
        (effects (font (size 1.27 1.27)))
      )
      (property "Footprint" "" (id 2) (at 0 0 0)
        (effects (font (size 1.27 1.27)) hide)
      )
      (property "Datasheet" "" (id 3) (at 0 0 0)
        (effects (font (size 1.27 1.27)) hide)
      )
      (property "ki_keywords" "power-flag" (id 4) (at 0 0 0)
        (effects (font (size 1.27 1.27)) hide)
      )
      (property "ki_description" "Power symbol creates a global label with name \"GND\" , ground" (id 5) (at 0 0 0)
        (effects (font (size 1.27 1.27)) hide)
      )
      (symbol "GND_0_1"
        (polyline
          (pts
            (xy 0 0)
            (xy 0 -1.27)
            (xy 1.27 -1.27)
            (xy 0 -2.54)
            (xy -1.27 -1.27)
            (xy 0 -1.27)
          )
          (stroke (width 0) (type default) (color 0 0 0 0))
          (fill (type none))
        )
      )
      (symbol "GND_1_1"
        (pin power_in line (at 0 0 270) (length 0) hide
          (name "GND" (effects (font (size 1.27 1.27))))
          (number "1" (effects (font (size 1.27 1.27))))
        )
      )
    )
  )

  (junction (at 109.22 119.38) (diameter 0) (color 0 0 0 0)
    (uuid 01422660-08c8-48f3-98ca-26cbe7f98f5b)
  )
  (junction (at 129.54 119.38) (diameter 0) (color 0 0 0 0)
    (uuid 373b5b59-9fbb-41a2-845d-56a1ed5a82dd)
  )
  (junction (at 109.22 106.68) (diameter 0) (color 0 0 0 0)
    (uuid 5c9202d7-6a93-43b3-87c0-77347fd72885)
  )
  (junction (at 109.22 58.42) (diameter 0) (color 0 0 0 0)
    (uuid 7184670c-7656-49ee-9a6f-5771dc120d69)
  )
  (junction (at 165.1 132.08) (diameter 0) (color 0 0 0 0)
    (uuid 72e9c34a-4fbc-4581-8ad2-e93bc3c3ccb0)
  )
  (junction (at 129.54 132.08) (diameter 0) (color 0 0 0 0)
    (uuid 7410568a-af90-4a4e-a67d-5fd1863e0d95)
  )
  (junction (at 129.54 83.82) (diameter 0) (color 0 0 0 0)
    (uuid a06bd114-6488-4d22-b31a-c3a8f70a2574)
  )
  (junction (at 129.54 71.12) (diameter 0) (color 0 0 0 0)
    (uuid a5dfaf18-d33f-45c4-b76f-2a5051ec9118)
  )
  (junction (at 109.22 71.12) (diameter 0) (color 0 0 0 0)
    (uuid c96fb61f-984b-4e24-874e-ad2f1e86f9d7)
  )
  (junction (at 165.1 83.82) (diameter 0) (color 0 0 0 0)
    (uuid c9863f4f-bdf5-49f4-b18e-dce622ff9931)
  )

  (wire (pts (xy 129.54 83.82) (xy 137.16 83.82))
    (stroke (width 0) (type default) (color 0 0 0 0))
    (uuid 01c54577-6862-4ca7-bb55-524c2e995aee)
  )
  (wire (pts (xy 165.1 91.44) (xy 165.1 95.25))
    (stroke (width 0) (type default) (color 0 0 0 0))
    (uuid 09741e1c-c412-4f50-b5b7-03d5820a1bad)
  )
  (wire (pts (xy 111.76 134.62) (xy 109.22 134.62))
    (stroke (width 0) (type default) (color 0 0 0 0))
    (uuid 0dcb5ab5-f291-489d-b2bc-0f0b25b801ee)
  )
  (wire (pts (xy 109.22 81.28) (xy 111.76 81.28))
    (stroke (width 0) (type default) (color 0 0 0 0))
    (uuid 26edc121-4167-44e5-9aaf-65f4ac255233)
  )
  (wire (pts (xy 129.54 132.08) (xy 129.54 119.38))
    (stroke (width 0) (type default) (color 0 0 0 0))
    (uuid 2a756062-4e0c-4114-bc6d-4d6635f2d703)
  )
  (wire (pts (xy 109.22 58.42) (xy 109.22 71.12))
    (stroke (width 0) (type default) (color 0 0 0 0))
    (uuid 2af1d271-3c6a-476d-8eba-6b2aab466da3)
  )
  (wire (pts (xy 109.22 134.62) (xy 109.22 143.51))
    (stroke (width 0) (type default) (color 0 0 0 0))
    (uuid 30b75c25-1d2c-45e7-83e2-bb3be98f8f83)
  )
  (wire (pts (xy 144.78 132.08) (xy 151.13 132.08))
    (stroke (width 0) (type default) (color 0 0 0 0))
    (uuid 35506831-8c22-45ab-9b57-69eb0f9ef003)
  )
  (wire (pts (xy 109.22 71.12) (xy 109.22 81.28))
    (stroke (width 0) (type default) (color 0 0 0 0))
    (uuid 35e13391-5257-46f3-93a5-87ffd4e862a4)
  )
  (wire (pts (xy 125.73 119.38) (xy 129.54 119.38))
    (stroke (width 0) (type default) (color 0 0 0 0))
    (uuid 39125f99-6caa-4e69-9ae5-ca3bd6e3a49c)
  )
  (wire (pts (xy 81.28 88.9) (xy 81.28 92.71))
    (stroke (width 0) (type default) (color 0 0 0 0))
    (uuid 407d0cd8-54f8-47a8-90cb-42c8a441d04f)
  )
  (wire (pts (xy 165.1 83.82) (xy 179.07 83.82))
    (stroke (width 0) (type default) (color 0 0 0 0))
    (uuid 45fc93ca-f8ba-48a8-9189-1c9886475cd3)
  )
  (wire (pts (xy 109.22 106.68) (xy 118.11 106.68))
    (stroke (width 0) (type default) (color 0 0 0 0))
    (uuid 4de018aa-33f9-4679-9406-fafd70ff0142)
  )
  (wire (pts (xy 104.14 106.68) (xy 109.22 106.68))
    (stroke (width 0) (type default) (color 0 0 0 0))
    (uuid 544c9ad7-a0b6-4f88-9dcd-908e3e2acf79)
  )
  (wire (pts (xy 104.14 58.42) (xy 109.22 58.42))
    (stroke (width 0) (type default) (color 0 0 0 0))
    (uuid 5c986000-fc83-4495-a50f-9f4b94e485bc)
  )
  (wire (pts (xy 109.22 119.38) (xy 109.22 129.54))
    (stroke (width 0) (type default) (color 0 0 0 0))
    (uuid 65e58d89-f213-4051-b36b-7b3454867ad5)
  )
  (wire (pts (xy 129.54 106.68) (xy 129.54 119.38))
    (stroke (width 0) (type default) (color 0 0 0 0))
    (uuid 758f4e53-9507-488a-960b-2e8e487b7ac8)
  )
  (wire (pts (xy 129.54 58.42) (xy 129.54 71.12))
    (stroke (width 0) (type default) (color 0 0 0 0))
    (uuid 77cfe682-cc36-4979-823b-05ea5f187ba7)
  )
  (wire (pts (xy 111.76 86.36) (xy 109.22 86.36))
    (stroke (width 0) (type default) (color 0 0 0 0))
    (uuid 7f9c0307-e84d-4f8a-93be-34fc4b3feb89)
  )
  (wire (pts (xy 109.22 106.68) (xy 109.22 119.38))
    (stroke (width 0) (type default) (color 0 0 0 0))
    (uuid 88f2670e-1113-4ed9-b644-cfdac6e8b249)
  )
  (wire (pts (xy 125.73 58.42) (xy 129.54 58.42))
    (stroke (width 0) (type default) (color 0 0 0 0))
    (uuid 88fb8817-4ee2-4465-a9af-37fedc8b835b)
  )
  (wire (pts (xy 127 83.82) (xy 129.54 83.82))
    (stroke (width 0) (type default) (color 0 0 0 0))
    (uuid 8a3381a5-19d1-47f5-85b0-cf20b0f3bb61)
  )
  (wire (pts (xy 144.78 83.82) (xy 151.13 83.82))
    (stroke (width 0) (type default) (color 0 0 0 0))
    (uuid 8b9c1722-a1fd-4391-b4b4-854b2cc1549f)
  )
  (wire (pts (xy 158.75 83.82) (xy 165.1 83.82))
    (stroke (width 0) (type default) (color 0 0 0 0))
    (uuid 9812a82a-67c8-4c7e-8eb9-2d5188d40486)
  )
  (wire (pts (xy 109.22 129.54) (xy 111.76 129.54))
    (stroke (width 0) (type default) (color 0 0 0 0))
    (uuid 9d541d6f-313d-4469-a000-68242c1dd6d6)
  )
  (wire (pts (xy 109.22 71.12) (xy 118.11 71.12))
    (stroke (width 0) (type default) (color 0 0 0 0))
    (uuid 9fbabfd5-5316-4dcb-8d99-3c53b9c69880)
  )
  (wire (pts (xy 129.54 83.82) (xy 129.54 71.12))
    (stroke (width 0) (type default) (color 0 0 0 0))
    (uuid b2691466-e53b-4f43-806f-abeb762713f6)
  )
  (wire (pts (xy 127 132.08) (xy 129.54 132.08))
    (stroke (width 0) (type default) (color 0 0 0 0))
    (uuid baaf14d0-0c5c-4bf0-82d7-5ee71082500d)
  )
  (wire (pts (xy 109.22 86.36) (xy 109.22 95.25))
    (stroke (width 0) (type default) (color 0 0 0 0))
    (uuid db97118a-0872-4a5d-aaa5-b35f9498f22a)
  )
  (wire (pts (xy 81.28 107.95) (xy 81.28 111.76))
    (stroke (width 0) (type default) (color 0 0 0 0))
    (uuid dc9eba43-a0ae-45fc-b91c-9050201557b9)
  )
  (wire (pts (xy 158.75 132.08) (xy 165.1 132.08))
    (stroke (width 0) (type default) (color 0 0 0 0))
    (uuid e6b8e749-dce0-4716-821f-058d77eed5ce)
  )
  (wire (pts (xy 129.54 132.08) (xy 137.16 132.08))
    (stroke (width 0) (type default) (color 0 0 0 0))
    (uuid eca8c1f1-6751-4304-8a65-b05952048507)
  )
  (wire (pts (xy 165.1 132.08) (xy 179.07 132.08))
    (stroke (width 0) (type default) (color 0 0 0 0))
    (uuid f0e6fae4-0008-43ed-8719-bf62839f601f)
  )
  (wire (pts (xy 109.22 119.38) (xy 118.11 119.38))
    (stroke (width 0) (type default) (color 0 0 0 0))
    (uuid f753d3ee-689c-4dd5-a288-b018ad927185)
  )
  (wire (pts (xy 125.73 71.12) (xy 129.54 71.12))
    (stroke (width 0) (type default) (color 0 0 0 0))
    (uuid f89b1d5e-28c8-498c-b199-7acbd8607540)
  )
  (wire (pts (xy 109.22 58.42) (xy 118.11 58.42))
    (stroke (width 0) (type default) (color 0 0 0 0))
    (uuid f9570ec9-4338-4208-aee7-369a45a284f8)
  )
  (wire (pts (xy 165.1 139.7) (xy 165.1 143.51))
    (stroke (width 0) (type default) (color 0 0 0 0))
    (uuid fad358eb-4b7a-4138-896b-0d1749221b0d)
  )
  (wire (pts (xy 125.73 106.68) (xy 129.54 106.68))
    (stroke (width 0) (type default) (color 0 0 0 0))
    (uuid fea6a04b-4bfd-450f-890a-ba5d162e31d9)
  )

  (hierarchical_label "ADC_OUT1" (shape output) (at 179.07 83.82 0)
    (effects (font (size 1.27 1.27)) (justify left))
    (uuid 325f33ca-3e2f-400b-a27c-dce9977a2780)
  )
  (hierarchical_label "ADC_OUT2" (shape output) (at 179.07 132.08 0)
    (effects (font (size 1.27 1.27)) (justify left))
    (uuid 628f0a9f-12ce-4a6a-8ea2-8c2cdfc4161e)
  )
  (hierarchical_label "PIEZO_IN2" (shape input) (at 104.14 106.68 180)
    (effects (font (size 1.27 1.27)) (justify right))
    (uuid 8aab4608-39e8-491a-83a8-7194f36094f1)
  )
  (hierarchical_label "PIEZO_IN1" (shape input) (at 104.14 58.42 180)
    (effects (font (size 1.27 1.27)) (justify right))
    (uuid ce4b6c19-1441-4e43-8af4-a7f34dfbb538)
  )

  (symbol (lib_id "Amplifier_Operational:TL072") (at 119.38 132.08 0) (mirror x) (unit 2)
    (in_bom yes) (on_board yes)
    (uuid 00000000-0000-0000-0000-00006222ecaa)
    (property "Reference" "U7" (id 0) (at 119.38 141.4018 0))
    (property "Value" "TL072" (id 1) (at 119.38 139.0904 0))
    (property "Footprint" "Package_SO:SOIC-8_3.9x4.9mm_P1.27mm" (id 2) (at 119.38 132.08 0)
      (effects (font (size 1.27 1.27)) hide)
    )
    (property "Datasheet" "http://www.ti.com/lit/ds/symlink/tl071.pdf" (id 3) (at 119.38 132.08 0)
      (effects (font (size 1.27 1.27)) hide)
    )
    (pin "1" (uuid 7f88b883-bcd1-4909-b3b7-9942c283ed81))
    (pin "2" (uuid 15a3158b-a1b2-4bc9-a8d7-316f1881dfe3))
    (pin "3" (uuid 66dcc784-e0b4-4171-b6ec-1825faa8db59))
    (pin "5" (uuid 9edf5f95-96cb-46d0-9a3c-b14fd7f93ac0))
    (pin "6" (uuid 59675a0f-054e-4551-8a98-6678f919d50b))
    (pin "7" (uuid 2442bc4d-4c68-45eb-9092-35a2918c9f2b))
    (pin "4" (uuid 276fea4f-11ba-4a19-af7c-773f88f4eeae))
    (pin "8" (uuid b8ab3674-95dd-4025-ae08-58b508e836b0))
  )

  (symbol (lib_id "Amplifier_Operational:TL072") (at 83.82 100.33 0) (unit 3)
    (in_bom yes) (on_board yes)
    (uuid 00000000-0000-0000-0000-00006222ff73)
    (property "Reference" "U8" (id 0) (at 82.7532 99.1616 0)
      (effects (font (size 1.27 1.27)) (justify left))
    )
    (property "Value" "TL072" (id 1) (at 82.7532 101.473 0)
      (effects (font (size 1.27 1.27)) (justify left))
    )
    (property "Footprint" "Package_SO:SOIC-8_3.9x4.9mm_P1.27mm" (id 2) (at 83.82 100.33 0)
      (effects (font (size 1.27 1.27)) hide)
    )
    (property "Datasheet" "http://www.ti.com/lit/ds/symlink/tl071.pdf" (id 3) (at 83.82 100.33 0)
      (effects (font (size 1.27 1.27)) hide)
    )
    (pin "1" (uuid c426ba8f-d754-4791-962e-b45ac1996463))
    (pin "2" (uuid 960426a9-e226-4c44-93ad-46e27d98a41d))
    (pin "3" (uuid 4f770aa8-f337-4260-8744-971d6517f61a))
    (pin "5" (uuid 2112e60e-7630-44a2-ba01-1f829293316d))
    (pin "6" (uuid 527199d6-56c6-4d1d-8e97-d3b2bb21a4a7))
    (pin "7" (uuid 2522d3c2-6045-48ba-83ec-af4c5b44f08b))
    (pin "4" (uuid 3729061d-2929-4634-a440-a34beaa59563))
    (pin "8" (uuid 49bf84f5-6253-47e3-b26c-7643efa18873))
  )

  (symbol (lib_id "power:+5V") (at 81.28 88.9 0) (unit 1)
    (in_bom yes) (on_board yes)
    (uuid 00000000-0000-0000-0000-000062233404)
    (property "Reference" "#PWR0142" (id 0) (at 81.28 92.71 0)
      (effects (font (size 1.27 1.27)) hide)
    )
    (property "Value" "+5V" (id 1) (at 81.661 84.5058 0))
    (property "Footprint" "" (id 2) (at 81.28 88.9 0)
      (effects (font (size 1.27 1.27)) hide)
    )
    (property "Datasheet" "" (id 3) (at 81.28 88.9 0)
      (effects (font (size 1.27 1.27)) hide)
    )
    (pin "1" (uuid 54dc9a80-5390-4ebf-834d-2edd33b66c5c))
  )

  (symbol (lib_id "power:GND") (at 81.28 111.76 0) (unit 1)
    (in_bom yes) (on_board yes)
    (uuid 00000000-0000-0000-0000-000062233def)
    (property "Reference" "#PWR0149" (id 0) (at 81.28 118.11 0)
      (effects (font (size 1.27 1.27)) hide)
    )
    (property "Value" "GND" (id 1) (at 81.407 116.1542 0))
    (property "Footprint" "" (id 2) (at 81.28 111.76 0)
      (effects (font (size 1.27 1.27)) hide)
    )
    (property "Datasheet" "" (id 3) (at 81.28 111.76 0)
      (effects (font (size 1.27 1.27)) hide)
    )
    (pin "1" (uuid 151885ab-1387-4a52-a466-df3f6dc29d7e))
  )

  (symbol (lib_id "Device:R") (at 121.92 106.68 270) (unit 1)
    (in_bom yes) (on_board yes)
    (uuid 00000000-0000-0000-0000-000062242cfe)
    (property "Reference" "R20" (id 0) (at 121.92 101.4222 90))
    (property "Value" "1M" (id 1) (at 121.92 103.7336 90))
    (property "Footprint" "Resistor_SMD:R_0603_1608Metric_Pad0.98x0.95mm_HandSolder" (id 2) (at 121.92 104.902 90)
      (effects (font (size 1.27 1.27)) hide)
    )
    (property "Datasheet" "~" (id 3) (at 121.92 106.68 0)
      (effects (font (size 1.27 1.27)) hide)
    )
    (pin "1" (uuid 6aac7d7d-429e-4928-9e5f-43db7a71298f))
    (pin "2" (uuid 61f7dfe4-6117-440a-aba3-40c6685f7d31))
  )

  (symbol (lib_id "Device:R") (at 154.94 132.08 270) (unit 1)
    (in_bom yes) (on_board yes)
    (uuid 00000000-0000-0000-0000-000062242d04)
    (property "Reference" "R31" (id 0) (at 154.94 126.8222 90))
    (property "Value" "4.7k" (id 1) (at 154.94 129.1336 90))
    (property "Footprint" "Resistor_SMD:R_0603_1608Metric_Pad0.98x0.95mm_HandSolder" (id 2) (at 154.94 130.302 90)
      (effects (font (size 1.27 1.27)) hide)
    )
    (property "Datasheet" "~" (id 3) (at 154.94 132.08 0)
      (effects (font (size 1.27 1.27)) hide)
    )
    (pin "1" (uuid d4aea495-b55d-43ea-89a0-38be49385ef5))
    (pin "2" (uuid d3712844-df10-4fa2-a3a1-ca27430b00b1))
  )

  (symbol (lib_id "Device:R") (at 165.1 135.89 0) (unit 1)
    (in_bom yes) (on_board yes)
    (uuid 00000000-0000-0000-0000-000062242d0a)
    (property "Reference" "R32" (id 0) (at 166.878 134.7216 0)
      (effects (font (size 1.27 1.27)) (justify left))
    )
    (property "Value" "20k" (id 1) (at 166.878 137.033 0)
      (effects (font (size 1.27 1.27)) (justify left))
    )
    (property "Footprint" "Resistor_SMD:R_0603_1608Metric_Pad0.98x0.95mm_HandSolder" (id 2) (at 163.322 135.89 90)
      (effects (font (size 1.27 1.27)) hide)
    )
    (property "Datasheet" "~" (id 3) (at 165.1 135.89 0)
      (effects (font (size 1.27 1.27)) hide)
    )
    (pin "1" (uuid cdb36c40-0295-4753-ba7a-e65563df6ff9))
    (pin "2" (uuid 04acdc20-abac-4dd7-9342-b933d74fa134))
  )

  (symbol (lib_id "power:GND") (at 109.22 143.51 0) (unit 1)
    (in_bom yes) (on_board yes)
    (uuid 00000000-0000-0000-0000-000062242d1a)
    (property "Reference" "#PWR0157" (id 0) (at 109.22 149.86 0)
      (effects (font (size 1.27 1.27)) hide)
    )
    (property "Value" "GND" (id 1) (at 109.347 147.9042 0))
    (property "Footprint" "" (id 2) (at 109.22 143.51 0)
      (effects (font (size 1.27 1.27)) hide)
    )
    (property "Datasheet" "" (id 3) (at 109.22 143.51 0)
      (effects (font (size 1.27 1.27)) hide)
    )
    (pin "1" (uuid 601ba8ff-220a-4f7b-aa11-14bab44bf6c6))
  )

  (symbol (lib_id "power:GND") (at 165.1 143.51 0) (unit 1)
    (in_bom yes) (on_board yes)
    (uuid 00000000-0000-0000-0000-000062242d20)
    (property "Reference" "#PWR0158" (id 0) (at 165.1 149.86 0)
      (effects (font (size 1.27 1.27)) hide)
    )
    (property "Value" "GND" (id 1) (at 165.227 147.9042 0))
    (property "Footprint" "" (id 2) (at 165.1 143.51 0)
      (effects (font (size 1.27 1.27)) hide)
    )
    (property "Datasheet" "" (id 3) (at 165.1 143.51 0)
      (effects (font (size 1.27 1.27)) hide)
    )
    (pin "1" (uuid f8e14fed-cab0-444c-a4fc-195265c7bf7f))
  )

  (symbol (lib_id "Device:C") (at 121.92 119.38 270) (unit 1)
    (in_bom yes) (on_board yes)
    (uuid 00000000-0000-0000-0000-000062242d28)
    (property "Reference" "C31" (id 0) (at 121.92 112.9792 90))
    (property "Value" "1500p" (id 1) (at 121.92 115.2906 90))
    (property "Footprint" "Capacitor_SMD:C_0603_1608Metric_Pad1.08x0.95mm_HandSolder" (id 2) (at 118.11 120.3452 0)
      (effects (font (size 1.27 1.27)) hide)
    )
    (property "Datasheet" "~" (id 3) (at 121.92 119.38 0)
      (effects (font (size 1.27 1.27)) hide)
    )
    (pin "1" (uuid d998b8fa-0906-446e-872d-b44d3808216a))
    (pin "2" (uuid 58a02802-7d59-4270-a3dd-ff2d3fdb8a00))
  )

  (symbol (lib_id "Device:C") (at 140.97 132.08 270) (unit 1)
    (in_bom yes) (on_board yes)
    (uuid 00000000-0000-0000-0000-000062242d35)
    (property "Reference" "C32" (id 0) (at 140.97 123.3932 90))
    (property "Value" "4700p" (id 1) (at 140.97 125.7046 90))
    (property "Footprint" "Capacitor_THT:CP_Axial_L18.0mm_D6.5mm_P25.00mm_Horizontal" (id 2) (at 137.16 133.0452 0)
      (effects (font (size 1.27 1.27)) hide)
    )
    (property "Datasheet" "~" (id 3) (at 140.97 132.08 0)
      (effects (font (size 1.27 1.27)) hide)
    )
    (property "Note" "Film" (id 4) (at 140.97 128.016 90))
    (pin "1" (uuid a8d28ab8-544c-4ce3-b509-88d9ff0c7c8c))
    (pin "2" (uuid 316a66f5-2b50-4133-8e07-9e7948bf8d69))
  )

  (symbol (lib_id "Amplifier_Operational:TL072") (at 119.38 83.82 0) (mirror x) (unit 1)
    (in_bom yes) (on_board yes)
    (uuid 00000000-0000-0000-0000-00006234859e)
    (property "Reference" "U7" (id 0) (at 119.38 93.1418 0))
    (property "Value" "TL072" (id 1) (at 119.38 90.8304 0))
    (property "Footprint" "Package_SO:SOIC-8_3.9x4.9mm_P1.27mm" (id 2) (at 119.38 83.82 0)
      (effects (font (size 1.27 1.27)) hide)
    )
    (property "Datasheet" "http://www.ti.com/lit/ds/symlink/tl071.pdf" (id 3) (at 119.38 83.82 0)
      (effects (font (size 1.27 1.27)) hide)
    )
    (pin "1" (uuid 30755eb2-7523-458a-85d4-4a974474b5b7))
    (pin "2" (uuid 78f9246f-9947-4d52-b06f-a10001a23a0e))
    (pin "3" (uuid a7741ff7-406c-4ab0-b691-83fdae8b3c03))
    (pin "5" (uuid 8cf00b1b-c180-47da-8161-914eaeb7337a))
    (pin "6" (uuid 0e0ced7b-f88c-4634-aa23-4e8f68005c31))
    (pin "7" (uuid 6df74b3b-c56e-4f83-9e49-83a30bf1679f))
    (pin "4" (uuid 42687dae-5433-4548-acf3-b460ae53bef8))
    (pin "8" (uuid 2a858c9b-e4f8-4f61-8fe3-013e9d1f8fd5))
  )

  (symbol (lib_id "Device:R") (at 121.92 58.42 270) (unit 1)
    (in_bom yes) (on_board yes)
    (uuid 00000000-0000-0000-0000-0000623485aa)
    (property "Reference" "R17" (id 0) (at 121.92 53.1622 90))
    (property "Value" "1M" (id 1) (at 121.92 55.4736 90))
    (property "Footprint" "Resistor_SMD:R_0603_1608Metric_Pad0.98x0.95mm_HandSolder" (id 2) (at 121.92 56.642 90)
      (effects (font (size 1.27 1.27)) hide)
    )
    (property "Datasheet" "~" (id 3) (at 121.92 58.42 0)
      (effects (font (size 1.27 1.27)) hide)
    )
    (pin "1" (uuid 4cabc165-608d-4cd1-aba6-432c956fa56b))
    (pin "2" (uuid 6cfa46b1-f507-44b8-b9a7-a3eb37d11fe9))
  )

  (symbol (lib_id "Device:R") (at 154.94 83.82 270) (unit 1)
    (in_bom yes) (on_board yes)
    (uuid 00000000-0000-0000-0000-0000623485b0)
    (property "Reference" "R18" (id 0) (at 154.94 78.5622 90))
    (property "Value" "4.7k" (id 1) (at 154.94 80.8736 90))
    (property "Footprint" "Resistor_SMD:R_0603_1608Metric_Pad0.98x0.95mm_HandSolder" (id 2) (at 154.94 82.042 90)
      (effects (font (size 1.27 1.27)) hide)
    )
    (property "Datasheet" "~" (id 3) (at 154.94 83.82 0)
      (effects (font (size 1.27 1.27)) hide)
    )
    (pin "1" (uuid bc2b2bc7-c523-4215-a00e-3acfeb2fbc11))
    (pin "2" (uuid b7df9be7-8448-4a3b-8bbf-97a47528a209))
  )

  (symbol (lib_id "Device:R") (at 165.1 87.63 0) (unit 1)
    (in_bom yes) (on_board yes)
    (uuid 00000000-0000-0000-0000-0000623485b6)
    (property "Reference" "R19" (id 0) (at 166.878 86.4616 0)
      (effects (font (size 1.27 1.27)) (justify left))
    )
    (property "Value" "20k" (id 1) (at 166.878 88.773 0)
      (effects (font (size 1.27 1.27)) (justify left))
    )
    (property "Footprint" "Resistor_SMD:R_0603_1608Metric_Pad0.98x0.95mm_HandSolder" (id 2) (at 163.322 87.63 90)
      (effects (font (size 1.27 1.27)) hide)
    )
    (property "Datasheet" "~" (id 3) (at 165.1 87.63 0)
      (effects (font (size 1.27 1.27)) hide)
    )
    (pin "1" (uuid 42952834-9a2f-4897-93a0-5f20e4f81640))
    (pin "2" (uuid 1b96557f-c890-4b3f-92d3-f565039a0cc2))
  )

  (symbol (lib_id "power:GND") (at 109.22 95.25 0) (unit 1)
    (in_bom yes) (on_board yes)
    (uuid 00000000-0000-0000-0000-0000623485d3)
    (property "Reference" "#PWR011" (id 0) (at 109.22 101.6 0)
      (effects (font (size 1.27 1.27)) hide)
    )
    (property "Value" "GND" (id 1) (at 109.347 99.6442 0))
    (property "Footprint" "" (id 2) (at 109.22 95.25 0)
      (effects (font (size 1.27 1.27)) hide)
    )
    (property "Datasheet" "" (id 3) (at 109.22 95.25 0)
      (effects (font (size 1.27 1.27)) hide)
    )
    (pin "1" (uuid 0e7a6897-e7d6-41f2-988b-08ec8095cbfe))
  )

  (symbol (lib_id "power:GND") (at 165.1 95.25 0) (unit 1)
    (in_bom yes) (on_board yes)
    (uuid 00000000-0000-0000-0000-0000623485d9)
    (property "Reference" "#PWR012" (id 0) (at 165.1 101.6 0)
      (effects (font (size 1.27 1.27)) hide)
    )
    (property "Value" "GND" (id 1) (at 165.227 99.6442 0))
    (property "Footprint" "" (id 2) (at 165.1 95.25 0)
      (effects (font (size 1.27 1.27)) hide)
    )
    (property "Datasheet" "" (id 3) (at 165.1 95.25 0)
      (effects (font (size 1.27 1.27)) hide)
    )
    (pin "1" (uuid 1887e168-20f1-49cd-9962-76e29c6c62e1))
  )

  (symbol (lib_id "Device:C") (at 121.92 71.12 270) (unit 1)
    (in_bom yes) (on_board yes)
    (uuid 00000000-0000-0000-0000-00006234b576)
    (property "Reference" "C29" (id 0) (at 121.92 64.7192 90))
    (property "Value" "1500p" (id 1) (at 121.92 67.0306 90))
    (property "Footprint" "Capacitor_SMD:C_0603_1608Metric_Pad1.08x0.95mm_HandSolder" (id 2) (at 118.11 72.0852 0)
      (effects (font (size 1.27 1.27)) hide)
    )
    (property "Datasheet" "~" (id 3) (at 121.92 71.12 0)
      (effects (font (size 1.27 1.27)) hide)
    )
    (pin "1" (uuid 98124fca-e6b6-44a5-a002-5de85a6df37c))
    (pin "2" (uuid 1c26ab3a-225a-43dd-bd66-d2921c157767))
  )

  (symbol (lib_id "Device:C") (at 140.97 83.82 270) (unit 1)
    (in_bom yes) (on_board yes)
    (uuid 00000000-0000-0000-0000-000062508b0b)
    (property "Reference" "C30" (id 0) (at 140.97 75.1332 90))
    (property "Value" "4700p" (id 1) (at 140.97 77.4446 90))
    (property "Footprint" "Capacitor_THT:CP_Axial_L18.0mm_D6.5mm_P25.00mm_Horizontal" (id 2) (at 137.16 84.7852 0)
      (effects (font (size 1.27 1.27)) hide)
    )
    (property "Datasheet" "~" (id 3) (at 140.97 83.82 0)
      (effects (font (size 1.27 1.27)) hide)
    )
    (property "Note" "Film" (id 4) (at 140.97 79.756 90))
    (pin "1" (uuid 8fb7b8a7-34dd-42a0-8b2a-51c69148473b))
    (pin "2" (uuid 4ece09d6-80c4-456a-8478-f8ca404afb53))
  )
)
