EESchema Schematic File Version 4
EELAYER 30 0
EELAYER END
$Descr A4 11693 8268
encoding utf-8
Sheet 4 15
Title "User Interface Microcontroller"
Date ""
Rev ""
Comp "ECE445 Team 22"
Comment1 ""
Comment2 ""
Comment3 ""
Comment4 ""
$EndDescr
$Comp
L power:GND #PWR0137
U 1 1 620BE084
P 8350 1550
F 0 "#PWR0137" H 8350 1300 50  0001 C CNN
F 1 "GND" H 8355 1377 50  0000 C CNN
F 2 "" H 8350 1550 50  0001 C CNN
F 3 "" H 8350 1550 50  0001 C CNN
	1    8350 1550
	1    0    0    -1  
$EndComp
$Comp
L power:GND #PWR0138
U 1 1 620BE288
P 8750 1550
F 0 "#PWR0138" H 8750 1300 50  0001 C CNN
F 1 "GND" H 8755 1377 50  0000 C CNN
F 2 "" H 8750 1550 50  0001 C CNN
F 3 "" H 8750 1550 50  0001 C CNN
	1    8750 1550
	1    0    0    -1  
$EndComp
$Comp
L Device:C C14
U 1 1 620C51DA
P 8350 1350
F 0 "C14" H 8465 1396 50  0000 L CNN
F 1 "0.1u" H 8465 1305 50  0000 L CNN
F 2 "Capacitor_SMD:C_0603_1608Metric_Pad1.08x0.95mm_HandSolder" H 8388 1200 50  0001 C CNN
F 3 "~" H 8350 1350 50  0001 C CNN
	1    8350 1350
	1    0    0    -1  
$EndComp
$Comp
L Device:C C15
U 1 1 620C5416
P 8750 1350
F 0 "C15" H 8865 1396 50  0000 L CNN
F 1 "0.1u" H 8865 1305 50  0000 L CNN
F 2 "Capacitor_SMD:C_0603_1608Metric_Pad1.08x0.95mm_HandSolder" H 8788 1200 50  0001 C CNN
F 3 "~" H 8750 1350 50  0001 C CNN
	1    8750 1350
	1    0    0    -1  
$EndComp
Wire Wire Line
	8750 950  8750 1200
Wire Wire Line
	8350 1200 8350 950 
Connection ~ 8350 950 
Wire Wire Line
	8350 950  8750 950 
Wire Wire Line
	8750 1500 8750 1550
Wire Wire Line
	8350 1550 8350 1500
$Comp
L power:+3V3 #PWR0141
U 1 1 620CFC6C
P 6800 800
F 0 "#PWR0141" H 6800 650 50  0001 C CNN
F 1 "+3V3" H 6815 973 50  0000 C CNN
F 2 "" H 6800 800 50  0001 C CNN
F 3 "" H 6800 800 50  0001 C CNN
	1    6800 800 
	1    0    0    -1  
$EndComp
Wire Wire Line
	6800 800  6800 950 
Connection ~ 8750 950 
$Comp
L Device:R R11
U 1 1 62116A74
P 3850 2500
F 0 "R11" H 3920 2546 50  0000 L CNN
F 1 "10k" H 3920 2455 50  0000 L CNN
F 2 "Resistor_SMD:R_0603_1608Metric_Pad0.98x0.95mm_HandSolder" V 3780 2500 50  0001 C CNN
F 3 "~" H 3850 2500 50  0001 C CNN
	1    3850 2500
	1    0    0    -1  
$EndComp
$Comp
L Device:R R12
U 1 1 6211D371
P 4000 3600
F 0 "R12" H 4070 3646 50  0000 L CNN
F 1 "10k" H 4070 3555 50  0000 L CNN
F 2 "Resistor_SMD:R_0603_1608Metric_Pad0.98x0.95mm_HandSolder" V 3930 3600 50  0001 C CNN
F 3 "~" H 4000 3600 50  0001 C CNN
	1    4000 3600
	1    0    0    -1  
$EndComp
$Comp
L Device:C C8
U 1 1 62121C9A
P 2250 2800
F 0 "C8" H 2365 2846 50  0000 L CNN
F 1 "0.1u" H 2365 2755 50  0000 L CNN
F 2 "Capacitor_SMD:C_0603_1608Metric_Pad1.08x0.95mm_HandSolder" H 2288 2650 50  0001 C CNN
F 3 "~" H 2250 2800 50  0001 C CNN
	1    2250 2800
	1    0    0    -1  
$EndComp
Wire Wire Line
	2250 2400 2250 2650
$Comp
L power:+3V3 #PWR0144
U 1 1 6212645F
P 3850 2250
F 0 "#PWR0144" H 3850 2100 50  0001 C CNN
F 1 "+3V3" H 3865 2423 50  0000 C CNN
F 2 "" H 3850 2250 50  0001 C CNN
F 3 "" H 3850 2250 50  0001 C CNN
	1    3850 2250
	1    0    0    -1  
$EndComp
$Comp
L power:+3V3 #PWR0145
U 1 1 62126F77
P 2250 1850
F 0 "#PWR0145" H 2250 1700 50  0001 C CNN
F 1 "+3V3" H 2265 2023 50  0000 C CNN
F 2 "" H 2250 1850 50  0001 C CNN
F 3 "" H 2250 1850 50  0001 C CNN
	1    2250 1850
	1    0    0    -1  
$EndComp
Wire Wire Line
	2250 1850 2250 2400
Connection ~ 2250 2400
$Comp
L power:GND #PWR0146
U 1 1 62128D70
P 2250 3250
F 0 "#PWR0146" H 2250 3000 50  0001 C CNN
F 1 "GND" H 2255 3077 50  0000 C CNN
F 2 "" H 2250 3250 50  0001 C CNN
F 3 "" H 2250 3250 50  0001 C CNN
	1    2250 3250
	1    0    0    -1  
$EndComp
Wire Wire Line
	2250 2950 2250 3250
$Comp
L power:GND #PWR0147
U 1 1 62133626
P 3050 4350
F 0 "#PWR0147" H 3050 4100 50  0001 C CNN
F 1 "GND" H 3055 4177 50  0000 C CNN
F 2 "" H 3050 4350 50  0001 C CNN
F 3 "" H 3050 4350 50  0001 C CNN
	1    3050 4350
	1    0    0    -1  
$EndComp
Wire Wire Line
	3050 4350 3050 3700
$Comp
L power:GND #PWR0148
U 1 1 62134C57
P 4000 3850
F 0 "#PWR0148" H 4000 3600 50  0001 C CNN
F 1 "GND" H 4005 3677 50  0000 C CNN
F 2 "" H 4000 3850 50  0001 C CNN
F 3 "" H 4000 3850 50  0001 C CNN
	1    4000 3850
	1    0    0    -1  
$EndComp
Wire Wire Line
	4000 3850 4000 3750
Text Label 5500 2100 0    50   ~ 0
SWDIO
Text Label 5500 1800 0    50   ~ 0
SWDCLK
Wire Wire Line
	5500 2100 5900 2100
Wire Wire Line
	5900 1800 5500 1800
Wire Wire Line
	3850 2250 3850 2350
$Comp
L Device:R R13
U 1 1 6218A149
P 4750 1950
F 0 "R13" H 4820 1996 50  0000 L CNN
F 1 "10k" H 4820 1905 50  0000 L CNN
F 2 "Resistor_SMD:R_0603_1608Metric_Pad0.98x0.95mm_HandSolder" V 4680 1950 50  0001 C CNN
F 3 "~" H 4750 1950 50  0001 C CNN
	1    4750 1950
	1    0    0    -1  
$EndComp
$Comp
L power:+3V3 #PWR0150
U 1 1 6218A14F
P 4750 1700
F 0 "#PWR0150" H 4750 1550 50  0001 C CNN
F 1 "+3V3" H 4765 1873 50  0000 C CNN
F 2 "" H 4750 1700 50  0001 C CNN
F 3 "" H 4750 1700 50  0001 C CNN
	1    4750 1700
	1    0    0    -1  
$EndComp
Wire Wire Line
	4750 1700 4750 1800
Wire Wire Line
	4750 2200 4750 2100
Text HLabel 8500 5000 2    50   Output ~ 0
SCK
Text HLabel 8500 4900 2    50   Output ~ 0
SDO
Text HLabel 8500 4800 2    50   Input ~ 0
SDI
Wire Wire Line
	8300 4800 8500 4800
Wire Wire Line
	8500 4900 8300 4900
Wire Wire Line
	8300 5000 8500 5000
Text HLabel 8500 3100 2    50   Input ~ 0
F0_A_UPCK
Text HLabel 8500 3200 2    50   Input ~ 0
F0_B_DNCK
Wire Wire Line
	8300 3100 8500 3100
Wire Wire Line
	8500 3200 8300 3200
Text HLabel 8500 4400 2    50   Output ~ 0
CS_DSP
Wire Wire Line
	8300 4400 8500 4400
Text HLabel 8500 5100 2    50   Output ~ 0
CS_MEM
Wire Wire Line
	8300 5100 8500 5100
Text HLabel 8500 3300 2    50   Input ~ 0
Q_A_UPCK
Text HLabel 8500 3400 2    50   Input ~ 0
Q_B_DNCK
Wire Wire Line
	8300 3300 8500 3300
Wire Wire Line
	8500 3400 8300 3400
Text HLabel 8500 3500 2    50   Input ~ 0
GAIN_A_UPCK
Text HLabel 8500 3600 2    50   Input ~ 0
GAIN_B_DNCK
Wire Wire Line
	8300 3500 8500 3500
Wire Wire Line
	8500 3600 8300 3600
Text HLabel 8500 3700 2    50   Input ~ 0
VOL_A_UPCK
Text HLabel 8500 3800 2    50   Input ~ 0
VOL_B_DNCK
Wire Wire Line
	8300 3700 8500 3700
Wire Wire Line
	8500 3800 8300 3800
Text HLabel 8500 4300 2    50   Output ~ 0
CS_IND
Wire Wire Line
	8300 4300 8500 4300
Text Label 5650 2800 0    50   ~ 0
~RESET
Text HLabel 5600 2800 0    50   Input ~ 0
~RESET
Wire Wire Line
	5600 2800 5900 2800
Text HLabel 8500 4000 2    50   Input ~ 0
BTN_PRESET_SW
Wire Wire Line
	8500 4000 8300 4000
Text HLabel 8500 4100 2    50   Input ~ 0
BTN_STRING_SW
Wire Wire Line
	8500 4100 8300 4100
Text HLabel 8500 2300 2    50   Output ~ 0
IND_STR0
Text HLabel 8500 2200 2    50   Output ~ 0
IND_STR1
Text HLabel 8500 1900 2    50   Output ~ 0
IND_STR2
Text HLabel 8500 2000 2    50   Output ~ 0
IND_STR3
Text HLabel 8500 2500 2    50   Output ~ 0
IND_PRE0
Text HLabel 8500 2400 2    50   Output ~ 0
IND_PRE1
Wire Wire Line
	8500 2000 8300 2000
Wire Wire Line
	8500 1900 8300 1900
Wire Wire Line
	8500 2200 8300 2200
Wire Wire Line
	8500 2300 8300 2300
Wire Wire Line
	8500 2400 8300 2400
Wire Wire Line
	8500 2500 8300 2500
Text HLabel 5700 2000 0    50   Output ~ 0
~HOLD_MEM
Text HLabel 5700 1900 0    50   Output ~ 0
~WP_MEM
Wire Wire Line
	5900 2000 5700 2000
Wire Wire Line
	5900 1900 5700 1900
$Comp
L Connector:Conn_ARM_JTAG_SWD_10 J2
U 1 1 620F9EA7
P 3050 3100
F 0 "J2" H 2550 2650 50  0000 R CNN
F 1 "Conn_ARM_JTAG_SWD_10" H 2650 2550 50  0000 R CNN
F 2 "Connector_PinHeader_1.27mm:PinHeader_2x05_P1.27mm_Vertical" H 3050 3100 50  0001 C CNN
F 3 "http://infocenter.arm.com/help/topic/com.arm.doc.ddi0314h/DDI0314H_coresight_components_trm.pdf" V 2700 1850 50  0001 C CNN
	1    3050 3100
	1    0    0    -1  
$EndComp
Text Label 4550 3000 2    50   ~ 0
SWDCLK
Text Label 4550 3100 2    50   ~ 0
SWDIO
Text Label 4550 2800 2    50   ~ 0
~RESET
Wire Wire Line
	3050 2400 3050 2500
Wire Wire Line
	2250 2400 3050 2400
Wire Wire Line
	3850 3100 4550 3100
Wire Wire Line
	3850 2650 3850 3100
Wire Wire Line
	3550 3100 3850 3100
Connection ~ 3850 3100
Wire Wire Line
	3550 3000 4000 3000
Wire Wire Line
	4000 3450 4000 3000
Connection ~ 4000 3000
Wire Wire Line
	4000 3000 4550 3000
Wire Wire Line
	3550 2800 4550 2800
Text Label 5500 2200 0    50   ~ 0
NMIb
Wire Wire Line
	7200 950  7200 1200
$Comp
L power:GND #PWR0134
U 1 1 6223F381
P 7000 5800
F 0 "#PWR0134" H 7000 5550 50  0001 C CNN
F 1 "GND" H 7005 5627 50  0000 C CNN
F 2 "" H 7000 5800 50  0001 C CNN
F 3 "" H 7000 5800 50  0001 C CNN
	1    7000 5800
	1    0    0    -1  
$EndComp
Wire Wire Line
	7000 5600 7000 5700
Wire Wire Line
	7000 5700 7200 5700
Wire Wire Line
	7300 5700 7300 5600
Wire Wire Line
	7200 5600 7200 5700
Connection ~ 7200 5700
Wire Wire Line
	7200 5700 7300 5700
Wire Wire Line
	7000 5800 7000 5700
Connection ~ 7000 5700
Wire Wire Line
	7200 950  7300 950 
Wire Wire Line
	7000 950  7000 1200
Connection ~ 7200 950 
Wire Wire Line
	7300 1200 7300 950 
Connection ~ 7300 950 
Wire Wire Line
	7300 950  8350 950 
$Comp
L Device:C C9
U 1 1 622AC7D8
P 9150 1350
F 0 "C9" H 9265 1396 50  0000 L CNN
F 1 "0.1u" H 9265 1305 50  0000 L CNN
F 2 "Capacitor_SMD:C_0603_1608Metric_Pad1.08x0.95mm_HandSolder" H 9188 1200 50  0001 C CNN
F 3 "~" H 9150 1350 50  0001 C CNN
	1    9150 1350
	1    0    0    -1  
$EndComp
$Comp
L power:GND #PWR0135
U 1 1 622ACD3A
P 9150 1550
F 0 "#PWR0135" H 9150 1300 50  0001 C CNN
F 1 "GND" H 9155 1377 50  0000 C CNN
F 2 "" H 9150 1550 50  0001 C CNN
F 3 "" H 9150 1550 50  0001 C CNN
	1    9150 1550
	1    0    0    -1  
$EndComp
Wire Wire Line
	9150 1500 9150 1550
Wire Wire Line
	9150 1200 9150 950 
Wire Wire Line
	9150 950  8750 950 
Wire Wire Line
	7000 950  7200 950 
Wire Wire Line
	6800 1200 6800 950 
Wire Wire Line
	6800 950  7000 950 
Connection ~ 6800 950 
Connection ~ 7000 950 
Wire Wire Line
	4750 2200 5900 2200
$Comp
L MCU_NXP_Kinetis:MKL43Z128VLH4 U4
U 1 1 621ABA78
P 7100 3400
F 0 "U4" H 6150 1350 50  0000 C CNN
F 1 "MKL43Z128VLH4" H 7800 1350 50  0000 C CNN
F 2 "Package_QFP:LQFP-64_10x10mm_P0.5mm" H 7350 1375 50  0001 L TNN
F 3 "http://www.nxp.com/docs/en/data-sheet/KL43P64M48SF6.pdf" H 7400 1200 50  0001 L BNN
	1    7100 3400
	1    0    0    -1  
$EndComp
Wire Wire Line
	8300 2100 8500 2100
Text HLabel 8500 2100 2    50   Output ~ 0
CLKOUT
$EndSCHEMATC
