(kicad_sch (version 20211123) (generator eeschema)

  (uuid ca5b6af8-ca05-4338-b852-b51f2b49b1db)

  (paper "A4")

  (title_block
    (title "User Interface")
    (company "ECE445 Team 22")
  )

  (lib_symbols
    (symbol "Connector:TestPoint" (pin_numbers hide) (pin_names (offset 0.762) hide) (in_bom yes) (on_board yes)
      (property "Reference" "TP" (id 0) (at 0 6.858 0)
        (effects (font (size 1.27 1.27)))
      )
      (property "Value" "TestPoint" (id 1) (at 0 5.08 0)
        (effects (font (size 1.27 1.27)))
      )
      (property "Footprint" "" (id 2) (at 5.08 0 0)
        (effects (font (size 1.27 1.27)) hide)
      )
      (property "Datasheet" "~" (id 3) (at 5.08 0 0)
        (effects (font (size 1.27 1.27)) hide)
      )
      (property "ki_keywords" "test point tp" (id 4) (at 0 0 0)
        (effects (font (size 1.27 1.27)) hide)
      )
      (property "ki_description" "test point" (id 5) (at 0 0 0)
        (effects (font (size 1.27 1.27)) hide)
      )
      (property "ki_fp_filters" "Pin* Test*" (id 6) (at 0 0 0)
        (effects (font (size 1.27 1.27)) hide)
      )
      (symbol "TestPoint_0_1"
        (circle (center 0 3.302) (radius 0.762)
          (stroke (width 0) (type default) (color 0 0 0 0))
          (fill (type none))
        )
      )
      (symbol "TestPoint_1_1"
        (pin passive line (at 0 0 90) (length 2.54)
          (name "1" (effects (font (size 1.27 1.27))))
          (number "1" (effects (font (size 1.27 1.27))))
        )
      )
    )
    (symbol "CustomParts:BR25Hxxx" (in_bom yes) (on_board yes)
      (property "Reference" "U" (id 0) (at -7.62 6.35 0)
        (effects (font (size 1.27 1.27)))
      )
      (property "Value" "BR25Hxxx" (id 1) (at 2.54 -6.35 0)
        (effects (font (size 1.27 1.27)) (justify left))
      )
      (property "Footprint" "" (id 2) (at 0 0 0)
        (effects (font (size 1.27 1.27)) hide)
      )
      (property "Datasheet" "http://ww1.microchip.com/downloads/en/DeviceDoc/21832H.pdf" (id 3) (at 0 0 0)
        (effects (font (size 1.27 1.27)) hide)
      )
      (property "ki_keywords" "EEPROM memory SPI serial" (id 4) (at 0 0 0)
        (effects (font (size 1.27 1.27)) hide)
      )
      (property "ki_description" "SPI Serial EEPROM, DIP-8/SOIC-8/TSSOP-8" (id 5) (at 0 0 0)
        (effects (font (size 1.27 1.27)) hide)
      )
      (property "ki_fp_filters" "DIP*W7.62mm* SOIC*3.9x4.9mm* TSSOP*4.4x3mm*P0.65mm*" (id 6) (at 0 0 0)
        (effects (font (size 1.27 1.27)) hide)
      )
      (symbol "BR25Hxxx_1_1"
        (rectangle (start -7.62 5.08) (end 7.62 -5.08)
          (stroke (width 0.254) (type default) (color 0 0 0 0))
          (fill (type background))
        )
        (pin input line (at -10.16 -2.54 0) (length 2.54)
          (name "~{CS}" (effects (font (size 1.27 1.27))))
          (number "1" (effects (font (size 1.27 1.27))))
        )
        (pin tri_state line (at 10.16 -2.54 180) (length 2.54)
          (name "MISO" (effects (font (size 1.27 1.27))))
          (number "2" (effects (font (size 1.27 1.27))))
        )
        (pin input line (at -10.16 2.54 0) (length 2.54)
          (name "~{WP}" (effects (font (size 1.27 1.27))))
          (number "3" (effects (font (size 1.27 1.27))))
        )
        (pin power_in line (at 0 -7.62 90) (length 2.54)
          (name "GND" (effects (font (size 1.27 1.27))))
          (number "4" (effects (font (size 1.27 1.27))))
        )
        (pin input line (at 10.16 0 180) (length 2.54)
          (name "MOSI" (effects (font (size 1.27 1.27))))
          (number "5" (effects (font (size 1.27 1.27))))
        )
        (pin input line (at 10.16 2.54 180) (length 2.54)
          (name "SCK" (effects (font (size 1.27 1.27))))
          (number "6" (effects (font (size 1.27 1.27))))
        )
        (pin input line (at -10.16 0 0) (length 2.54)
          (name "~{HOLD}" (effects (font (size 1.27 1.27))))
          (number "7" (effects (font (size 1.27 1.27))))
        )
        (pin power_in line (at 0 7.62 270) (length 2.54)
          (name "VCC" (effects (font (size 1.27 1.27))))
          (number "8" (effects (font (size 1.27 1.27))))
        )
      )
    )
    (symbol "Device:C" (pin_numbers hide) (pin_names (offset 0.254)) (in_bom yes) (on_board yes)
      (property "Reference" "C" (id 0) (at 0.635 2.54 0)
        (effects (font (size 1.27 1.27)) (justify left))
      )
      (property "Value" "C" (id 1) (at 0.635 -2.54 0)
        (effects (font (size 1.27 1.27)) (justify left))
      )
      (property "Footprint" "" (id 2) (at 0.9652 -3.81 0)
        (effects (font (size 1.27 1.27)) hide)
      )
      (property "Datasheet" "~" (id 3) (at 0 0 0)
        (effects (font (size 1.27 1.27)) hide)
      )
      (property "ki_keywords" "cap capacitor" (id 4) (at 0 0 0)
        (effects (font (size 1.27 1.27)) hide)
      )
      (property "ki_description" "Unpolarized capacitor" (id 5) (at 0 0 0)
        (effects (font (size 1.27 1.27)) hide)
      )
      (property "ki_fp_filters" "C_*" (id 6) (at 0 0 0)
        (effects (font (size 1.27 1.27)) hide)
      )
      (symbol "C_0_1"
        (polyline
          (pts
            (xy -2.032 -0.762)
            (xy 2.032 -0.762)
          )
          (stroke (width 0.508) (type default) (color 0 0 0 0))
          (fill (type none))
        )
        (polyline
          (pts
            (xy -2.032 0.762)
            (xy 2.032 0.762)
          )
          (stroke (width 0.508) (type default) (color 0 0 0 0))
          (fill (type none))
        )
      )
      (symbol "C_1_1"
        (pin passive line (at 0 3.81 270) (length 2.794)
          (name "~" (effects (font (size 1.27 1.27))))
          (number "1" (effects (font (size 1.27 1.27))))
        )
        (pin passive line (at 0 -3.81 90) (length 2.794)
          (name "~" (effects (font (size 1.27 1.27))))
          (number "2" (effects (font (size 1.27 1.27))))
        )
      )
    )
    (symbol "Device:LED" (pin_numbers hide) (pin_names (offset 1.016) hide) (in_bom yes) (on_board yes)
      (property "Reference" "D" (id 0) (at 0 2.54 0)
        (effects (font (size 1.27 1.27)))
      )
      (property "Value" "LED" (id 1) (at 0 -2.54 0)
        (effects (font (size 1.27 1.27)))
      )
      (property "Footprint" "" (id 2) (at 0 0 0)
        (effects (font (size 1.27 1.27)) hide)
      )
      (property "Datasheet" "~" (id 3) (at 0 0 0)
        (effects (font (size 1.27 1.27)) hide)
      )
      (property "ki_keywords" "LED diode" (id 4) (at 0 0 0)
        (effects (font (size 1.27 1.27)) hide)
      )
      (property "ki_description" "Light emitting diode" (id 5) (at 0 0 0)
        (effects (font (size 1.27 1.27)) hide)
      )
      (property "ki_fp_filters" "LED* LED_SMD:* LED_THT:*" (id 6) (at 0 0 0)
        (effects (font (size 1.27 1.27)) hide)
      )
      (symbol "LED_0_1"
        (polyline
          (pts
            (xy -1.27 -1.27)
            (xy -1.27 1.27)
          )
          (stroke (width 0.254) (type default) (color 0 0 0 0))
          (fill (type none))
        )
        (polyline
          (pts
            (xy -1.27 0)
            (xy 1.27 0)
          )
          (stroke (width 0) (type default) (color 0 0 0 0))
          (fill (type none))
        )
        (polyline
          (pts
            (xy 1.27 -1.27)
            (xy 1.27 1.27)
            (xy -1.27 0)
            (xy 1.27 -1.27)
          )
          (stroke (width 0.254) (type default) (color 0 0 0 0))
          (fill (type none))
        )
        (polyline
          (pts
            (xy -3.048 -0.762)
            (xy -4.572 -2.286)
            (xy -3.81 -2.286)
            (xy -4.572 -2.286)
            (xy -4.572 -1.524)
          )
          (stroke (width 0) (type default) (color 0 0 0 0))
          (fill (type none))
        )
        (polyline
          (pts
            (xy -1.778 -0.762)
            (xy -3.302 -2.286)
            (xy -2.54 -2.286)
            (xy -3.302 -2.286)
            (xy -3.302 -1.524)
          )
          (stroke (width 0) (type default) (color 0 0 0 0))
          (fill (type none))
        )
      )
      (symbol "LED_1_1"
        (pin passive line (at -3.81 0 0) (length 2.54)
          (name "K" (effects (font (size 1.27 1.27))))
          (number "1" (effects (font (size 1.27 1.27))))
        )
        (pin passive line (at 3.81 0 180) (length 2.54)
          (name "A" (effects (font (size 1.27 1.27))))
          (number "2" (effects (font (size 1.27 1.27))))
        )
      )
    )
    (symbol "Device:R" (pin_numbers hide) (pin_names (offset 0)) (in_bom yes) (on_board yes)
      (property "Reference" "R" (id 0) (at 2.032 0 90)
        (effects (font (size 1.27 1.27)))
      )
      (property "Value" "R" (id 1) (at 0 0 90)
        (effects (font (size 1.27 1.27)))
      )
      (property "Footprint" "" (id 2) (at -1.778 0 90)
        (effects (font (size 1.27 1.27)) hide)
      )
      (property "Datasheet" "~" (id 3) (at 0 0 0)
        (effects (font (size 1.27 1.27)) hide)
      )
      (property "ki_keywords" "R res resistor" (id 4) (at 0 0 0)
        (effects (font (size 1.27 1.27)) hide)
      )
      (property "ki_description" "Resistor" (id 5) (at 0 0 0)
        (effects (font (size 1.27 1.27)) hide)
      )
      (property "ki_fp_filters" "R_*" (id 6) (at 0 0 0)
        (effects (font (size 1.27 1.27)) hide)
      )
      (symbol "R_0_1"
        (rectangle (start -1.016 -2.54) (end 1.016 2.54)
          (stroke (width 0.254) (type default) (color 0 0 0 0))
          (fill (type none))
        )
      )
      (symbol "R_1_1"
        (pin passive line (at 0 3.81 270) (length 1.27)
          (name "~" (effects (font (size 1.27 1.27))))
          (number "1" (effects (font (size 1.27 1.27))))
        )
        (pin passive line (at 0 -3.81 90) (length 1.27)
          (name "~" (effects (font (size 1.27 1.27))))
          (number "2" (effects (font (size 1.27 1.27))))
        )
      )
    )
    (symbol "Switch:SW_Push" (pin_numbers hide) (pin_names (offset 1.016) hide) (in_bom yes) (on_board yes)
      (property "Reference" "SW" (id 0) (at 1.27 2.54 0)
        (effects (font (size 1.27 1.27)) (justify left))
      )
      (property "Value" "SW_Push" (id 1) (at 0 -1.524 0)
        (effects (font (size 1.27 1.27)))
      )
      (property "Footprint" "" (id 2) (at 0 5.08 0)
        (effects (font (size 1.27 1.27)) hide)
      )
      (property "Datasheet" "~" (id 3) (at 0 5.08 0)
        (effects (font (size 1.27 1.27)) hide)
      )
      (property "ki_keywords" "switch normally-open pushbutton push-button" (id 4) (at 0 0 0)
        (effects (font (size 1.27 1.27)) hide)
      )
      (property "ki_description" "Push button switch, generic, two pins" (id 5) (at 0 0 0)
        (effects (font (size 1.27 1.27)) hide)
      )
      (symbol "SW_Push_0_1"
        (circle (center -2.032 0) (radius 0.508)
          (stroke (width 0) (type default) (color 0 0 0 0))
          (fill (type none))
        )
        (polyline
          (pts
            (xy 0 1.27)
            (xy 0 3.048)
          )
          (stroke (width 0) (type default) (color 0 0 0 0))
          (fill (type none))
        )
        (polyline
          (pts
            (xy 2.54 1.27)
            (xy -2.54 1.27)
          )
          (stroke (width 0) (type default) (color 0 0 0 0))
          (fill (type none))
        )
        (circle (center 2.032 0) (radius 0.508)
          (stroke (width 0) (type default) (color 0 0 0 0))
          (fill (type none))
        )
        (pin passive line (at -5.08 0 0) (length 2.54)
          (name "1" (effects (font (size 1.27 1.27))))
          (number "1" (effects (font (size 1.27 1.27))))
        )
        (pin passive line (at 5.08 0 180) (length 2.54)
          (name "2" (effects (font (size 1.27 1.27))))
          (number "2" (effects (font (size 1.27 1.27))))
        )
      )
    )
    (symbol "power:+3V3" (power) (pin_names (offset 0)) (in_bom yes) (on_board yes)
      (property "Reference" "#PWR" (id 0) (at 0 -3.81 0)
        (effects (font (size 1.27 1.27)) hide)
      )
      (property "Value" "+3V3" (id 1) (at 0 3.556 0)
        (effects (font (size 1.27 1.27)))
      )
      (property "Footprint" "" (id 2) (at 0 0 0)
        (effects (font (size 1.27 1.27)) hide)
      )
      (property "Datasheet" "" (id 3) (at 0 0 0)
        (effects (font (size 1.27 1.27)) hide)
      )
      (property "ki_keywords" "power-flag" (id 4) (at 0 0 0)
        (effects (font (size 1.27 1.27)) hide)
      )
      (property "ki_description" "Power symbol creates a global label with name \"+3V3\"" (id 5) (at 0 0 0)
        (effects (font (size 1.27 1.27)) hide)
      )
      (symbol "+3V3_0_1"
        (polyline
          (pts
            (xy -0.762 1.27)
            (xy 0 2.54)
          )
          (stroke (width 0) (type default) (color 0 0 0 0))
          (fill (type none))
        )
        (polyline
          (pts
            (xy 0 0)
            (xy 0 2.54)
          )
          (stroke (width 0) (type default) (color 0 0 0 0))
          (fill (type none))
        )
        (polyline
          (pts
            (xy 0 2.54)
            (xy 0.762 1.27)
          )
          (stroke (width 0) (type default) (color 0 0 0 0))
          (fill (type none))
        )
      )
      (symbol "+3V3_1_1"
        (pin power_in line (at 0 0 90) (length 0) hide
          (name "+3V3" (effects (font (size 1.27 1.27))))
          (number "1" (effects (font (size 1.27 1.27))))
        )
      )
    )
    (symbol "power:GND" (power) (pin_names (offset 0)) (in_bom yes) (on_board yes)
      (property "Reference" "#PWR" (id 0) (at 0 -6.35 0)
        (effects (font (size 1.27 1.27)) hide)
      )
      (property "Value" "GND" (id 1) (at 0 -3.81 0)
        (effects (font (size 1.27 1.27)))
      )
      (property "Footprint" "" (id 2) (at 0 0 0)
        (effects (font (size 1.27 1.27)) hide)
      )
      (property "Datasheet" "" (id 3) (at 0 0 0)
        (effects (font (size 1.27 1.27)) hide)
      )
      (property "ki_keywords" "power-flag" (id 4) (at 0 0 0)
        (effects (font (size 1.27 1.27)) hide)
      )
      (property "ki_description" "Power symbol creates a global label with name \"GND\" , ground" (id 5) (at 0 0 0)
        (effects (font (size 1.27 1.27)) hide)
      )
      (symbol "GND_0_1"
        (polyline
          (pts
            (xy 0 0)
            (xy 0 -1.27)
            (xy 1.27 -1.27)
            (xy 0 -2.54)
            (xy -1.27 -1.27)
            (xy 0 -1.27)
          )
          (stroke (width 0) (type default) (color 0 0 0 0))
          (fill (type none))
        )
      )
      (symbol "GND_1_1"
        (pin power_in line (at 0 0 270) (length 0) hide
          (name "GND" (effects (font (size 1.27 1.27))))
          (number "1" (effects (font (size 1.27 1.27))))
        )
      )
    )
  )

  (junction (at 87.63 34.29) (diameter 0) (color 0 0 0 0)
    (uuid 234e1024-0b7f-410c-90bb-bae43af1eb25)
  )
  (junction (at 73.66 38.1) (diameter 0) (color 0 0 0 0)
    (uuid 240e8de7-30dc-4c1a-bdd1-785152067fac)
  )
  (junction (at 41.91 138.43) (diameter 0) (color 0 0 0 0)
    (uuid 5bab6a37-1fdf-4cf8-b571-44c962ed86e9)
  )
  (junction (at 231.14 107.95) (diameter 0) (color 0 0 0 0)
    (uuid 74012f9c-57f0-452a-9ea1-1e3437e264b8)
  )
  (junction (at 187.96 85.09) (diameter 0) (color 0 0 0 0)
    (uuid 77aa6db5-9b8d-4983-b88e-30fe5af25975)
  )
  (junction (at 73.66 138.43) (diameter 0) (color 0 0 0 0)
    (uuid 88deea08-baa5-4041-beb7-01c299cf00e6)
  )
  (junction (at 107.95 34.29) (diameter 0) (color 0 0 0 0)
    (uuid c2dd13db-24b6-40f1-b75b-b9ab893d92ea)
  )
  (junction (at 107.95 33.02) (diameter 0) (color 0 0 0 0)
    (uuid c401e9c6-1deb-4979-99be-7c801c952098)
  )
  (junction (at 62.23 40.64) (diameter 0) (color 0 0 0 0)
    (uuid d988b9d2-f903-4381-8feb-4b995173ba5d)
  )

  (wire (pts (xy 54.61 77.47) (xy 74.93 77.47))
    (stroke (width 0) (type default) (color 0 0 0 0))
    (uuid 008f154a-6349-4fd5-b138-2a3e4ec8b643)
  )
  (wire (pts (xy 129.54 107.95) (xy 138.43 107.95))
    (stroke (width 0) (type default) (color 0 0 0 0))
    (uuid 022502e0-e724-4b75-bc35-3c5984dbeb76)
  )
  (wire (pts (xy 54.61 91.44) (xy 72.39 91.44))
    (stroke (width 0) (type default) (color 0 0 0 0))
    (uuid 04acdc20-abac-4dd7-9342-b933d74fa134)
  )
  (wire (pts (xy 129.54 96.52) (xy 142.24 96.52))
    (stroke (width 0) (type default) (color 0 0 0 0))
    (uuid 0554bea0-89b2-4e25-9ea3-4c73921c94cb)
  )
  (wire (pts (xy 140.97 105.41) (xy 140.97 134.62))
    (stroke (width 0) (type default) (color 0 0 0 0))
    (uuid 06665bf8-cef1-4e75-8d5b-1537b3c1b090)
  )
  (wire (pts (xy 132.08 142.24) (xy 132.08 144.78))
    (stroke (width 0) (type default) (color 0 0 0 0))
    (uuid 08ec951f-e7eb-41cf-9589-697107a98e88)
  )
  (wire (pts (xy 187.96 106.68) (xy 187.96 107.95))
    (stroke (width 0) (type default) (color 0 0 0 0))
    (uuid 0a1d0cbe-85ab-4f0f-b3b1-fcef21dfb600)
  )
  (wire (pts (xy 228.6 85.09) (xy 222.25 85.09))
    (stroke (width 0) (type default) (color 0 0 0 0))
    (uuid 0a5610bb-d01a-4417-8271-dc424dd2c838)
  )
  (wire (pts (xy 54.61 43.18) (xy 82.55 43.18))
    (stroke (width 0) (type default) (color 0 0 0 0))
    (uuid 0c65e182-c1e1-4bff-a393-99a6d66f408b)
  )
  (wire (pts (xy 179.07 85.09) (xy 187.96 85.09))
    (stroke (width 0) (type default) (color 0 0 0 0))
    (uuid 0e0f9829-27a5-43b2-a0ae-121d3ce72ef4)
  )
  (wire (pts (xy 133.35 124.46) (xy 133.35 113.03))
    (stroke (width 0) (type default) (color 0 0 0 0))
    (uuid 0e32af77-726b-4e11-9f99-2e2484ba9e9b)
  )
  (wire (pts (xy 54.61 55.88) (xy 81.28 55.88))
    (stroke (width 0) (type default) (color 0 0 0 0))
    (uuid 14a2311e-4204-4a55-a6b0-a4ca82f5ae54)
  )
  (wire (pts (xy 138.43 107.95) (xy 138.43 129.54))
    (stroke (width 0) (type default) (color 0 0 0 0))
    (uuid 15189cef-9045-423b-b4f6-a763d4e75704)
  )
  (wire (pts (xy 129.54 110.49) (xy 135.89 110.49))
    (stroke (width 0) (type default) (color 0 0 0 0))
    (uuid 152cd84e-bbed-4df5-a866-d1ab977b0966)
  )
  (wire (pts (xy 105.41 152.4) (xy 105.41 153.67))
    (stroke (width 0) (type default) (color 0 0 0 0))
    (uuid 1a22eb2d-f625-4371-a918-ff1b97dc8219)
  )
  (wire (pts (xy 173.99 62.23) (xy 173.99 64.77))
    (stroke (width 0) (type default) (color 0 0 0 0))
    (uuid 1bf7d0f9-0dcf-4d7c-b58c-318e3dc42bc9)
  )
  (wire (pts (xy 129.54 76.2) (xy 143.51 76.2))
    (stroke (width 0) (type default) (color 0 0 0 0))
    (uuid 22962957-1efd-404d-83db-5b233b6c15b0)
  )
  (wire (pts (xy 137.16 52.07) (xy 163.83 52.07))
    (stroke (width 0) (type default) (color 0 0 0 0))
    (uuid 22c28634-55a5-4f76-9217-6b70ddd108b8)
  )
  (wire (pts (xy 149.86 73.66) (xy 149.86 57.15))
    (stroke (width 0) (type default) (color 0 0 0 0))
    (uuid 247ebffd-2cb6-4379-ba6e-21861fea3913)
  )
  (wire (pts (xy 85.09 72.39) (xy 92.71 72.39))
    (stroke (width 0) (type default) (color 0 0 0 0))
    (uuid 24876391-6ea1-4a23-80ec-4d11956a138a)
  )
  (wire (pts (xy 54.61 40.64) (xy 62.23 40.64))
    (stroke (width 0) (type default) (color 0 0 0 0))
    (uuid 249e7911-844a-4aaa-9f5e-28914a1c272d)
  )
  (wire (pts (xy 222.25 107.95) (xy 231.14 107.95))
    (stroke (width 0) (type default) (color 0 0 0 0))
    (uuid 2681e64d-bedc-4e1f-87d2-754aaa485bbd)
  )
  (wire (pts (xy 41.91 147.32) (xy 41.91 148.59))
    (stroke (width 0) (type default) (color 0 0 0 0))
    (uuid 26a22c19-4cc5-4237-9651-0edc4f854154)
  )
  (wire (pts (xy 107.95 19.05) (xy 107.95 22.86))
    (stroke (width 0) (type default) (color 0 0 0 0))
    (uuid 26bc8641-9bca-4204-9709-deedbe202a36)
  )
  (wire (pts (xy 73.66 95.25) (xy 92.71 95.25))
    (stroke (width 0) (type default) (color 0 0 0 0))
    (uuid 2893ae1e-a6cc-43b7-b3ed-28b43f7af312)
  )
  (wire (pts (xy 114.3 33.02) (xy 107.95 33.02))
    (stroke (width 0) (type default) (color 0 0 0 0))
    (uuid 29cbb0bc-f66b-4d11-80e7-5bb270e42496)
  )
  (wire (pts (xy 135.89 127) (xy 123.19 127))
    (stroke (width 0) (type default) (color 0 0 0 0))
    (uuid 2a4111b7-8149-4814-9344-3b8119cd75e4)
  )
  (wire (pts (xy 62.23 40.64) (xy 83.82 40.64))
    (stroke (width 0) (type default) (color 0 0 0 0))
    (uuid 2a4f8fcf-2419-4659-9112-ff9f236cf573)
  )
  (wire (pts (xy 114.3 124.46) (xy 133.35 124.46))
    (stroke (width 0) (type default) (color 0 0 0 0))
    (uuid 2ee28fa9-d785-45a1-9a1b-1be02ad8cd0b)
  )
  (wire (pts (xy 129.54 102.87) (xy 149.86 102.87))
    (stroke (width 0) (type default) (color 0 0 0 0))
    (uuid 2eea20e6-112c-411a-b615-885ae773135a)
  )
  (wire (pts (xy 54.61 88.9) (xy 73.66 88.9))
    (stroke (width 0) (type default) (color 0 0 0 0))
    (uuid 31880846-8324-4b1f-b227-370d5797cda6)
  )
  (wire (pts (xy 54.61 72.39) (xy 77.47 72.39))
    (stroke (width 0) (type default) (color 0 0 0 0))
    (uuid 31b5a4e9-60a7-44c2-bfaa-3c4a45e59497)
  )
  (wire (pts (xy 129.54 71.12) (xy 146.05 71.12))
    (stroke (width 0) (type default) (color 0 0 0 0))
    (uuid 3335d379-08d8-4469-9fa1-495ed5a43fba)
  )
  (wire (pts (xy 107.95 33.02) (xy 107.95 34.29))
    (stroke (width 0) (type default) (color 0 0 0 0))
    (uuid 355ced6c-c08a-4586-9a09-7a9c624536f6)
  )
  (wire (pts (xy 154.94 82.55) (xy 162.56 82.55))
    (stroke (width 0) (type default) (color 0 0 0 0))
    (uuid 3656bb3f-f8a4-4f3a-8e9a-ec6203c87a56)
  )
  (wire (pts (xy 187.96 82.55) (xy 187.96 85.09))
    (stroke (width 0) (type default) (color 0 0 0 0))
    (uuid 3934b2e9-06c8-499c-a6df-4d7b35cfb894)
  )
  (wire (pts (xy 83.82 74.93) (xy 92.71 74.93))
    (stroke (width 0) (type default) (color 0 0 0 0))
    (uuid 3a7f7174-a25d-4269-865e-f5b141ceb62d)
  )
  (wire (pts (xy 87.63 113.03) (xy 87.63 138.43))
    (stroke (width 0) (type default) (color 0 0 0 0))
    (uuid 3b65c51e-c243-447e-bee9-832d94c1630e)
  )
  (wire (pts (xy 129.54 85.09) (xy 133.35 85.09))
    (stroke (width 0) (type default) (color 0 0 0 0))
    (uuid 3c22d605-7855-4cc6-8ad2-906cadbd02dc)
  )
  (wire (pts (xy 154.94 90.17) (xy 162.56 90.17))
    (stroke (width 0) (type default) (color 0 0 0 0))
    (uuid 3c646c61-400f-4f60-98b8-05ed5e632a3f)
  )
  (wire (pts (xy 198.12 85.09) (xy 205.74 85.09))
    (stroke (width 0) (type default) (color 0 0 0 0))
    (uuid 3f1ab70d-3263-42b5-9c61-0360188ff2b7)
  )
  (wire (pts (xy 123.19 142.24) (xy 123.19 144.78))
    (stroke (width 0) (type default) (color 0 0 0 0))
    (uuid 3f2a6679-91d7-4b6c-bf5c-c4d5abb2bc44)
  )
  (wire (pts (xy 187.96 85.09) (xy 187.96 87.63))
    (stroke (width 0) (type default) (color 0 0 0 0))
    (uuid 3f96e159-1f3b-4ee7-a46e-e60d78f2137a)
  )
  (wire (pts (xy 73.66 138.43) (xy 87.63 138.43))
    (stroke (width 0) (type default) (color 0 0 0 0))
    (uuid 402c62e6-8d8e-473a-a0cf-2b86e4908cd7)
  )
  (wire (pts (xy 149.86 142.24) (xy 149.86 144.78))
    (stroke (width 0) (type default) (color 0 0 0 0))
    (uuid 4346fe55-f906-453a-b81a-1c013104a598)
  )
  (wire (pts (xy 107.95 34.29) (xy 87.63 34.29))
    (stroke (width 0) (type default) (color 0 0 0 0))
    (uuid 465137b4-f6f7-4d51-9b40-b161947d5cc1)
  )
  (wire (pts (xy 129.54 105.41) (xy 140.97 105.41))
    (stroke (width 0) (type default) (color 0 0 0 0))
    (uuid 49fec31e-3712-4229-8142-b191d90a97d0)
  )
  (wire (pts (xy 54.61 38.1) (xy 73.66 38.1))
    (stroke (width 0) (type default) (color 0 0 0 0))
    (uuid 4ad89f03-502e-49b3-89d1-7c30998ed859)
  )
  (wire (pts (xy 72.39 97.79) (xy 92.71 97.79))
    (stroke (width 0) (type default) (color 0 0 0 0))
    (uuid 4b19d31d-d2cd-483b-a236-4f5f17138161)
  )
  (wire (pts (xy 198.12 115.57) (xy 205.74 115.57))
    (stroke (width 0) (type default) (color 0 0 0 0))
    (uuid 4b471778-f61d-4b9d-a507-3d4f82ec4b7c)
  )
  (wire (pts (xy 105.41 142.24) (xy 105.41 144.78))
    (stroke (width 0) (type default) (color 0 0 0 0))
    (uuid 4ce9470f-5633-41bf-89ac-74a810939893)
  )
  (wire (pts (xy 41.91 137.16) (xy 41.91 138.43))
    (stroke (width 0) (type default) (color 0 0 0 0))
    (uuid 4cfd9a02-97ef-4af4-a6b8-db9be1a8fda5)
  )
  (wire (pts (xy 137.16 52.07) (xy 137.16 68.58))
    (stroke (width 0) (type default) (color 0 0 0 0))
    (uuid 4d2fd49e-2cb2-44d4-8935-68488970d97b)
  )
  (wire (pts (xy 198.12 90.17) (xy 205.74 90.17))
    (stroke (width 0) (type default) (color 0 0 0 0))
    (uuid 4f2f68c4-6fa0-45ce-b5c2-e911daddcd12)
  )
  (wire (pts (xy 73.66 35.56) (xy 73.66 38.1))
    (stroke (width 0) (type default) (color 0 0 0 0))
    (uuid 55f38b43-3cb5-4b15-a122-e4fcbb258ed0)
  )
  (wire (pts (xy 135.89 110.49) (xy 135.89 127))
    (stroke (width 0) (type default) (color 0 0 0 0))
    (uuid 560d05a7-84e4-403a-80d1-f287a4032b8a)
  )
  (wire (pts (xy 74.93 77.47) (xy 74.93 92.71))
    (stroke (width 0) (type default) (color 0 0 0 0))
    (uuid 5813bbac-bf24-47a1-b0ad-6d85696a5f2b)
  )
  (wire (pts (xy 222.25 110.49) (xy 231.14 110.49))
    (stroke (width 0) (type default) (color 0 0 0 0))
    (uuid 5a390647-51ba-4684-b747-9001f749ff71)
  )
  (wire (pts (xy 62.23 35.56) (xy 62.23 40.64))
    (stroke (width 0) (type default) (color 0 0 0 0))
    (uuid 5ea7446c-bac6-4846-8966-b25096295b9f)
  )
  (wire (pts (xy 81.28 55.88) (xy 81.28 80.01))
    (stroke (width 0) (type default) (color 0 0 0 0))
    (uuid 60494cc1-64fd-4e47-86a3-f8e1b298fc71)
  )
  (wire (pts (xy 73.66 88.9) (xy 73.66 95.25))
    (stroke (width 0) (type default) (color 0 0 0 0))
    (uuid 62bee8e5-cfc7-48d7-aec3-83392a44e971)
  )
  (wire (pts (xy 107.95 30.48) (xy 107.95 33.02))
    (stroke (width 0) (type default) (color 0 0 0 0))
    (uuid 63caf46e-0228-40de-b819-c6bd29dd1711)
  )
  (wire (pts (xy 78.74 60.96) (xy 78.74 85.09))
    (stroke (width 0) (type default) (color 0 0 0 0))
    (uuid 63e289d2-80a9-4757-845e-3fb051a1cb65)
  )
  (wire (pts (xy 92.71 113.03) (xy 87.63 113.03))
    (stroke (width 0) (type default) (color 0 0 0 0))
    (uuid 63fd282f-475e-4cf0-bbbe-e290b0bf8c58)
  )
  (wire (pts (xy 105.41 121.92) (xy 105.41 134.62))
    (stroke (width 0) (type default) (color 0 0 0 0))
    (uuid 66ca01b3-51ff-4294-9b77-4492e98f6aec)
  )
  (wire (pts (xy 198.12 87.63) (xy 205.74 87.63))
    (stroke (width 0) (type default) (color 0 0 0 0))
    (uuid 692d87e9-6b70-46cc-9c78-b75193a484cc)
  )
  (wire (pts (xy 71.12 100.33) (xy 92.71 100.33))
    (stroke (width 0) (type default) (color 0 0 0 0))
    (uuid 69e1082c-8471-453c-b3a7-6648df2618e2)
  )
  (wire (pts (xy 125.73 45.72) (xy 125.73 33.02))
    (stroke (width 0) (type default) (color 0 0 0 0))
    (uuid 6a0919c2-460c-4229-b872-14e318e1ba8b)
  )
  (wire (pts (xy 41.91 138.43) (xy 41.91 139.7))
    (stroke (width 0) (type default) (color 0 0 0 0))
    (uuid 706c1cb9-5d96-4282-9efc-6147f0125147)
  )
  (wire (pts (xy 149.86 57.15) (xy 163.83 57.15))
    (stroke (width 0) (type default) (color 0 0 0 0))
    (uuid 725579dd-9ec6-473d-8843-6a11e99f108c)
  )
  (wire (pts (xy 179.07 82.55) (xy 187.96 82.55))
    (stroke (width 0) (type default) (color 0 0 0 0))
    (uuid 73f40fda-e6eb-4f93-9482-56cf47d84a87)
  )
  (wire (pts (xy 80.01 82.55) (xy 92.71 82.55))
    (stroke (width 0) (type default) (color 0 0 0 0))
    (uuid 74a739ab-d3d9-4a53-b854-7f37d9068d28)
  )
  (wire (pts (xy 231.14 82.55) (xy 231.14 87.63))
    (stroke (width 0) (type default) (color 0 0 0 0))
    (uuid 765684c2-53b3-4ef7-bd1b-7a4a73d87b76)
  )
  (wire (pts (xy 54.61 58.42) (xy 80.01 58.42))
    (stroke (width 0) (type default) (color 0 0 0 0))
    (uuid 78a72152-9de9-49fe-9b35-e57a0f51309a)
  )
  (wire (pts (xy 83.82 40.64) (xy 83.82 74.93))
    (stroke (width 0) (type default) (color 0 0 0 0))
    (uuid 80eaff05-b768-40b7-bc63-f658004f94d2)
  )
  (wire (pts (xy 87.63 68.58) (xy 92.71 68.58))
    (stroke (width 0) (type default) (color 0 0 0 0))
    (uuid 83184391-76ed-44f0-8cd0-01f89f157bdb)
  )
  (wire (pts (xy 54.61 60.96) (xy 78.74 60.96))
    (stroke (width 0) (type default) (color 0 0 0 0))
    (uuid 83ff7081-b825-4aa8-af36-188781494bd9)
  )
  (wire (pts (xy 76.2 74.93) (xy 76.2 90.17))
    (stroke (width 0) (type default) (color 0 0 0 0))
    (uuid 85cec967-3831-4b90-8fe8-ae4b0fa7d9c6)
  )
  (wire (pts (xy 123.19 152.4) (xy 123.19 153.67))
    (stroke (width 0) (type default) (color 0 0 0 0))
    (uuid 87ba184f-bff5-4989-8217-6af375cc3dd8)
  )
  (wire (pts (xy 129.54 81.28) (xy 143.51 81.28))
    (stroke (width 0) (type default) (color 0 0 0 0))
    (uuid 88606262-3ac5-44a1-aacc-18b26cf4d396)
  )
  (wire (pts (xy 133.35 113.03) (xy 129.54 113.03))
    (stroke (width 0) (type default) (color 0 0 0 0))
    (uuid 8a427111-6480-4b0c-b097-d8b6a0ee1819)
  )
  (wire (pts (xy 107.95 45.72) (xy 107.95 43.18))
    (stroke (width 0) (type default) (color 0 0 0 0))
    (uuid 8aff0f38-92a8-45ec-b106-b185e93ca3fd)
  )
  (wire (pts (xy 82.55 43.18) (xy 82.55 77.47))
    (stroke (width 0) (type default) (color 0 0 0 0))
    (uuid 8b4a32b2-d023-415d-a4e0-4cb8f823f69c)
  )
  (wire (pts (xy 82.55 77.47) (xy 92.71 77.47))
    (stroke (width 0) (type default) (color 0 0 0 0))
    (uuid 8f3d8788-ba9d-4e57-bddb-748ec78e349a)
  )
  (wire (pts (xy 74.93 92.71) (xy 92.71 92.71))
    (stroke (width 0) (type default) (color 0 0 0 0))
    (uuid 8faccd12-76df-40fa-be48-767f96dd25c8)
  )
  (wire (pts (xy 73.66 125.73) (xy 73.66 127))
    (stroke (width 0) (type default) (color 0 0 0 0))
    (uuid 9112ddd5-10d5-48b8-954f-f1d5adcacbd9)
  )
  (wire (pts (xy 173.99 41.91) (xy 173.99 46.99))
    (stroke (width 0) (type default) (color 0 0 0 0))
    (uuid 9208ea78-8dde-4b3d-91e9-5755ab5efd9a)
  )
  (wire (pts (xy 132.08 152.4) (xy 132.08 153.67))
    (stroke (width 0) (type default) (color 0 0 0 0))
    (uuid 92a23ed4-a5ea-4cea-bc33-0a83191a0d32)
  )
  (wire (pts (xy 41.91 138.43) (xy 57.15 138.43))
    (stroke (width 0) (type default) (color 0 0 0 0))
    (uuid 92f063a3-7cce-4a96-8a3a-cf5767f700c6)
  )
  (wire (pts (xy 187.96 110.49) (xy 187.96 113.03))
    (stroke (width 0) (type default) (color 0 0 0 0))
    (uuid 93ac15d8-5f91-4361-acff-be4992b93b51)
  )
  (wire (pts (xy 154.94 113.03) (xy 162.56 113.03))
    (stroke (width 0) (type default) (color 0 0 0 0))
    (uuid 94c3d0e3-d7fb-421d-bbb4-5c800d76c809)
  )
  (wire (pts (xy 129.54 73.66) (xy 149.86 73.66))
    (stroke (width 0) (type default) (color 0 0 0 0))
    (uuid 94d24676-7ae3-483c-8bd6-88d31adf00b4)
  )
  (wire (pts (xy 72.39 91.44) (xy 72.39 97.79))
    (stroke (width 0) (type default) (color 0 0 0 0))
    (uuid 950c9bc8-eb33-4a6a-a7ab-af9b5e7f309e)
  )
  (wire (pts (xy 154.94 85.09) (xy 162.56 85.09))
    (stroke (width 0) (type default) (color 0 0 0 0))
    (uuid 961b4579-9ee8-407a-89a7-81f36f1ad865)
  )
  (wire (pts (xy 146.05 71.12) (xy 146.05 54.61))
    (stroke (width 0) (type default) (color 0 0 0 0))
    (uuid 9640e044-e4b2-4c33-9e1c-1d9894a69337)
  )
  (wire (pts (xy 87.63 34.29) (xy 87.63 68.58))
    (stroke (width 0) (type default) (color 0 0 0 0))
    (uuid 966ee9ec-860e-45bb-af89-30bda72b2032)
  )
  (wire (pts (xy 179.07 110.49) (xy 187.96 110.49))
    (stroke (width 0) (type default) (color 0 0 0 0))
    (uuid 96781640-c07e-4eea-a372-067ded96b703)
  )
  (wire (pts (xy 154.94 107.95) (xy 162.56 107.95))
    (stroke (width 0) (type default) (color 0 0 0 0))
    (uuid 9a595c4c-9ac1-4ae3-8ff3-1b7f2281a894)
  )
  (wire (pts (xy 57.15 110.49) (xy 57.15 138.43))
    (stroke (width 0) (type default) (color 0 0 0 0))
    (uuid 9ed09117-33cf-45a3-85a7-2606522feaf8)
  )
  (wire (pts (xy 130.81 115.57) (xy 130.81 121.92))
    (stroke (width 0) (type default) (color 0 0 0 0))
    (uuid 9f969b13-1795-4747-8326-93bdc304ed56)
  )
  (wire (pts (xy 149.86 102.87) (xy 149.86 134.62))
    (stroke (width 0) (type default) (color 0 0 0 0))
    (uuid 9fdca5c2-1fbd-4774-a9c3-8795a40c206d)
  )
  (wire (pts (xy 138.43 129.54) (xy 132.08 129.54))
    (stroke (width 0) (type default) (color 0 0 0 0))
    (uuid a239fd1d-dfbb-49fd-b565-8c3de9dcf42b)
  )
  (wire (pts (xy 154.94 110.49) (xy 162.56 110.49))
    (stroke (width 0) (type default) (color 0 0 0 0))
    (uuid a26bdee6-0e16-4ea6-87f7-fb32c714896e)
  )
  (wire (pts (xy 54.61 93.98) (xy 71.12 93.98))
    (stroke (width 0) (type default) (color 0 0 0 0))
    (uuid a3636549-e1f4-434a-843e-6e0ed2a257f8)
  )
  (wire (pts (xy 198.12 92.71) (xy 205.74 92.71))
    (stroke (width 0) (type default) (color 0 0 0 0))
    (uuid a6706c54-6a82-42d1-a6c9-48341690e19d)
  )
  (wire (pts (xy 123.19 127) (xy 123.19 134.62))
    (stroke (width 0) (type default) (color 0 0 0 0))
    (uuid a686ed7c-c2d1-4d29-9d54-727faf9fd6bf)
  )
  (wire (pts (xy 198.12 82.55) (xy 205.74 82.55))
    (stroke (width 0) (type default) (color 0 0 0 0))
    (uuid aa0466c6-766f-4bb4-abf1-502a6a06f91d)
  )
  (wire (pts (xy 73.66 137.16) (xy 73.66 138.43))
    (stroke (width 0) (type default) (color 0 0 0 0))
    (uuid aadc3df5-0e2d-4f3d-b72e-6f184da74c89)
  )
  (wire (pts (xy 87.63 27.94) (xy 87.63 34.29))
    (stroke (width 0) (type default) (color 0 0 0 0))
    (uuid aae6bc05-6036-4fc6-8be7-c70daf5c8932)
  )
  (wire (pts (xy 129.54 87.63) (xy 133.35 87.63))
    (stroke (width 0) (type default) (color 0 0 0 0))
    (uuid acb0068c-c0e7-44cf-a209-296716acb6a2)
  )
  (wire (pts (xy 73.66 138.43) (xy 73.66 139.7))
    (stroke (width 0) (type default) (color 0 0 0 0))
    (uuid ad4d05f5-6957-42f8-b65c-c657b9a26485)
  )
  (wire (pts (xy 198.12 118.11) (xy 205.74 118.11))
    (stroke (width 0) (type default) (color 0 0 0 0))
    (uuid adcbf4d0-ed9c-4c7d-b78f-3bcbe974bdcb)
  )
  (wire (pts (xy 80.01 58.42) (xy 80.01 82.55))
    (stroke (width 0) (type default) (color 0 0 0 0))
    (uuid b00dcb2b-2d4b-48e3-a844-ce88e535c84c)
  )
  (wire (pts (xy 114.3 152.4) (xy 114.3 153.67))
    (stroke (width 0) (type default) (color 0 0 0 0))
    (uuid b456cffc-d9d7-4c91-91f2-36ec9a65dd1b)
  )
  (wire (pts (xy 76.2 90.17) (xy 92.71 90.17))
    (stroke (width 0) (type default) (color 0 0 0 0))
    (uuid b6161f2e-7268-43c0-aa50-1c2575ae586f)
  )
  (wire (pts (xy 114.3 142.24) (xy 114.3 144.78))
    (stroke (width 0) (type default) (color 0 0 0 0))
    (uuid b66b83a0-313f-4b03-b851-c6e9577a6eb7)
  )
  (wire (pts (xy 222.25 82.55) (xy 231.14 82.55))
    (stroke (width 0) (type default) (color 0 0 0 0))
    (uuid b7ac5cea-ed28-4028-87d0-45e58c709cf1)
  )
  (wire (pts (xy 130.81 121.92) (xy 105.41 121.92))
    (stroke (width 0) (type default) (color 0 0 0 0))
    (uuid b9d4de74-d246-495d-8b63-12ab2133d6d6)
  )
  (wire (pts (xy 71.12 93.98) (xy 71.12 100.33))
    (stroke (width 0) (type default) (color 0 0 0 0))
    (uuid bb8c655f-61d1-489d-9adf-cc794f2d68a4)
  )
  (wire (pts (xy 184.15 52.07) (xy 199.39 52.07))
    (stroke (width 0) (type default) (color 0 0 0 0))
    (uuid be5bbcc0-5b09-43de-a42f-297f80f602a5)
  )
  (wire (pts (xy 140.97 142.24) (xy 140.97 144.78))
    (stroke (width 0) (type default) (color 0 0 0 0))
    (uuid c15b2f75-2e10-4b71-bebb-e2b872171b92)
  )
  (wire (pts (xy 73.66 147.32) (xy 73.66 148.59))
    (stroke (width 0) (type default) (color 0 0 0 0))
    (uuid c1b11207-7c0a-49b3-a41d-2fe677d5f3b8)
  )
  (wire (pts (xy 41.91 125.73) (xy 41.91 127))
    (stroke (width 0) (type default) (color 0 0 0 0))
    (uuid c3d5daf8-d359-42b2-a7c2-0d080ba7e212)
  )
  (wire (pts (xy 198.12 113.03) (xy 205.74 113.03))
    (stroke (width 0) (type default) (color 0 0 0 0))
    (uuid c6bba6d7-3631-448e-9df8-b5a9e3238ade)
  )
  (wire (pts (xy 231.14 107.95) (xy 231.14 110.49))
    (stroke (width 0) (type default) (color 0 0 0 0))
    (uuid c811ed5f-f509-4605-b7d3-da6f79935a1e)
  )
  (wire (pts (xy 78.74 85.09) (xy 92.71 85.09))
    (stroke (width 0) (type default) (color 0 0 0 0))
    (uuid cbe64983-0148-419d-8b8d-d34a7434dcbb)
  )
  (wire (pts (xy 129.54 78.74) (xy 143.51 78.74))
    (stroke (width 0) (type default) (color 0 0 0 0))
    (uuid cd1cff81-9d8a-4511-96d6-4ddb79484001)
  )
  (wire (pts (xy 54.61 74.93) (xy 76.2 74.93))
    (stroke (width 0) (type default) (color 0 0 0 0))
    (uuid cd433ccd-dd69-48f8-9ed7-292dbeb1eed1)
  )
  (wire (pts (xy 231.14 105.41) (xy 231.14 107.95))
    (stroke (width 0) (type default) (color 0 0 0 0))
    (uuid d1441985-7b63-4bf8-a06d-c70da2e3b78b)
  )
  (wire (pts (xy 125.73 33.02) (xy 124.46 33.02))
    (stroke (width 0) (type default) (color 0 0 0 0))
    (uuid d1c19c11-0a13-4237-b6b4-fb2ef1db7c6d)
  )
  (wire (pts (xy 85.09 38.1) (xy 85.09 72.39))
    (stroke (width 0) (type default) (color 0 0 0 0))
    (uuid d29a43aa-268d-4cd8-b2e4-8ecbc56d77b4)
  )
  (wire (pts (xy 132.08 129.54) (xy 132.08 134.62))
    (stroke (width 0) (type default) (color 0 0 0 0))
    (uuid d32956af-146b-4a09-a053-d9d64b8dd86d)
  )
  (wire (pts (xy 154.94 115.57) (xy 162.56 115.57))
    (stroke (width 0) (type default) (color 0 0 0 0))
    (uuid d6040293-95f0-436a-938c-ad69875a4be8)
  )
  (wire (pts (xy 129.54 115.57) (xy 130.81 115.57))
    (stroke (width 0) (type default) (color 0 0 0 0))
    (uuid d655bb0a-cbf9-4908-ad60-7024ff468fbd)
  )
  (wire (pts (xy 154.94 92.71) (xy 162.56 92.71))
    (stroke (width 0) (type default) (color 0 0 0 0))
    (uuid d70d1cd3-1668-4688-8eb7-f773efb7bb87)
  )
  (wire (pts (xy 107.95 34.29) (xy 107.95 35.56))
    (stroke (width 0) (type default) (color 0 0 0 0))
    (uuid d8200a86-aa75-47a3-ad2a-7f4c9c999a6f)
  )
  (wire (pts (xy 73.66 38.1) (xy 85.09 38.1))
    (stroke (width 0) (type default) (color 0 0 0 0))
    (uuid dc1c5fc3-54c6-45fa-a0b1-0999ddd5e04c)
  )
  (wire (pts (xy 92.71 110.49) (xy 57.15 110.49))
    (stroke (width 0) (type default) (color 0 0 0 0))
    (uuid e03bc6be-342f-4fa9-b82f-bf7575af503e)
  )
  (wire (pts (xy 184.15 57.15) (xy 213.36 57.15))
    (stroke (width 0) (type default) (color 0 0 0 0))
    (uuid e0b0947e-ec91-4d8a-8663-5a112b0a8541)
  )
  (wire (pts (xy 198.12 110.49) (xy 205.74 110.49))
    (stroke (width 0) (type default) (color 0 0 0 0))
    (uuid e4184668-3bdd-4cb2-a053-4f3d5e57b541)
  )
  (wire (pts (xy 228.6 78.74) (xy 228.6 85.09))
    (stroke (width 0) (type default) (color 0 0 0 0))
    (uuid e4504518-96e7-4c9e-8457-7273f5a490f1)
  )
  (wire (pts (xy 77.47 87.63) (xy 92.71 87.63))
    (stroke (width 0) (type default) (color 0 0 0 0))
    (uuid e774bfc6-531e-4ac4-af1d-607e069c6591)
  )
  (wire (pts (xy 154.94 118.11) (xy 162.56 118.11))
    (stroke (width 0) (type default) (color 0 0 0 0))
    (uuid ea28e946-b74f-4ba8-ac7b-b1884c5e7296)
  )
  (wire (pts (xy 198.12 107.95) (xy 205.74 107.95))
    (stroke (width 0) (type default) (color 0 0 0 0))
    (uuid ea745685-58a4-4364-a674-15381eadb187)
  )
  (wire (pts (xy 187.96 107.95) (xy 179.07 107.95))
    (stroke (width 0) (type default) (color 0 0 0 0))
    (uuid ea77ba09-319a-49bd-ad5b-49f4c76f232c)
  )
  (wire (pts (xy 77.47 72.39) (xy 77.47 87.63))
    (stroke (width 0) (type default) (color 0 0 0 0))
    (uuid eaa73009-8f6b-4bba-9417-524c60121df6)
  )
  (wire (pts (xy 154.94 87.63) (xy 162.56 87.63))
    (stroke (width 0) (type default) (color 0 0 0 0))
    (uuid eb6a726e-fed9-4891-95fa-b4d4a5f77b35)
  )
  (wire (pts (xy 129.54 68.58) (xy 137.16 68.58))
    (stroke (width 0) (type default) (color 0 0 0 0))
    (uuid f220d6a7-3170-4e04-8de6-2df0c3962fe0)
  )
  (wire (pts (xy 149.86 152.4) (xy 149.86 153.67))
    (stroke (width 0) (type default) (color 0 0 0 0))
    (uuid f503ea07-bcf1-4924-930a-6f7e9cd312f8)
  )
  (wire (pts (xy 140.97 152.4) (xy 140.97 153.67))
    (stroke (width 0) (type default) (color 0 0 0 0))
    (uuid f6a3288e-9575-42bb-af05-a920d59aded8)
  )
  (wire (pts (xy 114.3 134.62) (xy 114.3 124.46))
    (stroke (width 0) (type default) (color 0 0 0 0))
    (uuid fb0bf2a0-d317-42f7-b022-b5e05481f6be)
  )
  (wire (pts (xy 81.28 80.01) (xy 92.71 80.01))
    (stroke (width 0) (type default) (color 0 0 0 0))
    (uuid fc3fd5de-c9da-4196-99e9-5704e9cdb305)
  )
  (wire (pts (xy 184.15 54.61) (xy 203.2 54.61))
    (stroke (width 0) (type default) (color 0 0 0 0))
    (uuid fcfb3f77-487d-44de-bd4e-948fbeca3220)
  )
  (wire (pts (xy 146.05 54.61) (xy 163.83 54.61))
    (stroke (width 0) (type default) (color 0 0 0 0))
    (uuid fd29cce5-2d5d-4676-956a-df49a3c13d23)
  )

  (text "Switch String" (at 72.39 133.35 180)
    (effects (font (size 1.27 1.27)) (justify right bottom))
    (uuid 4a53fa56-d65b-42a4-a4be-8f49c4c015bb)
  )
  (text "Switch Preset" (at 39.37 133.35 180)
    (effects (font (size 1.27 1.27)) (justify right bottom))
    (uuid eb391a95-1c1d-4613-b508-c76b8bc13a73)
  )

  (label "SCK" (at 198.12 113.03 0)
    (effects (font (size 1.27 1.27)) (justify left bottom))
    (uuid 07652224-af43-42a2-841c-1883ba305bc4)
  )
  (label "CS_IND" (at 142.24 96.52 180)
    (effects (font (size 1.27 1.27)) (justify right bottom))
    (uuid 275b6416-db29-42cc-9307-bf426917c3b4)
  )
  (label "CS_IND" (at 198.12 90.17 0)
    (effects (font (size 1.27 1.27)) (justify left bottom))
    (uuid 348dc703-3cab-4547-b664-e8b335a6083c)
  )
  (label "RESET" (at 198.12 118.11 0)
    (effects (font (size 1.27 1.27)) (justify left bottom))
    (uuid 39845449-7a31-4262-86b1-e7af14a6659f)
  )
  (label "UC_SDI" (at 154.94 110.49 0)
    (effects (font (size 1.27 1.27)) (justify left bottom))
    (uuid 3c121a93-b189-409b-a104-2bdd37ff0b51)
  )
  (label "CS_IND" (at 154.94 115.57 0)
    (effects (font (size 1.27 1.27)) (justify left bottom))
    (uuid 3d416885-b8b5-4f5c-bc29-39c6376095e8)
  )
  (label "UC_SDI" (at 142.24 76.2 180)
    (effects (font (size 1.27 1.27)) (justify right bottom))
    (uuid 4086cbd7-6ba7-4e63-8da9-17e60627ee17)
  )
  (label "UC_SDO" (at 154.94 82.55 0)
    (effects (font (size 1.27 1.27)) (justify left bottom))
    (uuid 49d97c73-e37a-4154-9d0a-88037e40cc11)
  )
  (label "SCK" (at 154.94 87.63 0)
    (effects (font (size 1.27 1.27)) (justify left bottom))
    (uuid 54093c93-5e7e-4c8d-8d94-40c077747c12)
  )
  (label "UC_SDO" (at 198.12 107.95 0)
    (effects (font (size 1.27 1.27)) (justify left bottom))
    (uuid 63286bbb-78a3-4368-a50a-f6bf5f1653b0)
  )
  (label "RESET" (at 154.94 118.11 0)
    (effects (font (size 1.27 1.27)) (justify left bottom))
    (uuid 6b8ac91e-9d2b-49db-8a80-1da009ad1c5e)
  )
  (label "SCK" (at 198.12 87.63 0)
    (effects (font (size 1.27 1.27)) (justify left bottom))
    (uuid 6f5a9f10-1b2c-4916-b4e5-cb5bd0f851a0)
  )
  (label "RESET" (at 198.12 92.71 0)
    (effects (font (size 1.27 1.27)) (justify left bottom))
    (uuid 7d2eba81-aa80-4257-a5a7-9a6179da897e)
  )
  (label "UC_SDO" (at 199.39 54.61 180)
    (effects (font (size 1.27 1.27)) (justify right bottom))
    (uuid 883105b0-f6a6-466b-ba58-a2fcc1f18e4b)
  )
  (label "SCK" (at 142.24 81.28 180)
    (effects (font (size 1.27 1.27)) (justify right bottom))
    (uuid 91fc5800-6029-46b1-848d-ca0091f97267)
  )
  (label "UC_SDI" (at 154.94 85.09 0)
    (effects (font (size 1.27 1.27)) (justify left bottom))
    (uuid 9505be36-b21c-4db8-9484-dd0861395d26)
  )
  (label "UC_SDO" (at 154.94 107.95 0)
    (effects (font (size 1.27 1.27)) (justify left bottom))
    (uuid 9b07d532-5f76-4469-8dbf-25ac27eef589)
  )
  (label "UC_SDI" (at 198.12 110.49 0)
    (effects (font (size 1.27 1.27)) (justify left bottom))
    (uuid b8e1a8b8-63f0-4e53-a6cb-c8edf9a649c4)
  )
  (label "UC_SDO" (at 142.24 78.74 180)
    (effects (font (size 1.27 1.27)) (justify right bottom))
    (uuid bb8162f0-99c8-4884-be5b-c0d0c7e81ff6)
  )
  (label "UC_SDI" (at 198.12 85.09 0)
    (effects (font (size 1.27 1.27)) (justify left bottom))
    (uuid bde3f73b-f869-498d-a8d7-18346cb7179e)
  )
  (label "SCK" (at 154.94 113.03 0)
    (effects (font (size 1.27 1.27)) (justify left bottom))
    (uuid c7f7bd58-1ebd-40fd-a39d-a95530a751b6)
  )
  (label "CS_IND" (at 154.94 90.17 0)
    (effects (font (size 1.27 1.27)) (justify left bottom))
    (uuid cfdef906-c924-4492-999d-4de066c0bce1)
  )
  (label "RESET" (at 90.17 34.29 0)
    (effects (font (size 1.27 1.27)) (justify left bottom))
    (uuid d1cd5391-31d2-459f-8adb-4ae3f304a833)
  )
  (label "UC_SDO" (at 198.12 82.55 0)
    (effects (font (size 1.27 1.27)) (justify left bottom))
    (uuid d2db53d0-2821-4ebe-bf21-b864eac8ca44)
  )
  (label "CS_IND" (at 198.12 115.57 0)
    (effects (font (size 1.27 1.27)) (justify left bottom))
    (uuid dd6c35f3-ae45-4706-ad6f-8028797ca8e0)
  )
  (label "SCK" (at 199.39 52.07 180)
    (effects (font (size 1.27 1.27)) (justify right bottom))
    (uuid e45aa7d8-0254-4176-afd9-766820762e19)
  )
  (label "UC_SDI" (at 199.39 57.15 180)
    (effects (font (size 1.27 1.27)) (justify right bottom))
    (uuid f8621ac5-1e7e-4e87-8c69-5fd403df9470)
  )
  (label "RESET" (at 154.94 92.71 0)
    (effects (font (size 1.27 1.27)) (justify left bottom))
    (uuid fb9a832c-737d-49fb-bbb4-29a0ba3e8178)
  )

  (hierarchical_label "CLKOUT" (shape output) (at 133.35 87.63 0)
    (effects (font (size 1.27 1.27)) (justify left))
    (uuid 6ea0f2f7-b064-4b8f-bd17-48195d1c83d1)
  )
  (hierarchical_label "CS_DSP" (shape output) (at 133.35 85.09 0)
    (effects (font (size 1.27 1.27)) (justify left))
    (uuid 80f8c1b4-10dd-40fe-b7f7-67988bc3ad81)
  )
  (hierarchical_label "SDI" (shape input) (at 143.51 76.2 0)
    (effects (font (size 1.27 1.27)) (justify left))
    (uuid 8eb98c56-17e4-4de6-a3e3-06dcfa392040)
  )
  (hierarchical_label "SDO" (shape output) (at 143.51 78.74 0)
    (effects (font (size 1.27 1.27)) (justify left))
    (uuid bd085057-7c0e-463a-982b-968a2dc1f0f8)
  )
  (hierarchical_label "SCK" (shape output) (at 143.51 81.28 0)
    (effects (font (size 1.27 1.27)) (justify left))
    (uuid c66a19ed-90c0-4502-ae75-6a4c4ab9f297)
  )

  (symbol (lib_id "Device:R") (at 140.97 148.59 0) (unit 1)
    (in_bom yes) (on_board yes)
    (uuid 00000000-0000-0000-0000-000062111de9)
    (property "Reference" "R9" (id 0) (at 142.748 147.4216 0)
      (effects (font (size 1.27 1.27)) (justify left))
    )
    (property "Value" "270" (id 1) (at 142.748 149.733 0)
      (effects (font (size 1.27 1.27)) (justify left))
    )
    (property "Footprint" "Resistor_SMD:R_0603_1608Metric_Pad0.98x0.95mm_HandSolder" (id 2) (at 139.192 148.59 90)
      (effects (font (size 1.27 1.27)) hide)
    )
    (property "Datasheet" "~" (id 3) (at 140.97 148.59 0)
      (effects (font (size 1.27 1.27)) hide)
    )
    (pin "1" (uuid ff5be13c-7908-4c7a-9a4d-90966716f39a))
    (pin "2" (uuid 8a7d54d0-be72-4a09-9e4b-de87ff506c9d))
  )

  (symbol (lib_id "Device:R") (at 132.08 148.59 0) (unit 1)
    (in_bom yes) (on_board yes)
    (uuid 00000000-0000-0000-0000-00006211215d)
    (property "Reference" "R8" (id 0) (at 133.858 147.4216 0)
      (effects (font (size 1.27 1.27)) (justify left))
    )
    (property "Value" "270" (id 1) (at 133.858 149.733 0)
      (effects (font (size 1.27 1.27)) (justify left))
    )
    (property "Footprint" "Resistor_SMD:R_0603_1608Metric_Pad0.98x0.95mm_HandSolder" (id 2) (at 130.302 148.59 90)
      (effects (font (size 1.27 1.27)) hide)
    )
    (property "Datasheet" "~" (id 3) (at 132.08 148.59 0)
      (effects (font (size 1.27 1.27)) hide)
    )
    (pin "1" (uuid 9f5ec040-18fd-40c1-9dbf-e570887293e1))
    (pin "2" (uuid 34305e7c-7869-4258-a35f-c0428d039ccc))
  )

  (symbol (lib_id "Device:R") (at 123.19 148.59 0) (unit 1)
    (in_bom yes) (on_board yes)
    (uuid 00000000-0000-0000-0000-000062112436)
    (property "Reference" "R7" (id 0) (at 124.968 147.4216 0)
      (effects (font (size 1.27 1.27)) (justify left))
    )
    (property "Value" "270" (id 1) (at 124.968 149.733 0)
      (effects (font (size 1.27 1.27)) (justify left))
    )
    (property "Footprint" "Resistor_SMD:R_0603_1608Metric_Pad0.98x0.95mm_HandSolder" (id 2) (at 121.412 148.59 90)
      (effects (font (size 1.27 1.27)) hide)
    )
    (property "Datasheet" "~" (id 3) (at 123.19 148.59 0)
      (effects (font (size 1.27 1.27)) hide)
    )
    (pin "1" (uuid 40944361-6ff4-4ffa-8e13-fc59fc424577))
    (pin "2" (uuid 77f9e330-7cd0-47b3-930e-5e1fb9beca44))
  )

  (symbol (lib_id "Device:R") (at 114.3 148.59 0) (unit 1)
    (in_bom yes) (on_board yes)
    (uuid 00000000-0000-0000-0000-000062112749)
    (property "Reference" "R6" (id 0) (at 116.078 147.4216 0)
      (effects (font (size 1.27 1.27)) (justify left))
    )
    (property "Value" "270" (id 1) (at 116.078 149.733 0)
      (effects (font (size 1.27 1.27)) (justify left))
    )
    (property "Footprint" "Resistor_SMD:R_0603_1608Metric_Pad0.98x0.95mm_HandSolder" (id 2) (at 112.522 148.59 90)
      (effects (font (size 1.27 1.27)) hide)
    )
    (property "Datasheet" "~" (id 3) (at 114.3 148.59 0)
      (effects (font (size 1.27 1.27)) hide)
    )
    (pin "1" (uuid 272702bc-2a72-4c1c-aec3-546d4e02b42c))
    (pin "2" (uuid ca061366-1724-4ea1-82d5-a4f4567fd4b5))
  )

  (symbol (lib_id "Device:R") (at 105.41 148.59 0) (unit 1)
    (in_bom yes) (on_board yes)
    (uuid 00000000-0000-0000-0000-0000621150c3)
    (property "Reference" "R4" (id 0) (at 107.188 147.4216 0)
      (effects (font (size 1.27 1.27)) (justify left))
    )
    (property "Value" "270" (id 1) (at 107.188 149.733 0)
      (effects (font (size 1.27 1.27)) (justify left))
    )
    (property "Footprint" "Resistor_SMD:R_0603_1608Metric_Pad0.98x0.95mm_HandSolder" (id 2) (at 103.632 148.59 90)
      (effects (font (size 1.27 1.27)) hide)
    )
    (property "Datasheet" "~" (id 3) (at 105.41 148.59 0)
      (effects (font (size 1.27 1.27)) hide)
    )
    (pin "1" (uuid 531e81b0-53e6-4474-9d42-5f16e326792d))
    (pin "2" (uuid 457f65f3-c3b6-44fb-a69a-4aef1750e748))
  )

  (symbol (lib_id "Connector:TestPoint") (at 73.66 35.56 0) (unit 1)
    (in_bom yes) (on_board yes)
    (uuid 00000000-0000-0000-0000-0000621b6a1d)
    (property "Reference" "TP2" (id 0) (at 75.1332 32.5628 0)
      (effects (font (size 1.27 1.27)) (justify left))
    )
    (property "Value" "F0_A" (id 1) (at 75.1332 34.8742 0)
      (effects (font (size 1.27 1.27)) (justify left))
    )
    (property "Footprint" "TestPoint:TestPoint_Pad_2.5x2.5mm" (id 2) (at 78.74 35.56 0)
      (effects (font (size 1.27 1.27)) hide)
    )
    (property "Datasheet" "~" (id 3) (at 78.74 35.56 0)
      (effects (font (size 1.27 1.27)) hide)
    )
    (pin "1" (uuid 3650ec6b-8adc-4796-8ca6-22c8810991a9))
  )

  (symbol (lib_id "Connector:TestPoint") (at 62.23 35.56 0) (unit 1)
    (in_bom yes) (on_board yes)
    (uuid 00000000-0000-0000-0000-0000621b6e8c)
    (property "Reference" "TP1" (id 0) (at 63.7032 32.5628 0)
      (effects (font (size 1.27 1.27)) (justify left))
    )
    (property "Value" "F0_B" (id 1) (at 63.7032 34.8742 0)
      (effects (font (size 1.27 1.27)) (justify left))
    )
    (property "Footprint" "TestPoint:TestPoint_Pad_2.5x2.5mm" (id 2) (at 67.31 35.56 0)
      (effects (font (size 1.27 1.27)) hide)
    )
    (property "Datasheet" "~" (id 3) (at 67.31 35.56 0)
      (effects (font (size 1.27 1.27)) hide)
    )
    (pin "1" (uuid e94a0e78-84d7-4f4c-a64e-10bea3f80b6b))
  )

  (symbol (lib_id "Connector:TestPoint") (at 87.63 27.94 0) (unit 1)
    (in_bom yes) (on_board yes)
    (uuid 00000000-0000-0000-0000-0000621c3c88)
    (property "Reference" "TP3" (id 0) (at 89.1032 24.9428 0)
      (effects (font (size 1.27 1.27)) (justify left))
    )
    (property "Value" "RESET" (id 1) (at 89.1032 27.2542 0)
      (effects (font (size 1.27 1.27)) (justify left))
    )
    (property "Footprint" "TestPoint:TestPoint_Pad_2.5x2.5mm" (id 2) (at 92.71 27.94 0)
      (effects (font (size 1.27 1.27)) hide)
    )
    (property "Datasheet" "~" (id 3) (at 92.71 27.94 0)
      (effects (font (size 1.27 1.27)) hide)
    )
    (pin "1" (uuid cec42cd6-9179-4d89-9340-73b8b8847a81))
  )

  (symbol (lib_id "Device:C") (at 107.95 39.37 0) (mirror y) (unit 1)
    (in_bom yes) (on_board yes)
    (uuid 00000000-0000-0000-0000-0000622536f4)
    (property "Reference" "C7" (id 0) (at 105.029 38.2016 0)
      (effects (font (size 1.27 1.27)) (justify left))
    )
    (property "Value" "0.1u" (id 1) (at 105.029 40.513 0)
      (effects (font (size 1.27 1.27)) (justify left))
    )
    (property "Footprint" "Capacitor_SMD:C_0603_1608Metric_Pad1.08x0.95mm_HandSolder" (id 2) (at 106.9848 43.18 0)
      (effects (font (size 1.27 1.27)) hide)
    )
    (property "Datasheet" "~" (id 3) (at 107.95 39.37 0)
      (effects (font (size 1.27 1.27)) hide)
    )
    (pin "1" (uuid d638256d-93db-47f8-aff4-98f855a2f691))
    (pin "2" (uuid 8b7eca44-bfff-4902-94b7-de254b6062c4))
  )

  (symbol (lib_id "Device:R") (at 107.95 26.67 0) (mirror y) (unit 1)
    (in_bom yes) (on_board yes)
    (uuid 00000000-0000-0000-0000-0000622536fa)
    (property "Reference" "R5" (id 0) (at 106.172 25.5016 0)
      (effects (font (size 1.27 1.27)) (justify left))
    )
    (property "Value" "10k" (id 1) (at 106.172 27.813 0)
      (effects (font (size 1.27 1.27)) (justify left))
    )
    (property "Footprint" "Resistor_SMD:R_0603_1608Metric_Pad0.98x0.95mm_HandSolder" (id 2) (at 109.728 26.67 90)
      (effects (font (size 1.27 1.27)) hide)
    )
    (property "Datasheet" "~" (id 3) (at 107.95 26.67 0)
      (effects (font (size 1.27 1.27)) hide)
    )
    (pin "1" (uuid 27728351-fcb9-4941-8fad-3cc5bddf0003))
    (pin "2" (uuid d72d203c-c45e-4bbd-b8db-ba84652b32da))
  )

  (symbol (lib_id "power:+3V3") (at 107.95 19.05 0) (mirror y) (unit 1)
    (in_bom yes) (on_board yes)
    (uuid 00000000-0000-0000-0000-000062253700)
    (property "Reference" "#PWR0113" (id 0) (at 107.95 22.86 0)
      (effects (font (size 1.27 1.27)) hide)
    )
    (property "Value" "+3V3" (id 1) (at 107.569 14.6558 0))
    (property "Footprint" "" (id 2) (at 107.95 19.05 0)
      (effects (font (size 1.27 1.27)) hide)
    )
    (property "Datasheet" "" (id 3) (at 107.95 19.05 0)
      (effects (font (size 1.27 1.27)) hide)
    )
    (pin "1" (uuid 73d0a288-ce27-4cb1-979d-734fc2d4f13d))
  )

  (symbol (lib_id "power:GND") (at 107.95 45.72 0) (mirror y) (unit 1)
    (in_bom yes) (on_board yes)
    (uuid 00000000-0000-0000-0000-000062253707)
    (property "Reference" "#PWR0114" (id 0) (at 107.95 52.07 0)
      (effects (font (size 1.27 1.27)) hide)
    )
    (property "Value" "GND" (id 1) (at 107.823 50.1142 0))
    (property "Footprint" "" (id 2) (at 107.95 45.72 0)
      (effects (font (size 1.27 1.27)) hide)
    )
    (property "Datasheet" "" (id 3) (at 107.95 45.72 0)
      (effects (font (size 1.27 1.27)) hide)
    )
    (pin "1" (uuid e530e83f-3ce9-404d-a7e4-d7664b5c2f3d))
  )

  (symbol (lib_id "Switch:SW_Push") (at 119.38 33.02 0) (mirror y) (unit 1)
    (in_bom yes) (on_board yes)
    (uuid 00000000-0000-0000-0000-00006225370f)
    (property "Reference" "SW3" (id 0) (at 119.38 25.781 0))
    (property "Value" "SW_Push" (id 1) (at 119.38 28.0924 0))
    (property "Footprint" "Switches:TACTILE_SWITCH_SMD_4.5MM" (id 2) (at 119.38 27.94 0)
      (effects (font (size 1.27 1.27)) hide)
    )
    (property "Datasheet" "~" (id 3) (at 119.38 27.94 0)
      (effects (font (size 1.27 1.27)) hide)
    )
    (pin "1" (uuid 826b21fb-b7bf-46e0-9494-38b99bae6e67))
    (pin "2" (uuid b5a85153-d2e9-45da-93a1-0855723fa970))
  )

  (symbol (lib_id "power:GND") (at 125.73 45.72 0) (mirror y) (unit 1)
    (in_bom yes) (on_board yes)
    (uuid 00000000-0000-0000-0000-000062253715)
    (property "Reference" "#PWR0115" (id 0) (at 125.73 52.07 0)
      (effects (font (size 1.27 1.27)) hide)
    )
    (property "Value" "GND" (id 1) (at 125.603 50.1142 0))
    (property "Footprint" "" (id 2) (at 125.73 45.72 0)
      (effects (font (size 1.27 1.27)) hide)
    )
    (property "Datasheet" "" (id 3) (at 125.73 45.72 0)
      (effects (font (size 1.27 1.27)) hide)
    )
    (pin "1" (uuid ddf587e1-1949-4628-88f2-c4664fbcd67a))
  )

  (symbol (lib_id "power:GND") (at 187.96 87.63 0) (unit 1)
    (in_bom yes) (on_board yes)
    (uuid 00000000-0000-0000-0000-000062269bdc)
    (property "Reference" "#PWR0116" (id 0) (at 187.96 93.98 0)
      (effects (font (size 1.27 1.27)) hide)
    )
    (property "Value" "GND" (id 1) (at 188.087 92.0242 0))
    (property "Footprint" "" (id 2) (at 187.96 87.63 0)
      (effects (font (size 1.27 1.27)) hide)
    )
    (property "Datasheet" "" (id 3) (at 187.96 87.63 0)
      (effects (font (size 1.27 1.27)) hide)
    )
    (pin "1" (uuid 2619b754-2b33-41d5-93b0-9252787c2298))
  )

  (symbol (lib_id "power:GND") (at 187.96 113.03 0) (unit 1)
    (in_bom yes) (on_board yes)
    (uuid 00000000-0000-0000-0000-00006226c831)
    (property "Reference" "#PWR0117" (id 0) (at 187.96 119.38 0)
      (effects (font (size 1.27 1.27)) hide)
    )
    (property "Value" "GND" (id 1) (at 188.087 117.4242 0))
    (property "Footprint" "" (id 2) (at 187.96 113.03 0)
      (effects (font (size 1.27 1.27)) hide)
    )
    (property "Datasheet" "" (id 3) (at 187.96 113.03 0)
      (effects (font (size 1.27 1.27)) hide)
    )
    (pin "1" (uuid b38625bf-f726-4eae-b554-fcff0a7f8573))
  )

  (symbol (lib_id "power:GND") (at 231.14 87.63 0) (unit 1)
    (in_bom yes) (on_board yes)
    (uuid 00000000-0000-0000-0000-00006226d6a5)
    (property "Reference" "#PWR0118" (id 0) (at 231.14 93.98 0)
      (effects (font (size 1.27 1.27)) hide)
    )
    (property "Value" "GND" (id 1) (at 231.267 92.0242 0))
    (property "Footprint" "" (id 2) (at 231.14 87.63 0)
      (effects (font (size 1.27 1.27)) hide)
    )
    (property "Datasheet" "" (id 3) (at 231.14 87.63 0)
      (effects (font (size 1.27 1.27)) hide)
    )
    (pin "1" (uuid 2f0ee649-1bf1-4383-a731-9e15333304b2))
  )

  (symbol (lib_id "power:+3V3") (at 228.6 78.74 0) (unit 1)
    (in_bom yes) (on_board yes)
    (uuid 00000000-0000-0000-0000-00006227168b)
    (property "Reference" "#PWR0119" (id 0) (at 228.6 82.55 0)
      (effects (font (size 1.27 1.27)) hide)
    )
    (property "Value" "+3V3" (id 1) (at 228.981 74.3458 0))
    (property "Footprint" "" (id 2) (at 228.6 78.74 0)
      (effects (font (size 1.27 1.27)) hide)
    )
    (property "Datasheet" "" (id 3) (at 228.6 78.74 0)
      (effects (font (size 1.27 1.27)) hide)
    )
    (pin "1" (uuid b08421a7-5c8e-4028-a1a2-05a7fed7e708))
  )

  (symbol (lib_id "power:+3V3") (at 187.96 106.68 0) (unit 1)
    (in_bom yes) (on_board yes)
    (uuid 00000000-0000-0000-0000-00006227404a)
    (property "Reference" "#PWR0120" (id 0) (at 187.96 110.49 0)
      (effects (font (size 1.27 1.27)) hide)
    )
    (property "Value" "+3V3" (id 1) (at 188.341 102.2858 0))
    (property "Footprint" "" (id 2) (at 187.96 106.68 0)
      (effects (font (size 1.27 1.27)) hide)
    )
    (property "Datasheet" "" (id 3) (at 187.96 106.68 0)
      (effects (font (size 1.27 1.27)) hide)
    )
    (pin "1" (uuid 8770d09e-4634-4b01-adda-c140ff050901))
  )

  (symbol (lib_id "power:+3V3") (at 231.14 105.41 0) (unit 1)
    (in_bom yes) (on_board yes)
    (uuid 00000000-0000-0000-0000-00006227598a)
    (property "Reference" "#PWR0121" (id 0) (at 231.14 109.22 0)
      (effects (font (size 1.27 1.27)) hide)
    )
    (property "Value" "+3V3" (id 1) (at 231.521 101.0158 0))
    (property "Footprint" "" (id 2) (at 231.14 105.41 0)
      (effects (font (size 1.27 1.27)) hide)
    )
    (property "Datasheet" "" (id 3) (at 231.14 105.41 0)
      (effects (font (size 1.27 1.27)) hide)
    )
    (pin "1" (uuid 84db69a0-e996-4cdf-8571-baa33ba741be))
  )

  (symbol (lib_id "Switch:SW_Push") (at 73.66 132.08 270) (unit 1)
    (in_bom yes) (on_board yes)
    (uuid 00000000-0000-0000-0000-0000622ccbd6)
    (property "Reference" "SW2" (id 0) (at 77.4192 130.9116 90)
      (effects (font (size 1.27 1.27)) (justify left))
    )
    (property "Value" "SW_Push" (id 1) (at 77.4192 133.223 90)
      (effects (font (size 1.27 1.27)) (justify left))
    )
    (property "Footprint" "Connector_Molex:Molex_KK-254_AE-6410-02A_1x02_P2.54mm_Vertical" (id 2) (at 78.74 132.08 0)
      (effects (font (size 1.27 1.27)) hide)
    )
    (property "Datasheet" "~" (id 3) (at 78.74 132.08 0)
      (effects (font (size 1.27 1.27)) hide)
    )
    (pin "1" (uuid 544c9608-1bcc-4b55-bc32-30b7ed35643a))
    (pin "2" (uuid 3240f1f5-1b2f-47e0-9d32-c211aa11c0c4))
  )

  (symbol (lib_id "Switch:SW_Push") (at 41.91 132.08 270) (unit 1)
    (in_bom yes) (on_board yes)
    (uuid 00000000-0000-0000-0000-0000622cd61e)
    (property "Reference" "SW1" (id 0) (at 45.6692 130.9116 90)
      (effects (font (size 1.27 1.27)) (justify left))
    )
    (property "Value" "SW_Push" (id 1) (at 45.6692 133.223 90)
      (effects (font (size 1.27 1.27)) (justify left))
    )
    (property "Footprint" "Connector_Molex:Molex_KK-254_AE-6410-02A_1x02_P2.54mm_Vertical" (id 2) (at 46.99 132.08 0)
      (effects (font (size 1.27 1.27)) hide)
    )
    (property "Datasheet" "~" (id 3) (at 46.99 132.08 0)
      (effects (font (size 1.27 1.27)) hide)
    )
    (pin "1" (uuid 50e15cdf-4793-48c4-b031-a6fe50a4e887))
    (pin "2" (uuid 3a8937d5-1b9c-4679-b47e-c10e9ab211b6))
  )

  (symbol (lib_id "Device:R") (at 73.66 143.51 0) (unit 1)
    (in_bom yes) (on_board yes)
    (uuid 00000000-0000-0000-0000-0000622cd9ec)
    (property "Reference" "R3" (id 0) (at 75.438 142.3416 0)
      (effects (font (size 1.27 1.27)) (justify left))
    )
    (property "Value" "10k" (id 1) (at 75.438 144.653 0)
      (effects (font (size 1.27 1.27)) (justify left))
    )
    (property "Footprint" "Resistor_SMD:R_0603_1608Metric_Pad0.98x0.95mm_HandSolder" (id 2) (at 71.882 143.51 90)
      (effects (font (size 1.27 1.27)) hide)
    )
    (property "Datasheet" "~" (id 3) (at 73.66 143.51 0)
      (effects (font (size 1.27 1.27)) hide)
    )
    (pin "1" (uuid 458b7b4d-41f1-4ac2-a41b-520027d84ac0))
    (pin "2" (uuid 78a49f44-9ad9-4c9d-9529-35b1fd4cdff3))
  )

  (symbol (lib_id "Device:R") (at 41.91 143.51 0) (unit 1)
    (in_bom yes) (on_board yes)
    (uuid 00000000-0000-0000-0000-0000622cdd26)
    (property "Reference" "R2" (id 0) (at 43.688 142.3416 0)
      (effects (font (size 1.27 1.27)) (justify left))
    )
    (property "Value" "10k" (id 1) (at 43.688 144.653 0)
      (effects (font (size 1.27 1.27)) (justify left))
    )
    (property "Footprint" "Resistor_SMD:R_0603_1608Metric_Pad0.98x0.95mm_HandSolder" (id 2) (at 40.132 143.51 90)
      (effects (font (size 1.27 1.27)) hide)
    )
    (property "Datasheet" "~" (id 3) (at 41.91 143.51 0)
      (effects (font (size 1.27 1.27)) hide)
    )
    (pin "1" (uuid 9a71502e-e5ac-437d-9b0f-30769aa879b6))
    (pin "2" (uuid f2eace27-4ced-4bf6-a042-f6b801e29935))
  )

  (symbol (lib_id "power:+3V3") (at 41.91 125.73 0) (unit 1)
    (in_bom yes) (on_board yes)
    (uuid 00000000-0000-0000-0000-0000622d14bb)
    (property "Reference" "#PWR0122" (id 0) (at 41.91 129.54 0)
      (effects (font (size 1.27 1.27)) hide)
    )
    (property "Value" "+3V3" (id 1) (at 42.291 121.3358 0))
    (property "Footprint" "" (id 2) (at 41.91 125.73 0)
      (effects (font (size 1.27 1.27)) hide)
    )
    (property "Datasheet" "" (id 3) (at 41.91 125.73 0)
      (effects (font (size 1.27 1.27)) hide)
    )
    (pin "1" (uuid 3bfac8a8-a637-4193-8588-4fb1c6b2fb10))
  )

  (symbol (lib_id "power:+3V3") (at 73.66 125.73 0) (unit 1)
    (in_bom yes) (on_board yes)
    (uuid 00000000-0000-0000-0000-0000622d191e)
    (property "Reference" "#PWR0123" (id 0) (at 73.66 129.54 0)
      (effects (font (size 1.27 1.27)) hide)
    )
    (property "Value" "+3V3" (id 1) (at 74.041 121.3358 0))
    (property "Footprint" "" (id 2) (at 73.66 125.73 0)
      (effects (font (size 1.27 1.27)) hide)
    )
    (property "Datasheet" "" (id 3) (at 73.66 125.73 0)
      (effects (font (size 1.27 1.27)) hide)
    )
    (pin "1" (uuid 31c955cf-7358-40a3-af0f-c1c165dd1eec))
  )

  (symbol (lib_id "power:GND") (at 73.66 148.59 0) (unit 1)
    (in_bom yes) (on_board yes)
    (uuid 00000000-0000-0000-0000-0000622d5866)
    (property "Reference" "#PWR0124" (id 0) (at 73.66 154.94 0)
      (effects (font (size 1.27 1.27)) hide)
    )
    (property "Value" "GND" (id 1) (at 73.787 152.9842 0))
    (property "Footprint" "" (id 2) (at 73.66 148.59 0)
      (effects (font (size 1.27 1.27)) hide)
    )
    (property "Datasheet" "" (id 3) (at 73.66 148.59 0)
      (effects (font (size 1.27 1.27)) hide)
    )
    (pin "1" (uuid 88c73ab5-d148-4248-81ad-2846321c98ee))
  )

  (symbol (lib_id "power:GND") (at 41.91 148.59 0) (unit 1)
    (in_bom yes) (on_board yes)
    (uuid 00000000-0000-0000-0000-0000622d5afe)
    (property "Reference" "#PWR0125" (id 0) (at 41.91 154.94 0)
      (effects (font (size 1.27 1.27)) hide)
    )
    (property "Value" "GND" (id 1) (at 42.037 152.9842 0))
    (property "Footprint" "" (id 2) (at 41.91 148.59 0)
      (effects (font (size 1.27 1.27)) hide)
    )
    (property "Datasheet" "" (id 3) (at 41.91 148.59 0)
      (effects (font (size 1.27 1.27)) hide)
    )
    (pin "1" (uuid 33850d2d-e96a-4bf7-8cd1-79d5849d0d83))
  )

  (symbol (lib_id "CustomParts:BR25Hxxx") (at 173.99 54.61 0) (unit 1)
    (in_bom yes) (on_board yes)
    (uuid 00000000-0000-0000-0000-0000622f0972)
    (property "Reference" "U3" (id 0) (at 167.64 48.26 0))
    (property "Value" "BR25H010FVT" (id 1) (at 181.61 60.96 0))
    (property "Footprint" "Package_SO:TSSOP-8_4.4x3mm_P0.65mm" (id 2) (at 173.99 54.61 0)
      (effects (font (size 1.27 1.27)) hide)
    )
    (property "Datasheet" "http://ww1.microchip.com/downloads/en/DeviceDoc/21832H.pdf" (id 3) (at 173.99 54.61 0)
      (effects (font (size 1.27 1.27)) hide)
    )
    (pin "1" (uuid 5acdd325-bc2c-4e6a-a34a-7d150237f258))
    (pin "2" (uuid b1722189-4f84-4b11-9e91-70a0d12625c3))
    (pin "3" (uuid 0d190bbe-5f0e-421c-8b81-c626c7654fed))
    (pin "4" (uuid 0bab73d0-e049-47cd-8417-9ce9a745be58))
    (pin "5" (uuid b76741ff-0116-4e5d-af5d-cb5ab783436e))
    (pin "6" (uuid 1296407f-0bd3-463b-b775-1743acca746d))
    (pin "7" (uuid 5b1cfd4b-7b06-4f3f-8036-d9ad45660df3))
    (pin "8" (uuid 7702c23e-e1e6-48d9-8ce9-03e16b053ecc))
  )

  (symbol (lib_id "power:GND") (at 173.99 64.77 0) (unit 1)
    (in_bom yes) (on_board yes)
    (uuid 00000000-0000-0000-0000-0000622f0978)
    (property "Reference" "#PWR0126" (id 0) (at 173.99 71.12 0)
      (effects (font (size 1.27 1.27)) hide)
    )
    (property "Value" "GND" (id 1) (at 174.117 69.1642 0))
    (property "Footprint" "" (id 2) (at 173.99 64.77 0)
      (effects (font (size 1.27 1.27)) hide)
    )
    (property "Datasheet" "" (id 3) (at 173.99 64.77 0)
      (effects (font (size 1.27 1.27)) hide)
    )
    (pin "1" (uuid f58ce4f6-5a20-46fa-a402-46bd87e4abe2))
  )

  (symbol (lib_id "power:+3V3") (at 173.99 41.91 0) (unit 1)
    (in_bom yes) (on_board yes)
    (uuid 00000000-0000-0000-0000-0000622f097e)
    (property "Reference" "#PWR0127" (id 0) (at 173.99 45.72 0)
      (effects (font (size 1.27 1.27)) hide)
    )
    (property "Value" "+3V3" (id 1) (at 174.371 37.5158 0))
    (property "Footprint" "" (id 2) (at 173.99 41.91 0)
      (effects (font (size 1.27 1.27)) hide)
    )
    (property "Datasheet" "" (id 3) (at 173.99 41.91 0)
      (effects (font (size 1.27 1.27)) hide)
    )
    (pin "1" (uuid e327744b-49a4-4a1b-8a80-fa3ccceda99c))
  )

  (symbol (lib_id "Device:LED") (at 105.41 138.43 90) (unit 1)
    (in_bom yes) (on_board yes)
    (uuid 00000000-0000-0000-0000-000062323e1f)
    (property "Reference" "D2" (id 0) (at 108.4072 137.4394 90)
      (effects (font (size 1.27 1.27)) (justify right))
    )
    (property "Value" "LED" (id 1) (at 108.4072 139.7508 90)
      (effects (font (size 1.27 1.27)) (justify right))
    )
    (property "Footprint" "LED_SMD:LED_0603_1608Metric_Pad1.05x0.95mm_HandSolder" (id 2) (at 105.41 138.43 0)
      (effects (font (size 1.27 1.27)) hide)
    )
    (property "Datasheet" "~" (id 3) (at 105.41 138.43 0)
      (effects (font (size 1.27 1.27)) hide)
    )
    (pin "1" (uuid c9724f67-b278-44db-9fce-8a6d615810b1))
    (pin "2" (uuid 4c30b50f-b3e5-48d5-a560-fa73ff52694c))
  )

  (symbol (lib_id "Device:LED") (at 114.3 138.43 90) (unit 1)
    (in_bom yes) (on_board yes)
    (uuid 00000000-0000-0000-0000-000062323e2c)
    (property "Reference" "D3" (id 0) (at 117.2972 137.4394 90)
      (effects (font (size 1.27 1.27)) (justify right))
    )
    (property "Value" "LED" (id 1) (at 117.2972 139.7508 90)
      (effects (font (size 1.27 1.27)) (justify right))
    )
    (property "Footprint" "LED_SMD:LED_0603_1608Metric_Pad1.05x0.95mm_HandSolder" (id 2) (at 114.3 138.43 0)
      (effects (font (size 1.27 1.27)) hide)
    )
    (property "Datasheet" "~" (id 3) (at 114.3 138.43 0)
      (effects (font (size 1.27 1.27)) hide)
    )
    (pin "1" (uuid bbb6d8d5-73a3-4602-934e-c65ba9a90e44))
    (pin "2" (uuid 09048aef-d183-4d95-b3e0-351fe2aa911b))
  )

  (symbol (lib_id "Device:LED") (at 123.19 138.43 90) (unit 1)
    (in_bom yes) (on_board yes)
    (uuid 00000000-0000-0000-0000-000062323e39)
    (property "Reference" "D4" (id 0) (at 126.1872 137.4394 90)
      (effects (font (size 1.27 1.27)) (justify right))
    )
    (property "Value" "LED" (id 1) (at 126.1872 139.7508 90)
      (effects (font (size 1.27 1.27)) (justify right))
    )
    (property "Footprint" "LED_SMD:LED_0603_1608Metric_Pad1.05x0.95mm_HandSolder" (id 2) (at 123.19 138.43 0)
      (effects (font (size 1.27 1.27)) hide)
    )
    (property "Datasheet" "~" (id 3) (at 123.19 138.43 0)
      (effects (font (size 1.27 1.27)) hide)
    )
    (pin "1" (uuid b5125c6a-3561-4e65-9720-1003e8e30246))
    (pin "2" (uuid b24429f5-7ece-46f8-829b-839a3ba0035d))
  )

  (symbol (lib_id "Device:LED") (at 140.97 138.43 90) (unit 1)
    (in_bom yes) (on_board yes)
    (uuid 00000000-0000-0000-0000-000062323e4c)
    (property "Reference" "D6" (id 0) (at 143.9672 137.4394 90)
      (effects (font (size 1.27 1.27)) (justify right))
    )
    (property "Value" "LED" (id 1) (at 143.9672 139.7508 90)
      (effects (font (size 1.27 1.27)) (justify right))
    )
    (property "Footprint" "LED_SMD:LED_0603_1608Metric_Pad1.05x0.95mm_HandSolder" (id 2) (at 140.97 138.43 0)
      (effects (font (size 1.27 1.27)) hide)
    )
    (property "Datasheet" "~" (id 3) (at 140.97 138.43 0)
      (effects (font (size 1.27 1.27)) hide)
    )
    (pin "1" (uuid cebd7db8-85f3-4444-b214-01f8f414bac3))
    (pin "2" (uuid 2f3dea0c-eb79-4261-b97d-8a02101fb2c6))
  )

  (symbol (lib_id "Device:LED") (at 149.86 138.43 90) (unit 1)
    (in_bom yes) (on_board yes)
    (uuid 00000000-0000-0000-0000-000062323e59)
    (property "Reference" "D7" (id 0) (at 152.8572 137.4394 90)
      (effects (font (size 1.27 1.27)) (justify right))
    )
    (property "Value" "LED" (id 1) (at 152.8572 139.7508 90)
      (effects (font (size 1.27 1.27)) (justify right))
    )
    (property "Footprint" "LED_SMD:LED_0603_1608Metric_Pad1.05x0.95mm_HandSolder" (id 2) (at 149.86 138.43 0)
      (effects (font (size 1.27 1.27)) hide)
    )
    (property "Datasheet" "~" (id 3) (at 149.86 138.43 0)
      (effects (font (size 1.27 1.27)) hide)
    )
    (pin "1" (uuid e00632be-db0d-4063-9fdc-e97bea54cbab))
    (pin "2" (uuid 7f928837-b312-4dd9-8d39-8b20b49cd37f))
  )

  (symbol (lib_id "Device:R") (at 149.86 148.59 0) (unit 1)
    (in_bom yes) (on_board yes)
    (uuid 00000000-0000-0000-0000-000062323e5f)
    (property "Reference" "R10" (id 0) (at 151.638 147.4216 0)
      (effects (font (size 1.27 1.27)) (justify left))
    )
    (property "Value" "270" (id 1) (at 151.638 149.733 0)
      (effects (font (size 1.27 1.27)) (justify left))
    )
    (property "Footprint" "Resistor_SMD:R_0603_1608Metric_Pad0.98x0.95mm_HandSolder" (id 2) (at 148.082 148.59 90)
      (effects (font (size 1.27 1.27)) hide)
    )
    (property "Datasheet" "~" (id 3) (at 149.86 148.59 0)
      (effects (font (size 1.27 1.27)) hide)
    )
    (pin "1" (uuid b2e5c6fd-dde1-4c14-8581-2b8e7f5784ff))
    (pin "2" (uuid 845228ce-67b4-44a1-a2a8-bfa73cafe090))
  )

  (symbol (lib_id "Device:LED") (at 132.08 138.43 90) (unit 1)
    (in_bom yes) (on_board yes)
    (uuid 00000000-0000-0000-0000-000062323e6b)
    (property "Reference" "D5" (id 0) (at 135.0772 137.4394 90)
      (effects (font (size 1.27 1.27)) (justify right))
    )
    (property "Value" "LED" (id 1) (at 135.0772 139.7508 90)
      (effects (font (size 1.27 1.27)) (justify right))
    )
    (property "Footprint" "LED_SMD:LED_0603_1608Metric_Pad1.05x0.95mm_HandSolder" (id 2) (at 132.08 138.43 0)
      (effects (font (size 1.27 1.27)) hide)
    )
    (property "Datasheet" "~" (id 3) (at 132.08 138.43 0)
      (effects (font (size 1.27 1.27)) hide)
    )
    (pin "1" (uuid b122387c-f151-4a47-8046-9d29b3a6845d))
    (pin "2" (uuid 1f1ecef1-57cc-4344-9210-c00f6cffebc4))
  )

  (symbol (lib_id "power:GND") (at 105.41 153.67 0) (unit 1)
    (in_bom yes) (on_board yes)
    (uuid 00000000-0000-0000-0000-000062366b06)
    (property "Reference" "#PWR0128" (id 0) (at 105.41 160.02 0)
      (effects (font (size 1.27 1.27)) hide)
    )
    (property "Value" "GND" (id 1) (at 105.537 158.0642 0))
    (property "Footprint" "" (id 2) (at 105.41 153.67 0)
      (effects (font (size 1.27 1.27)) hide)
    )
    (property "Datasheet" "" (id 3) (at 105.41 153.67 0)
      (effects (font (size 1.27 1.27)) hide)
    )
    (pin "1" (uuid 02913d7e-917e-4e50-be77-fbbc59f63e4b))
  )

  (symbol (lib_id "power:GND") (at 114.3 153.67 0) (unit 1)
    (in_bom yes) (on_board yes)
    (uuid 00000000-0000-0000-0000-00006236b5e3)
    (property "Reference" "#PWR0129" (id 0) (at 114.3 160.02 0)
      (effects (font (size 1.27 1.27)) hide)
    )
    (property "Value" "GND" (id 1) (at 114.427 158.0642 0))
    (property "Footprint" "" (id 2) (at 114.3 153.67 0)
      (effects (font (size 1.27 1.27)) hide)
    )
    (property "Datasheet" "" (id 3) (at 114.3 153.67 0)
      (effects (font (size 1.27 1.27)) hide)
    )
    (pin "1" (uuid 32c419f1-83b9-4f14-92ea-25de64d8e056))
  )

  (symbol (lib_id "power:GND") (at 123.19 153.67 0) (unit 1)
    (in_bom yes) (on_board yes)
    (uuid 00000000-0000-0000-0000-000062374fdd)
    (property "Reference" "#PWR0130" (id 0) (at 123.19 160.02 0)
      (effects (font (size 1.27 1.27)) hide)
    )
    (property "Value" "GND" (id 1) (at 123.317 158.0642 0))
    (property "Footprint" "" (id 2) (at 123.19 153.67 0)
      (effects (font (size 1.27 1.27)) hide)
    )
    (property "Datasheet" "" (id 3) (at 123.19 153.67 0)
      (effects (font (size 1.27 1.27)) hide)
    )
    (pin "1" (uuid 8651e71b-2647-4629-ae7c-d08061ea8985))
  )

  (symbol (lib_id "power:GND") (at 132.08 153.67 0) (unit 1)
    (in_bom yes) (on_board yes)
    (uuid 00000000-0000-0000-0000-000062379c09)
    (property "Reference" "#PWR0131" (id 0) (at 132.08 160.02 0)
      (effects (font (size 1.27 1.27)) hide)
    )
    (property "Value" "GND" (id 1) (at 132.207 158.0642 0))
    (property "Footprint" "" (id 2) (at 132.08 153.67 0)
      (effects (font (size 1.27 1.27)) hide)
    )
    (property "Datasheet" "" (id 3) (at 132.08 153.67 0)
      (effects (font (size 1.27 1.27)) hide)
    )
    (pin "1" (uuid 984a66d8-c710-44ae-98fa-a885ff8e00f1))
  )

  (symbol (lib_id "power:GND") (at 140.97 153.67 0) (unit 1)
    (in_bom yes) (on_board yes)
    (uuid 00000000-0000-0000-0000-00006237f34a)
    (property "Reference" "#PWR0132" (id 0) (at 140.97 160.02 0)
      (effects (font (size 1.27 1.27)) hide)
    )
    (property "Value" "GND" (id 1) (at 141.097 158.0642 0))
    (property "Footprint" "" (id 2) (at 140.97 153.67 0)
      (effects (font (size 1.27 1.27)) hide)
    )
    (property "Datasheet" "" (id 3) (at 140.97 153.67 0)
      (effects (font (size 1.27 1.27)) hide)
    )
    (pin "1" (uuid 37b81a34-914c-4f8d-9b55-e7c9ade75fed))
  )

  (symbol (lib_id "power:GND") (at 149.86 153.67 0) (unit 1)
    (in_bom yes) (on_board yes)
    (uuid 00000000-0000-0000-0000-0000623841fd)
    (property "Reference" "#PWR0133" (id 0) (at 149.86 160.02 0)
      (effects (font (size 1.27 1.27)) hide)
    )
    (property "Value" "GND" (id 1) (at 149.987 158.0642 0))
    (property "Footprint" "" (id 2) (at 149.86 153.67 0)
      (effects (font (size 1.27 1.27)) hide)
    )
    (property "Datasheet" "" (id 3) (at 149.86 153.67 0)
      (effects (font (size 1.27 1.27)) hide)
    )
    (pin "1" (uuid aba08f27-3e81-4b7d-a542-31806b89e376))
  )

  (sheet (at 92.71 66.04) (size 36.83 52.07) (fields_autoplaced)
    (stroke (width 0) (type solid) (color 0 0 0 0))
    (fill (color 0 0 0 0.0000))
    (uuid 00000000-0000-0000-0000-0000620734e1)
    (property "Sheet name" "Interface Microcontroller" (id 0) (at 92.71 65.3284 0)
      (effects (font (size 1.27 1.27)) (justify left bottom))
    )
    (property "Sheet file" "interface_microcontroller.kicad_sch" (id 1) (at 92.71 118.6946 0)
      (effects (font (size 1.27 1.27)) (justify left top))
    )
    (pin "SCK" output (at 129.54 81.28 0)
      (effects (font (size 1.27 1.27)) (justify right))
      (uuid 6bd46644-7209-4d4d-acd8-f4c0d045bc61)
    )
    (pin "F0_A_UPCK" input (at 92.71 72.39 180)
      (effects (font (size 1.27 1.27)) (justify left))
      (uuid befdfbe5-f3e5-423b-a34e-7bba3f218536)
    )
    (pin "F0_B_DNCK" input (at 92.71 74.93 180)
      (effects (font (size 1.27 1.27)) (justify left))
      (uuid 1c052668-6749-425a-9a77-35f046c8aa39)
    )
    (pin "Q_A_UPCK" input (at 92.71 80.01 180)
      (effects (font (size 1.27 1.27)) (justify left))
      (uuid 9db16341-dac0-4aab-9c62-7d88c111c1ce)
    )
    (pin "Q_B_DNCK" input (at 92.71 82.55 180)
      (effects (font (size 1.27 1.27)) (justify left))
      (uuid b7d06af4-a5b1-447f-9b1a-8b44eb1cc204)
    )
    (pin "GAIN_A_UPCK" input (at 92.71 87.63 180)
      (effects (font (size 1.27 1.27)) (justify left))
      (uuid ab8b0540-9c9f-4195-88f5-7bed0b0a8ed6)
    )
    (pin "GAIN_B_DNCK" input (at 92.71 90.17 180)
      (effects (font (size 1.27 1.27)) (justify left))
      (uuid e79c8e11-ed47-4701-ae80-a54cdb6682a5)
    )
    (pin "VOL_A_UPCK" input (at 92.71 95.25 180)
      (effects (font (size 1.27 1.27)) (justify left))
      (uuid aa047297-22f8-4de0-a969-0b3451b8e164)
    )
    (pin "VOL_B_DNCK" input (at 92.71 97.79 180)
      (effects (font (size 1.27 1.27)) (justify left))
      (uuid df3dc9a2-ba40-4c3a-87fe-61cc8e23d71b)
    )
    (pin "~{RESET}" input (at 92.71 68.58 180)
      (effects (font (size 1.27 1.27)) (justify left))
      (uuid e87a6f80-914f-4f62-9c9f-9ba62a88ee3d)
    )
    (pin "CS_IND" output (at 129.54 96.52 0)
      (effects (font (size 1.27 1.27)) (justify right))
      (uuid b0b4c3cb-e7ea-49c0-8162-be3bbab3e4ec)
    )
    (pin "BTN_PRESET_SW" input (at 92.71 110.49 180)
      (effects (font (size 1.27 1.27)) (justify left))
      (uuid b794d099-f823-4d35-9755-ca1c45247ee9)
    )
    (pin "BTN_STRING_SW" input (at 92.71 113.03 180)
      (effects (font (size 1.27 1.27)) (justify left))
      (uuid de370984-7922-4327-a0ba-7cd613995df4)
    )
    (pin "IND_STR0" output (at 129.54 102.87 0)
      (effects (font (size 1.27 1.27)) (justify right))
      (uuid 99e6b8eb-b08e-4d42-84dd-8b7f6765b7b7)
    )
    (pin "IND_STR1" output (at 129.54 105.41 0)
      (effects (font (size 1.27 1.27)) (justify right))
      (uuid db851147-6a1e-4d19-898c-0ba71182359b)
    )
    (pin "IND_STR2" output (at 129.54 107.95 0)
      (effects (font (size 1.27 1.27)) (justify right))
      (uuid 2518d4ea-25cc-4e57-a0d6-8482034e7318)
    )
    (pin "IND_STR3" output (at 129.54 110.49 0)
      (effects (font (size 1.27 1.27)) (justify right))
      (uuid e69c64f9-717d-4a97-b3df-80325ec2fa63)
    )
    (pin "IND_PRE0" output (at 129.54 113.03 0)
      (effects (font (size 1.27 1.27)) (justify right))
      (uuid 799e761c-1426-40e9-a069-1f4cb353bfaa)
    )
    (pin "IND_PRE1" output (at 129.54 115.57 0)
      (effects (font (size 1.27 1.27)) (justify right))
      (uuid 71af7b65-0e6b-402e-b1a4-b66be507b4dc)
    )
    (pin "CS_MEM" output (at 129.54 73.66 0)
      (effects (font (size 1.27 1.27)) (justify right))
      (uuid 4fd9bc4f-0ae3-42d4-a1b4-9fb1b2a0a7fd)
    )
    (pin "~{HOLD_MEM}" output (at 129.54 71.12 0)
      (effects (font (size 1.27 1.27)) (justify right))
      (uuid 86e98417-f5e4-48ba-8147-ef66cc03dde6)
    )
    (pin "~{WP_MEM}" output (at 129.54 68.58 0)
      (effects (font (size 1.27 1.27)) (justify right))
      (uuid 02f8904b-a7b2-49dd-b392-764e7e29fb51)
    )
    (pin "CS_DSP" output (at 129.54 85.09 0)
      (effects (font (size 1.27 1.27)) (justify right))
      (uuid e70d061b-28f0-4421-ad15-0598604086e8)
    )
    (pin "SDO" output (at 129.54 78.74 0)
      (effects (font (size 1.27 1.27)) (justify right))
      (uuid 8bd46048-cab7-4adf-af9a-bc2710c1894c)
    )
    (pin "SDI" input (at 129.54 76.2 0)
      (effects (font (size 1.27 1.27)) (justify right))
      (uuid 992a2b00-5e28-4edd-88b5-994891512d8d)
    )
    (pin "CLKOUT" output (at 129.54 87.63 0)
      (effects (font (size 1.27 1.27)) (justify right))
      (uuid 18f1018d-5857-4c32-a072-f3de80352f74)
    )
    (pin "ENC4_S" input (at 92.71 100.33 180)
      (effects (font (size 1.27 1.27)) (justify left))
      (uuid c92c3133-bc0e-4c00-ace1-5ba5ba21397a)
    )
    (pin "ENC2_S" input (at 92.71 85.09 180)
      (effects (font (size 1.27 1.27)) (justify left))
      (uuid 7c6db5b3-2bd9-48c4-bb6a-e635992f31f3)
    )
    (pin "ENC3_S" input (at 92.71 92.71 180)
      (effects (font (size 1.27 1.27)) (justify left))
      (uuid 23826232-67f3-4af4-8ca5-050eb6295e7e)
    )
    (pin "ENC1_S" input (at 92.71 77.47 180)
      (effects (font (size 1.27 1.27)) (justify left))
      (uuid d7a240ab-7a62-4faa-9d8b-ac3200b57bf0)
    )
  )

  (sheet (at 26.67 35.56) (size 27.94 10.16) (fields_autoplaced)
    (stroke (width 0) (type solid) (color 0 0 0 0))
    (fill (color 0 0 0 0.0000))
    (uuid 00000000-0000-0000-0000-000062074d7e)
    (property "Sheet name" "Center Freq (F0) Knob" (id 0) (at 26.67 34.8484 0)
      (effects (font (size 1.27 1.27)) (justify left bottom))
    )
    (property "Sheet file" "rotaryencoder.kicad_sch" (id 1) (at 26.67 46.3046 0)
      (effects (font (size 1.27 1.27)) (justify left top))
    )
    (pin "ENC_B" output (at 54.61 40.64 0)
      (effects (font (size 1.27 1.27)) (justify right))
      (uuid 3d552623-2969-4b15-8623-368144f225e9)
    )
    (pin "ENC_A" output (at 54.61 38.1 0)
      (effects (font (size 1.27 1.27)) (justify right))
      (uuid e65bab67-68b7-4b22-a939-6f2c05164d2a)
    )
    (pin "ENC_SW" output (at 54.61 43.18 0)
      (effects (font (size 1.27 1.27)) (justify right))
      (uuid f4c4139b-fa58-46da-bd4e-496fd605136b)
    )
  )

  (sheet (at 162.56 80.01) (size 16.51 20.32) (fields_autoplaced)
    (stroke (width 0) (type solid) (color 0 0 0 0))
    (fill (color 0 0 0 0.0000))
    (uuid 00000000-0000-0000-0000-000062074da4)
    (property "Sheet name" "F0 Indicator" (id 0) (at 162.56 79.2984 0)
      (effects (font (size 1.27 1.27)) (justify left bottom))
    )
    (property "Sheet file" "lightbar.kicad_sch" (id 1) (at 162.56 100.9146 0)
      (effects (font (size 1.27 1.27)) (justify left top))
    )
    (pin "SCK" input (at 162.56 87.63 180)
      (effects (font (size 1.27 1.27)) (justify left))
      (uuid 77ef8901-6325-4427-901a-4acd9074dd7b)
    )
    (pin "~{CS}" input (at 162.56 90.17 180)
      (effects (font (size 1.27 1.27)) (justify left))
      (uuid 2026567f-be64-41dd-8011-b0897ba0ff2e)
    )
    (pin "~{RESET}" input (at 162.56 92.71 180)
      (effects (font (size 1.27 1.27)) (justify left))
      (uuid 981ff4de-0330-4757-b746-0cb983df5e7c)
    )
    (pin "A1" input (at 179.07 82.55 0)
      (effects (font (size 1.27 1.27)) (justify right))
      (uuid fead07ab-5a70-40db-ada8-c72dcc827bfc)
    )
    (pin "A0" input (at 179.07 85.09 0)
      (effects (font (size 1.27 1.27)) (justify right))
      (uuid 7943ed8c-e760-4ace-9c5f-baf5589fae39)
    )
    (pin "SI" input (at 162.56 82.55 180)
      (effects (font (size 1.27 1.27)) (justify left))
      (uuid 59e09498-d26e-4ba7-b47d-fece2ea7c274)
    )
    (pin "SO" output (at 162.56 85.09 180)
      (effects (font (size 1.27 1.27)) (justify left))
      (uuid ea4f0afc-785b-40cf-8ef1-cbe20404c18b)
    )
  )

  (sheet (at 26.67 53.34) (size 27.94 10.16) (fields_autoplaced)
    (stroke (width 0) (type solid) (color 0 0 0 0))
    (fill (color 0 0 0 0.0000))
    (uuid 00000000-0000-0000-0000-000062235db0)
    (property "Sheet name" "Bandwidth (Q) Knob" (id 0) (at 26.67 52.6284 0)
      (effects (font (size 1.27 1.27)) (justify left bottom))
    )
    (property "Sheet file" "rotaryencoder.kicad_sch" (id 1) (at 26.67 64.0846 0)
      (effects (font (size 1.27 1.27)) (justify left top))
    )
    (pin "ENC_B" output (at 54.61 58.42 0)
      (effects (font (size 1.27 1.27)) (justify right))
      (uuid fb35e3b1-aff6-41a7-9cf0-52694b95edeb)
    )
    (pin "ENC_A" output (at 54.61 55.88 0)
      (effects (font (size 1.27 1.27)) (justify right))
      (uuid fa20e708-ec85-4e0b-8402-f74a2724f920)
    )
    (pin "ENC_SW" output (at 54.61 60.96 0)
      (effects (font (size 1.27 1.27)) (justify right))
      (uuid 01acb040-f423-491c-bd6f-dbe3cfa66fbb)
    )
  )

  (sheet (at 26.67 69.85) (size 27.94 10.16) (fields_autoplaced)
    (stroke (width 0) (type solid) (color 0 0 0 0))
    (fill (color 0 0 0 0.0000))
    (uuid 00000000-0000-0000-0000-000062235eb6)
    (property "Sheet name" "Gain Knob" (id 0) (at 26.67 69.1384 0)
      (effects (font (size 1.27 1.27)) (justify left bottom))
    )
    (property "Sheet file" "rotaryencoder.kicad_sch" (id 1) (at 26.67 80.5946 0)
      (effects (font (size 1.27 1.27)) (justify left top))
    )
    (pin "ENC_B" output (at 54.61 74.93 0)
      (effects (font (size 1.27 1.27)) (justify right))
      (uuid 015f5586-ba76-4a98-9114-f5cd2c67134d)
    )
    (pin "ENC_A" output (at 54.61 72.39 0)
      (effects (font (size 1.27 1.27)) (justify right))
      (uuid 541721d1-074b-496e-a833-813044b3e8ca)
    )
    (pin "ENC_SW" output (at 54.61 77.47 0)
      (effects (font (size 1.27 1.27)) (justify right))
      (uuid cc7fdda4-1f0b-4447-b8f5-2a7f9266383d)
    )
  )

  (sheet (at 26.67 86.36) (size 27.94 10.16) (fields_autoplaced)
    (stroke (width 0) (type solid) (color 0 0 0 0))
    (fill (color 0 0 0 0.0000))
    (uuid 00000000-0000-0000-0000-000062235fcf)
    (property "Sheet name" "Volume Knob" (id 0) (at 26.67 85.6484 0)
      (effects (font (size 1.27 1.27)) (justify left bottom))
    )
    (property "Sheet file" "rotaryencoder.kicad_sch" (id 1) (at 26.67 97.1046 0)
      (effects (font (size 1.27 1.27)) (justify left top))
    )
    (pin "ENC_B" output (at 54.61 91.44 0)
      (effects (font (size 1.27 1.27)) (justify right))
      (uuid 3bca658b-a598-4669-a7cb-3f9b5f47bb5a)
    )
    (pin "ENC_A" output (at 54.61 88.9 0)
      (effects (font (size 1.27 1.27)) (justify right))
      (uuid bef2abc2-bf3e-4a72-ad03-f8da3cd893cb)
    )
    (pin "ENC_SW" output (at 54.61 93.98 0)
      (effects (font (size 1.27 1.27)) (justify right))
      (uuid 63f2c7d1-4d12-4bb9-b7d2-402d2567f8cd)
    )
  )

  (sheet (at 162.56 105.41) (size 16.51 20.32) (fields_autoplaced)
    (stroke (width 0) (type solid) (color 0 0 0 0))
    (fill (color 0 0 0 0.0000))
    (uuid 00000000-0000-0000-0000-00006226c822)
    (property "Sheet name" "Gain Indicator" (id 0) (at 162.56 104.6984 0)
      (effects (font (size 1.27 1.27)) (justify left bottom))
    )
    (property "Sheet file" "lightbar.kicad_sch" (id 1) (at 162.56 126.3146 0)
      (effects (font (size 1.27 1.27)) (justify left top))
    )
    (pin "SCK" input (at 162.56 113.03 180)
      (effects (font (size 1.27 1.27)) (justify left))
      (uuid 15ea3484-2685-47cb-9e01-ec01c6d477b8)
    )
    (pin "~{CS}" input (at 162.56 115.57 180)
      (effects (font (size 1.27 1.27)) (justify left))
      (uuid d4ef5db0-5fba-4fcd-ab64-2ef2646c5c6d)
    )
    (pin "~{RESET}" input (at 162.56 118.11 180)
      (effects (font (size 1.27 1.27)) (justify left))
      (uuid d115a0df-1034-4583-83af-ff1cb8acfa17)
    )
    (pin "A1" input (at 179.07 107.95 0)
      (effects (font (size 1.27 1.27)) (justify right))
      (uuid 720ec55a-7c69-4064-b792-ef3dbba4eab9)
    )
    (pin "A0" input (at 179.07 110.49 0)
      (effects (font (size 1.27 1.27)) (justify right))
      (uuid e000728f-e3c5-4fc4-86af-db9ceb3a6542)
    )
    (pin "SI" input (at 162.56 107.95 180)
      (effects (font (size 1.27 1.27)) (justify left))
      (uuid 18d3014d-7089-41b5-ab03-53cc0a265580)
    )
    (pin "SO" output (at 162.56 110.49 180)
      (effects (font (size 1.27 1.27)) (justify left))
      (uuid 662bafcb-dcfb-4471-a8a9-f5c777fdf249)
    )
  )

  (sheet (at 205.74 80.01) (size 16.51 20.32) (fields_autoplaced)
    (stroke (width 0) (type solid) (color 0 0 0 0))
    (fill (color 0 0 0 0.0000))
    (uuid 00000000-0000-0000-0000-00006226d696)
    (property "Sheet name" "Q Indicator" (id 0) (at 205.74 79.2984 0)
      (effects (font (size 1.27 1.27)) (justify left bottom))
    )
    (property "Sheet file" "lightbar.kicad_sch" (id 1) (at 205.74 100.9146 0)
      (effects (font (size 1.27 1.27)) (justify left top))
    )
    (pin "SCK" input (at 205.74 87.63 180)
      (effects (font (size 1.27 1.27)) (justify left))
      (uuid 311665d9-0fab-4325-8b46-f3638bf521df)
    )
    (pin "~{CS}" input (at 205.74 90.17 180)
      (effects (font (size 1.27 1.27)) (justify left))
      (uuid 3c3e06bd-c8bb-4ec8-84e0-f7f9437909b3)
    )
    (pin "~{RESET}" input (at 205.74 92.71 180)
      (effects (font (size 1.27 1.27)) (justify left))
      (uuid 5eedf685-0df3-4da8-aded-0e6ed1cb2507)
    )
    (pin "A1" input (at 222.25 82.55 0)
      (effects (font (size 1.27 1.27)) (justify right))
      (uuid fc4f0835-889b-4d2e-876e-ca524c79ae62)
    )
    (pin "A0" input (at 222.25 85.09 0)
      (effects (font (size 1.27 1.27)) (justify right))
      (uuid 90fd611c-300b-48cf-a7c4-0d604953cd00)
    )
    (pin "SI" input (at 205.74 82.55 180)
      (effects (font (size 1.27 1.27)) (justify left))
      (uuid 4d967454-338c-4b89-8534-9457e15bf2f2)
    )
    (pin "SO" output (at 205.74 85.09 180)
      (effects (font (size 1.27 1.27)) (justify left))
      (uuid 7eb32ed1-4320-49ba-8487-1c88e4824fe3)
    )
  )

  (sheet (at 205.74 105.41) (size 16.51 20.32) (fields_autoplaced)
    (stroke (width 0) (type solid) (color 0 0 0 0))
    (fill (color 0 0 0 0.0000))
    (uuid 00000000-0000-0000-0000-00006226e77b)
    (property "Sheet name" "Volume Indicator" (id 0) (at 205.74 104.6984 0)
      (effects (font (size 1.27 1.27)) (justify left bottom))
    )
    (property "Sheet file" "lightbar.kicad_sch" (id 1) (at 205.74 126.3146 0)
      (effects (font (size 1.27 1.27)) (justify left top))
    )
    (pin "SCK" input (at 205.74 113.03 180)
      (effects (font (size 1.27 1.27)) (justify left))
      (uuid 4fb2577d-2e1c-480c-9060-124510b35053)
    )
    (pin "~{CS}" input (at 205.74 115.57 180)
      (effects (font (size 1.27 1.27)) (justify left))
      (uuid 3b9c5ffd-e59b-402d-8c5e-052f7ca643a4)
    )
    (pin "~{RESET}" input (at 205.74 118.11 180)
      (effects (font (size 1.27 1.27)) (justify left))
      (uuid f08895dc-4dcb-4aef-a39b-5a08864cdaaf)
    )
    (pin "A1" input (at 222.25 107.95 0)
      (effects (font (size 1.27 1.27)) (justify right))
      (uuid 6133fb54-5524-482e-9ae2-adbf29aced9e)
    )
    (pin "A0" input (at 222.25 110.49 0)
      (effects (font (size 1.27 1.27)) (justify right))
      (uuid 5a33f5a4-a470-4c04-9e2d-532b5f01a5d6)
    )
    (pin "SI" input (at 205.74 107.95 180)
      (effects (font (size 1.27 1.27)) (justify left))
      (uuid acb6c3f3-e677-4f35-9fc2-138ba10f33af)
    )
    (pin "SO" output (at 205.74 110.49 180)
      (effects (font (size 1.27 1.27)) (justify left))
      (uuid 2ba25c40-ea42-478e-9150-1d94fa1c8ae9)
    )
  )
)
