EESchema Schematic File Version 4
EELAYER 30 0
EELAYER END
$Descr A4 11693 8268
encoding utf-8
Sheet 3 15
Title "User Interface"
Date ""
Rev ""
Comp "ECE445 Team 22"
Comment1 ""
Comment2 ""
Comment3 ""
Comment4 ""
$EndDescr
$Sheet
S 3650 2600 1450 2050
U 620734E1
F0 "Interface Microcontroller" 50
F1 "interface_microcontroller.sch" 50
F2 "SCK" O R 5100 3200 50 
F3 "F0_A_UPCK" I L 3650 2900 50 
F4 "F0_B_DNCK" I L 3650 3000 50 
F5 "Q_A_UPCK" I L 3650 3100 50 
F6 "Q_B_DNCK" I L 3650 3200 50 
F7 "GAIN_A_UPCK" I L 3650 3300 50 
F8 "GAIN_B_DNCK" I L 3650 3400 50 
F9 "VOL_A_UPCK" I L 3650 3500 50 
F10 "VOL_B_DNCK" I L 3650 3600 50 
F11 "~RESET" I L 3650 2700 50 
F12 "CS_IND" O R 5100 3800 50 
F13 "BTN_PRESET_SW" I L 3650 3750 50 
F14 "BTN_STRING_SW" I L 3650 3850 50 
F15 "IND_STR0" O R 5100 4050 50 
F16 "IND_STR1" O R 5100 4150 50 
F17 "IND_STR2" O R 5100 4250 50 
F18 "IND_STR3" O R 5100 4350 50 
F19 "IND_PRE0" O R 5100 4450 50 
F20 "IND_PRE1" O R 5100 4550 50 
F21 "CS_MEM" O R 5100 2900 50 
F22 "~HOLD_MEM" O R 5100 2800 50 
F23 "~WP_MEM" O R 5100 2700 50 
F24 "CS_DSP" O R 5100 3350 50 
F25 "SDO" O R 5100 3100 50 
F26 "SDI" I R 5100 3000 50 
F27 "CLKOUT" O R 5100 3450 50 
$EndSheet
$Sheet
S 1050 1450 1100 400 
U 62074D7E
F0 "Center Freq (F0) Knob" 50
F1 "rotaryencoder.sch" 50
F2 "ENC_B" O R 2150 1700 50 
F3 "ENC_A" O R 2150 1600 50 
$EndSheet
$Sheet
S 1050 2050 1100 400 
U 62235DB0
F0 "Bandwidth (Q) Knob" 50
F1 "rotaryencoder.sch" 50
F2 "ENC_B" O R 2150 2300 50 
F3 "ENC_A" O R 2150 2200 50 
$EndSheet
$Sheet
S 1050 2700 1100 400 
U 62235EB6
F0 "Gain Knob" 50
F1 "rotaryencoder.sch" 50
F2 "ENC_B" O R 2150 2950 50 
F3 "ENC_A" O R 2150 2850 50 
$EndSheet
$Sheet
S 1050 3300 1100 400 
U 62235FCF
F0 "Volume Knob" 50
F1 "rotaryencoder.sch" 50
F2 "ENC_B" O R 2150 3550 50 
F3 "ENC_A" O R 2150 3450 50 
$EndSheet
Wire Wire Line
	2650 3400 3650 3400
Wire Wire Line
	2700 3300 3650 3300
Wire Wire Line
	2750 3200 3650 3200
Wire Wire Line
	2800 3100 3650 3100
Wire Wire Line
	2850 3000 3650 3000
Wire Wire Line
	2900 2900 3650 2900
$Comp
L Device:C C?
U 1 1 622536F4
P 4250 1550
AR Path="/6206DF1F/620734E1/622536F4" Ref="C?"  Part="1" 
AR Path="/6206DF1F/622536F4" Ref="C7"  Part="1" 
F 0 "C7" H 4365 1596 50  0000 L CNN
F 1 "0.1u" H 4365 1505 50  0000 L CNN
F 2 "Capacitor_SMD:C_0603_1608Metric_Pad1.08x0.95mm_HandSolder" H 4288 1400 50  0001 C CNN
F 3 "~" H 4250 1550 50  0001 C CNN
	1    4250 1550
	-1   0    0    -1  
$EndComp
$Comp
L Device:R R?
U 1 1 622536FA
P 4250 1050
AR Path="/6206DF1F/620734E1/622536FA" Ref="R?"  Part="1" 
AR Path="/6206DF1F/622536FA" Ref="R5"  Part="1" 
F 0 "R5" H 4320 1096 50  0000 L CNN
F 1 "10k" H 4320 1005 50  0000 L CNN
F 2 "Resistor_SMD:R_0603_1608Metric_Pad0.98x0.95mm_HandSolder" V 4180 1050 50  0001 C CNN
F 3 "~" H 4250 1050 50  0001 C CNN
	1    4250 1050
	-1   0    0    -1  
$EndComp
$Comp
L power:+3V3 #PWR?
U 1 1 62253700
P 4250 750
AR Path="/6206DF1F/620734E1/62253700" Ref="#PWR?"  Part="1" 
AR Path="/6206DF1F/62253700" Ref="#PWR0113"  Part="1" 
F 0 "#PWR0113" H 4250 600 50  0001 C CNN
F 1 "+3V3" H 4265 923 50  0000 C CNN
F 2 "" H 4250 750 50  0001 C CNN
F 3 "" H 4250 750 50  0001 C CNN
	1    4250 750 
	-1   0    0    -1  
$EndComp
Wire Wire Line
	4250 750  4250 900 
$Comp
L power:GND #PWR?
U 1 1 62253707
P 4250 1800
AR Path="/6206DF1F/620734E1/62253707" Ref="#PWR?"  Part="1" 
AR Path="/6206DF1F/62253707" Ref="#PWR0114"  Part="1" 
F 0 "#PWR0114" H 4250 1550 50  0001 C CNN
F 1 "GND" H 4255 1627 50  0000 C CNN
F 2 "" H 4250 1800 50  0001 C CNN
F 3 "" H 4250 1800 50  0001 C CNN
	1    4250 1800
	-1   0    0    -1  
$EndComp
Wire Wire Line
	4250 1800 4250 1700
Wire Wire Line
	4250 1200 4250 1300
$Comp
L Switch:SW_Push SW?
U 1 1 6225370F
P 4700 1300
AR Path="/6206DF1F/620734E1/6225370F" Ref="SW?"  Part="1" 
AR Path="/6206DF1F/6225370F" Ref="SW3"  Part="1" 
F 0 "SW3" H 4700 1585 50  0000 C CNN
F 1 "SW_Push" H 4700 1494 50  0000 C CNN
F 2 "Switches:TACTILE_SWITCH_SMD_4.5MM" H 4700 1500 50  0001 C CNN
F 3 "~" H 4700 1500 50  0001 C CNN
	1    4700 1300
	-1   0    0    -1  
$EndComp
$Comp
L power:GND #PWR?
U 1 1 62253715
P 4950 1800
AR Path="/6206DF1F/620734E1/62253715" Ref="#PWR?"  Part="1" 
AR Path="/6206DF1F/62253715" Ref="#PWR0115"  Part="1" 
F 0 "#PWR0115" H 4950 1550 50  0001 C CNN
F 1 "GND" H 4955 1627 50  0000 C CNN
F 2 "" H 4950 1800 50  0001 C CNN
F 3 "" H 4950 1800 50  0001 C CNN
	1    4950 1800
	-1   0    0    -1  
$EndComp
Wire Wire Line
	4950 1800 4950 1300
Wire Wire Line
	4950 1300 4900 1300
Wire Wire Line
	4500 1300 4250 1300
Connection ~ 4250 1300
Wire Wire Line
	4250 1300 4250 1350
Connection ~ 4250 1350
Wire Wire Line
	4250 1350 4250 1400
Wire Wire Line
	4250 1350 3450 1350
Text Label 3550 1350 0    50   ~ 0
RESET
Text Label 5600 3000 2    50   ~ 0
UC_SDI
Text Label 5600 3100 2    50   ~ 0
UC_SDO
Text Label 5600 3200 2    50   ~ 0
SCK
Text Label 5600 3800 2    50   ~ 0
CS_IND
Wire Wire Line
	5100 3350 5250 3350
Text HLabel 5650 3100 2    50   Output ~ 0
SDO
Text HLabel 5650 3200 2    50   Output ~ 0
SCK
Text HLabel 5650 3000 2    50   Input ~ 0
SDI
Wire Wire Line
	5100 3000 5650 3000
Wire Wire Line
	5100 3100 5650 3100
Wire Wire Line
	5100 3200 5650 3200
Wire Wire Line
	5100 3800 5600 3800
$Comp
L Switch:SW_Push SW2
U 1 1 622CCBD6
P 2650 4500
F 0 "SW2" V 2604 4648 50  0000 L CNN
F 1 "SW_Push" V 2695 4648 50  0000 L CNN
F 2 "Connector_Molex:Molex_KK-254_AE-6410-02A_1x02_P2.54mm_Vertical" H 2650 4700 50  0001 C CNN
F 3 "~" H 2650 4700 50  0001 C CNN
	1    2650 4500
	0    1    1    0   
$EndComp
$Comp
L Switch:SW_Push SW1
U 1 1 622CD61E
P 1400 4500
F 0 "SW1" V 1354 4648 50  0000 L CNN
F 1 "SW_Push" V 1445 4648 50  0000 L CNN
F 2 "Connector_Molex:Molex_KK-254_AE-6410-02A_1x02_P2.54mm_Vertical" H 1400 4700 50  0001 C CNN
F 3 "~" H 1400 4700 50  0001 C CNN
	1    1400 4500
	0    1    1    0   
$EndComp
$Comp
L Device:R R3
U 1 1 622CD9EC
P 2650 4950
F 0 "R3" H 2720 4996 50  0000 L CNN
F 1 "10k" H 2720 4905 50  0000 L CNN
F 2 "Resistor_SMD:R_0603_1608Metric_Pad0.98x0.95mm_HandSolder" V 2580 4950 50  0001 C CNN
F 3 "~" H 2650 4950 50  0001 C CNN
	1    2650 4950
	1    0    0    -1  
$EndComp
$Comp
L Device:R R2
U 1 1 622CDD26
P 1400 4950
F 0 "R2" H 1470 4996 50  0000 L CNN
F 1 "10k" H 1470 4905 50  0000 L CNN
F 2 "Resistor_SMD:R_0603_1608Metric_Pad0.98x0.95mm_HandSolder" V 1330 4950 50  0001 C CNN
F 3 "~" H 1400 4950 50  0001 C CNN
	1    1400 4950
	1    0    0    -1  
$EndComp
Wire Wire Line
	1400 4700 1400 4750
Wire Wire Line
	2650 4700 2650 4750
$Comp
L power:+3V3 #PWR0122
U 1 1 622D14BB
P 1400 4250
F 0 "#PWR0122" H 1400 4100 50  0001 C CNN
F 1 "+3V3" H 1415 4423 50  0000 C CNN
F 2 "" H 1400 4250 50  0001 C CNN
F 3 "" H 1400 4250 50  0001 C CNN
	1    1400 4250
	1    0    0    -1  
$EndComp
$Comp
L power:+3V3 #PWR0123
U 1 1 622D191E
P 2650 4250
F 0 "#PWR0123" H 2650 4100 50  0001 C CNN
F 1 "+3V3" H 2665 4423 50  0000 C CNN
F 2 "" H 2650 4250 50  0001 C CNN
F 3 "" H 2650 4250 50  0001 C CNN
	1    2650 4250
	1    0    0    -1  
$EndComp
Wire Wire Line
	1400 4250 1400 4300
Wire Wire Line
	2650 4250 2650 4300
$Comp
L power:GND #PWR0124
U 1 1 622D5866
P 2650 5150
F 0 "#PWR0124" H 2650 4900 50  0001 C CNN
F 1 "GND" H 2655 4977 50  0000 C CNN
F 2 "" H 2650 5150 50  0001 C CNN
F 3 "" H 2650 5150 50  0001 C CNN
	1    2650 5150
	1    0    0    -1  
$EndComp
$Comp
L power:GND #PWR0125
U 1 1 622D5AFE
P 1400 5150
F 0 "#PWR0125" H 1400 4900 50  0001 C CNN
F 1 "GND" H 1405 4977 50  0000 C CNN
F 2 "" H 1400 5150 50  0001 C CNN
F 3 "" H 1400 5150 50  0001 C CNN
	1    1400 5150
	1    0    0    -1  
$EndComp
Wire Wire Line
	1400 5100 1400 5150
Wire Wire Line
	2650 5100 2650 5150
Wire Wire Line
	2650 4750 3200 4750
Wire Wire Line
	3200 4750 3200 3850
Wire Wire Line
	3200 3850 3650 3850
Connection ~ 2650 4750
Wire Wire Line
	2650 4750 2650 4800
Wire Wire Line
	1400 4750 2000 4750
Connection ~ 1400 4750
Wire Wire Line
	1400 4750 1400 4800
Text Notes 1300 4550 2    50   ~ 0
Switch Preset
Wire Wire Line
	2000 4750 2000 3750
Wire Wire Line
	2000 3750 3650 3750
Text Notes 2600 4550 2    50   ~ 0
Switch String
$Comp
L CustomParts:BR25Hxxx U?
U 1 1 622F0972
P 6850 2150
AR Path="/6206DF1F/622EBE01/622F0972" Ref="U?"  Part="1" 
AR Path="/6206DF1F/622F0972" Ref="U3"  Part="1" 
F 0 "U3" H 6600 2400 50  0000 C CNN
F 1 "BR25H010FVT" H 7150 1900 50  0000 C CNN
F 2 "Package_SO:TSSOP-8_4.4x3mm_P0.65mm" H 6850 2150 50  0001 C CNN
F 3 "http://ww1.microchip.com/downloads/en/DeviceDoc/21832H.pdf" H 6850 2150 50  0001 C CNN
	1    6850 2150
	1    0    0    -1  
$EndComp
$Comp
L power:GND #PWR?
U 1 1 622F0978
P 6850 2550
AR Path="/6206DF1F/622EBE01/622F0978" Ref="#PWR?"  Part="1" 
AR Path="/6206DF1F/622F0978" Ref="#PWR0126"  Part="1" 
F 0 "#PWR0126" H 6850 2300 50  0001 C CNN
F 1 "GND" H 6855 2377 50  0000 C CNN
F 2 "" H 6850 2550 50  0001 C CNN
F 3 "" H 6850 2550 50  0001 C CNN
	1    6850 2550
	1    0    0    -1  
$EndComp
$Comp
L power:+3V3 #PWR?
U 1 1 622F097E
P 6850 1650
AR Path="/6206DF1F/622EBE01/622F097E" Ref="#PWR?"  Part="1" 
AR Path="/6206DF1F/622F097E" Ref="#PWR0127"  Part="1" 
F 0 "#PWR0127" H 6850 1500 50  0001 C CNN
F 1 "+3V3" H 6865 1823 50  0000 C CNN
F 2 "" H 6850 1650 50  0001 C CNN
F 3 "" H 6850 1650 50  0001 C CNN
	1    6850 1650
	1    0    0    -1  
$EndComp
Wire Wire Line
	6850 1650 6850 1850
Wire Wire Line
	6850 2450 6850 2550
Text Label 7850 2050 2    50   ~ 0
SCK
Wire Wire Line
	5100 2900 5900 2900
Wire Wire Line
	5900 2900 5900 2250
Wire Wire Line
	3450 1350 3450 2700
Wire Wire Line
	3450 2700 3650 2700
$Comp
L Device:LED D?
U 1 1 62323E1F
P 4150 5450
AR Path="/6206DF1F/62074DA4/62323E1F" Ref="D?"  Part="1" 
AR Path="/6206DF1F/6226C822/62323E1F" Ref="D?"  Part="1" 
AR Path="/6206DF1F/6226D696/62323E1F" Ref="D?"  Part="1" 
AR Path="/6206DF1F/6226E77B/62323E1F" Ref="D?"  Part="1" 
AR Path="/6206DF1F/62323E1F" Ref="D2"  Part="1" 
F 0 "D2" V 4189 5332 50  0000 R CNN
F 1 "LED" V 4098 5332 50  0000 R CNN
F 2 "LED_SMD:LED_0603_1608Metric_Pad1.05x0.95mm_HandSolder" H 4150 5450 50  0001 C CNN
F 3 "~" H 4150 5450 50  0001 C CNN
	1    4150 5450
	0    -1   -1   0   
$EndComp
Wire Wire Line
	4150 5600 4150 5700
$Comp
L Device:LED D?
U 1 1 62323E2C
P 4500 5450
AR Path="/6206DF1F/62074DA4/62323E2C" Ref="D?"  Part="1" 
AR Path="/6206DF1F/6226C822/62323E2C" Ref="D?"  Part="1" 
AR Path="/6206DF1F/6226D696/62323E2C" Ref="D?"  Part="1" 
AR Path="/6206DF1F/6226E77B/62323E2C" Ref="D?"  Part="1" 
AR Path="/6206DF1F/62323E2C" Ref="D3"  Part="1" 
F 0 "D3" V 4539 5332 50  0000 R CNN
F 1 "LED" V 4448 5332 50  0000 R CNN
F 2 "LED_SMD:LED_0603_1608Metric_Pad1.05x0.95mm_HandSolder" H 4500 5450 50  0001 C CNN
F 3 "~" H 4500 5450 50  0001 C CNN
	1    4500 5450
	0    -1   -1   0   
$EndComp
$Comp
L Device:LED D?
U 1 1 62323E39
P 4850 5450
AR Path="/6206DF1F/62074DA4/62323E39" Ref="D?"  Part="1" 
AR Path="/6206DF1F/6226C822/62323E39" Ref="D?"  Part="1" 
AR Path="/6206DF1F/6226D696/62323E39" Ref="D?"  Part="1" 
AR Path="/6206DF1F/6226E77B/62323E39" Ref="D?"  Part="1" 
AR Path="/6206DF1F/62323E39" Ref="D4"  Part="1" 
F 0 "D4" V 4889 5332 50  0000 R CNN
F 1 "LED" V 4798 5332 50  0000 R CNN
F 2 "LED_SMD:LED_0603_1608Metric_Pad1.05x0.95mm_HandSolder" H 4850 5450 50  0001 C CNN
F 3 "~" H 4850 5450 50  0001 C CNN
	1    4850 5450
	0    -1   -1   0   
$EndComp
Wire Wire Line
	4850 5600 4850 5700
$Comp
L Device:LED D?
U 1 1 62323E4C
P 5550 5450
AR Path="/6206DF1F/62074DA4/62323E4C" Ref="D?"  Part="1" 
AR Path="/6206DF1F/6226C822/62323E4C" Ref="D?"  Part="1" 
AR Path="/6206DF1F/6226D696/62323E4C" Ref="D?"  Part="1" 
AR Path="/6206DF1F/6226E77B/62323E4C" Ref="D?"  Part="1" 
AR Path="/6206DF1F/62323E4C" Ref="D6"  Part="1" 
F 0 "D6" V 5589 5332 50  0000 R CNN
F 1 "LED" V 5498 5332 50  0000 R CNN
F 2 "LED_SMD:LED_0603_1608Metric_Pad1.05x0.95mm_HandSolder" H 5550 5450 50  0001 C CNN
F 3 "~" H 5550 5450 50  0001 C CNN
	1    5550 5450
	0    -1   -1   0   
$EndComp
Wire Wire Line
	5550 5600 5550 5700
$Comp
L Device:LED D?
U 1 1 62323E59
P 5900 5450
AR Path="/6206DF1F/62074DA4/62323E59" Ref="D?"  Part="1" 
AR Path="/6206DF1F/6226C822/62323E59" Ref="D?"  Part="1" 
AR Path="/6206DF1F/6226D696/62323E59" Ref="D?"  Part="1" 
AR Path="/6206DF1F/6226E77B/62323E59" Ref="D?"  Part="1" 
AR Path="/6206DF1F/62323E59" Ref="D7"  Part="1" 
F 0 "D7" V 5939 5332 50  0000 R CNN
F 1 "LED" V 5848 5332 50  0000 R CNN
F 2 "LED_SMD:LED_0603_1608Metric_Pad1.05x0.95mm_HandSolder" H 5900 5450 50  0001 C CNN
F 3 "~" H 5900 5450 50  0001 C CNN
	1    5900 5450
	0    -1   -1   0   
$EndComp
$Comp
L Device:R R?
U 1 1 62323E5F
P 5900 5850
AR Path="/6206DF1F/62074DA4/62323E5F" Ref="R?"  Part="1" 
AR Path="/6206DF1F/6226C822/62323E5F" Ref="R?"  Part="1" 
AR Path="/6206DF1F/6226D696/62323E5F" Ref="R?"  Part="1" 
AR Path="/6206DF1F/6226E77B/62323E5F" Ref="R?"  Part="1" 
AR Path="/6206DF1F/62323E5F" Ref="R10"  Part="1" 
F 0 "R10" H 5970 5896 50  0000 L CNN
F 1 "270" H 5970 5805 50  0000 L CNN
F 2 "Resistor_SMD:R_0603_1608Metric_Pad0.98x0.95mm_HandSolder" V 5830 5850 50  0001 C CNN
F 3 "~" H 5900 5850 50  0001 C CNN
	1    5900 5850
	1    0    0    -1  
$EndComp
Wire Wire Line
	5900 5600 5900 5700
$Comp
L Device:LED D?
U 1 1 62323E6B
P 5200 5450
AR Path="/6206DF1F/62074DA4/62323E6B" Ref="D?"  Part="1" 
AR Path="/6206DF1F/6226C822/62323E6B" Ref="D?"  Part="1" 
AR Path="/6206DF1F/6226D696/62323E6B" Ref="D?"  Part="1" 
AR Path="/6206DF1F/6226E77B/62323E6B" Ref="D?"  Part="1" 
AR Path="/6206DF1F/62323E6B" Ref="D5"  Part="1" 
F 0 "D5" V 5239 5332 50  0000 R CNN
F 1 "LED" V 5148 5332 50  0000 R CNN
F 2 "LED_SMD:LED_0603_1608Metric_Pad1.05x0.95mm_HandSolder" H 5200 5450 50  0001 C CNN
F 3 "~" H 5200 5450 50  0001 C CNN
	1    5200 5450
	0    -1   -1   0   
$EndComp
Wire Wire Line
	5200 5600 5200 5700
Wire Wire Line
	5100 4050 5900 4050
Wire Wire Line
	5100 4150 5550 4150
Wire Wire Line
	5100 4250 5450 4250
Wire Wire Line
	5100 4550 5150 4550
Wire Wire Line
	5150 4550 5150 4800
Wire Wire Line
	5150 4800 4150 4800
Wire Wire Line
	4150 4800 4150 5300
Wire Wire Line
	4500 5300 4500 4900
Wire Wire Line
	4500 4900 5250 4900
Wire Wire Line
	5250 4900 5250 4450
Wire Wire Line
	5250 4450 5100 4450
Wire Wire Line
	5100 4350 5350 4350
Wire Wire Line
	5350 4350 5350 5000
Wire Wire Line
	5350 5000 4850 5000
Wire Wire Line
	4850 5000 4850 5300
Wire Wire Line
	5450 4250 5450 5100
Wire Wire Line
	5450 5100 5200 5100
Wire Wire Line
	5200 5100 5200 5300
Wire Wire Line
	5550 4150 5550 5300
Wire Wire Line
	5900 4050 5900 5300
$Comp
L power:GND #PWR0128
U 1 1 62366B06
P 4150 6050
F 0 "#PWR0128" H 4150 5800 50  0001 C CNN
F 1 "GND" H 4155 5877 50  0000 C CNN
F 2 "" H 4150 6050 50  0001 C CNN
F 3 "" H 4150 6050 50  0001 C CNN
	1    4150 6050
	1    0    0    -1  
$EndComp
Wire Wire Line
	4150 6000 4150 6050
$Comp
L power:GND #PWR0129
U 1 1 6236B5E3
P 4500 6050
F 0 "#PWR0129" H 4500 5800 50  0001 C CNN
F 1 "GND" H 4505 5877 50  0000 C CNN
F 2 "" H 4500 6050 50  0001 C CNN
F 3 "" H 4500 6050 50  0001 C CNN
	1    4500 6050
	1    0    0    -1  
$EndComp
Wire Wire Line
	4500 6000 4500 6050
$Comp
L power:GND #PWR0130
U 1 1 62374FDD
P 4850 6050
F 0 "#PWR0130" H 4850 5800 50  0001 C CNN
F 1 "GND" H 4855 5877 50  0000 C CNN
F 2 "" H 4850 6050 50  0001 C CNN
F 3 "" H 4850 6050 50  0001 C CNN
	1    4850 6050
	1    0    0    -1  
$EndComp
Wire Wire Line
	4850 6000 4850 6050
$Comp
L power:GND #PWR0131
U 1 1 62379C09
P 5200 6050
F 0 "#PWR0131" H 5200 5800 50  0001 C CNN
F 1 "GND" H 5205 5877 50  0000 C CNN
F 2 "" H 5200 6050 50  0001 C CNN
F 3 "" H 5200 6050 50  0001 C CNN
	1    5200 6050
	1    0    0    -1  
$EndComp
Wire Wire Line
	5200 6000 5200 6050
$Comp
L power:GND #PWR0132
U 1 1 6237F34A
P 5550 6050
F 0 "#PWR0132" H 5550 5800 50  0001 C CNN
F 1 "GND" H 5555 5877 50  0000 C CNN
F 2 "" H 5550 6050 50  0001 C CNN
F 3 "" H 5550 6050 50  0001 C CNN
	1    5550 6050
	1    0    0    -1  
$EndComp
Wire Wire Line
	5550 6000 5550 6050
$Comp
L power:GND #PWR0133
U 1 1 623841FD
P 5900 6050
F 0 "#PWR0133" H 5900 5800 50  0001 C CNN
F 1 "GND" H 5905 5877 50  0000 C CNN
F 2 "" H 5900 6050 50  0001 C CNN
F 3 "" H 5900 6050 50  0001 C CNN
	1    5900 6050
	1    0    0    -1  
$EndComp
Wire Wire Line
	5900 6000 5900 6050
$Comp
L Device:R R?
U 1 1 62111DE9
P 5550 5850
AR Path="/6206DF1F/62074DA4/62111DE9" Ref="R?"  Part="1" 
AR Path="/6206DF1F/6226C822/62111DE9" Ref="R?"  Part="1" 
AR Path="/6206DF1F/6226D696/62111DE9" Ref="R?"  Part="1" 
AR Path="/6206DF1F/6226E77B/62111DE9" Ref="R?"  Part="1" 
AR Path="/6206DF1F/62111DE9" Ref="R9"  Part="1" 
F 0 "R9" H 5620 5896 50  0000 L CNN
F 1 "270" H 5620 5805 50  0000 L CNN
F 2 "Resistor_SMD:R_0603_1608Metric_Pad0.98x0.95mm_HandSolder" V 5480 5850 50  0001 C CNN
F 3 "~" H 5550 5850 50  0001 C CNN
	1    5550 5850
	1    0    0    -1  
$EndComp
$Comp
L Device:R R?
U 1 1 6211215D
P 5200 5850
AR Path="/6206DF1F/62074DA4/6211215D" Ref="R?"  Part="1" 
AR Path="/6206DF1F/6226C822/6211215D" Ref="R?"  Part="1" 
AR Path="/6206DF1F/6226D696/6211215D" Ref="R?"  Part="1" 
AR Path="/6206DF1F/6226E77B/6211215D" Ref="R?"  Part="1" 
AR Path="/6206DF1F/6211215D" Ref="R8"  Part="1" 
F 0 "R8" H 5270 5896 50  0000 L CNN
F 1 "270" H 5270 5805 50  0000 L CNN
F 2 "Resistor_SMD:R_0603_1608Metric_Pad0.98x0.95mm_HandSolder" V 5130 5850 50  0001 C CNN
F 3 "~" H 5200 5850 50  0001 C CNN
	1    5200 5850
	1    0    0    -1  
$EndComp
$Comp
L Device:R R?
U 1 1 62112436
P 4850 5850
AR Path="/6206DF1F/62074DA4/62112436" Ref="R?"  Part="1" 
AR Path="/6206DF1F/6226C822/62112436" Ref="R?"  Part="1" 
AR Path="/6206DF1F/6226D696/62112436" Ref="R?"  Part="1" 
AR Path="/6206DF1F/6226E77B/62112436" Ref="R?"  Part="1" 
AR Path="/6206DF1F/62112436" Ref="R7"  Part="1" 
F 0 "R7" H 4920 5896 50  0000 L CNN
F 1 "270" H 4920 5805 50  0000 L CNN
F 2 "Resistor_SMD:R_0603_1608Metric_Pad0.98x0.95mm_HandSolder" V 4780 5850 50  0001 C CNN
F 3 "~" H 4850 5850 50  0001 C CNN
	1    4850 5850
	1    0    0    -1  
$EndComp
$Comp
L Device:R R?
U 1 1 62112749
P 4500 5850
AR Path="/6206DF1F/62074DA4/62112749" Ref="R?"  Part="1" 
AR Path="/6206DF1F/6226C822/62112749" Ref="R?"  Part="1" 
AR Path="/6206DF1F/6226D696/62112749" Ref="R?"  Part="1" 
AR Path="/6206DF1F/6226E77B/62112749" Ref="R?"  Part="1" 
AR Path="/6206DF1F/62112749" Ref="R6"  Part="1" 
F 0 "R6" H 4570 5896 50  0000 L CNN
F 1 "270" H 4570 5805 50  0000 L CNN
F 2 "Resistor_SMD:R_0603_1608Metric_Pad0.98x0.95mm_HandSolder" V 4430 5850 50  0001 C CNN
F 3 "~" H 4500 5850 50  0001 C CNN
	1    4500 5850
	1    0    0    -1  
$EndComp
$Comp
L Device:R R?
U 1 1 621150C3
P 4150 5850
AR Path="/6206DF1F/62074DA4/621150C3" Ref="R?"  Part="1" 
AR Path="/6206DF1F/6226C822/621150C3" Ref="R?"  Part="1" 
AR Path="/6206DF1F/6226D696/621150C3" Ref="R?"  Part="1" 
AR Path="/6206DF1F/6226E77B/621150C3" Ref="R?"  Part="1" 
AR Path="/6206DF1F/621150C3" Ref="R4"  Part="1" 
F 0 "R4" H 4220 5896 50  0000 L CNN
F 1 "270" H 4220 5805 50  0000 L CNN
F 2 "Resistor_SMD:R_0603_1608Metric_Pad0.98x0.95mm_HandSolder" V 4080 5850 50  0001 C CNN
F 3 "~" H 4150 5850 50  0001 C CNN
	1    4150 5850
	1    0    0    -1  
$EndComp
Wire Wire Line
	4500 5600 4500 5700
Wire Wire Line
	2150 1600 2900 1600
Wire Wire Line
	2900 1600 2900 2900
Wire Wire Line
	2150 1700 2450 1700
Wire Wire Line
	2850 1700 2850 3000
Wire Wire Line
	2150 2200 2800 2200
Wire Wire Line
	2800 2200 2800 3100
Wire Wire Line
	2750 2300 2150 2300
Wire Wire Line
	2750 2300 2750 3200
Wire Wire Line
	2150 2850 2700 2850
Wire Wire Line
	2700 2850 2700 3300
Wire Wire Line
	2150 2950 2650 2950
Wire Wire Line
	2650 2950 2650 3400
Wire Wire Line
	2150 3450 2550 3450
Wire Wire Line
	2550 3450 2550 3500
Wire Wire Line
	2550 3500 3650 3500
Wire Wire Line
	2150 3550 2500 3550
Wire Wire Line
	2500 3550 2500 3600
Wire Wire Line
	2500 3600 3650 3600
$Comp
L Connector:TestPoint TP2
U 1 1 621B6A1D
P 2900 1400
F 0 "TP2" H 2958 1518 50  0000 L CNN
F 1 "F0_A" H 2958 1427 50  0000 L CNN
F 2 "TestPoint:TestPoint_Pad_2.5x2.5mm" H 3100 1400 50  0001 C CNN
F 3 "~" H 3100 1400 50  0001 C CNN
	1    2900 1400
	1    0    0    -1  
$EndComp
$Comp
L Connector:TestPoint TP1
U 1 1 621B6E8C
P 2450 1400
F 0 "TP1" H 2508 1518 50  0000 L CNN
F 1 "F0_B" H 2508 1427 50  0000 L CNN
F 2 "TestPoint:TestPoint_Pad_2.5x2.5mm" H 2650 1400 50  0001 C CNN
F 3 "~" H 2650 1400 50  0001 C CNN
	1    2450 1400
	1    0    0    -1  
$EndComp
Wire Wire Line
	2900 1400 2900 1600
Connection ~ 2900 1600
Wire Wire Line
	2450 1400 2450 1700
Connection ~ 2450 1700
Wire Wire Line
	2450 1700 2850 1700
$Comp
L Connector:TestPoint TP3
U 1 1 621C3C88
P 3450 1100
F 0 "TP3" H 3508 1218 50  0000 L CNN
F 1 "RESET" H 3508 1127 50  0000 L CNN
F 2 "TestPoint:TestPoint_Pad_2.5x2.5mm" H 3650 1100 50  0001 C CNN
F 3 "~" H 3650 1100 50  0001 C CNN
	1    3450 1100
	1    0    0    -1  
$EndComp
Wire Wire Line
	3450 1100 3450 1350
Connection ~ 3450 1350
Wire Wire Line
	7250 2150 8000 2150
Wire Wire Line
	7250 2250 8400 2250
Wire Wire Line
	5750 2150 6450 2150
Wire Wire Line
	5750 2800 5750 2150
Wire Wire Line
	5100 2800 5750 2800
Wire Wire Line
	5100 2700 5400 2700
Wire Wire Line
	5400 2050 5400 2700
Wire Wire Line
	5400 2050 6450 2050
Text Label 7250 4200 0    50   ~ 0
CS_IND
Connection ~ 10250 4900
Wire Wire Line
	10250 4800 10250 4900
$Comp
L power:+3V3 #PWR0121
U 1 1 6227598A
P 10250 4800
F 0 "#PWR0121" H 10250 4650 50  0001 C CNN
F 1 "+3V3" H 10265 4973 50  0000 C CNN
F 2 "" H 10250 4800 50  0001 C CNN
F 3 "" H 10250 4800 50  0001 C CNN
	1    10250 4800
	1    0    0    -1  
$EndComp
Wire Wire Line
	8550 4900 8200 4900
Wire Wire Line
	8550 4850 8550 4900
$Comp
L power:+3V3 #PWR0120
U 1 1 6227404A
P 8550 4850
F 0 "#PWR0120" H 8550 4700 50  0001 C CNN
F 1 "+3V3" H 8565 5023 50  0000 C CNN
F 2 "" H 8550 4850 50  0001 C CNN
F 3 "" H 8550 4850 50  0001 C CNN
	1    8550 4850
	1    0    0    -1  
$EndComp
Wire Wire Line
	10150 4000 9900 4000
Wire Wire Line
	10150 3750 10150 4000
$Comp
L power:+3V3 #PWR0119
U 1 1 6227168B
P 10150 3750
F 0 "#PWR0119" H 10150 3600 50  0001 C CNN
F 1 "+3V3" H 10165 3923 50  0000 C CNN
F 2 "" H 10150 3750 50  0001 C CNN
F 3 "" H 10150 3750 50  0001 C CNN
	1    10150 3750
	1    0    0    -1  
$EndComp
Wire Wire Line
	10250 3900 10250 4100
Wire Wire Line
	9900 5000 10250 5000
Wire Wire Line
	10250 4900 10250 5000
Wire Wire Line
	9900 4900 10250 4900
$Sheet
S 9250 4800 650  800 
U 6226E77B
F0 "Volume Indicator" 50
F1 "lightbar.sch" 50
F2 "SCK" I L 9250 5100 50 
F3 "~CS" I L 9250 5200 50 
F4 "~RESET" I L 9250 5300 50 
F5 "A1" I R 9900 4900 50 
F6 "A0" I R 9900 5000 50 
F7 "SI" I L 9250 4900 50 
F8 "SO" O L 9250 5000 50 
$EndSheet
Wire Wire Line
	9900 3900 10250 3900
$Comp
L power:GND #PWR0118
U 1 1 6226D6A5
P 10250 4100
F 0 "#PWR0118" H 10250 3850 50  0001 C CNN
F 1 "GND" H 10255 3927 50  0000 C CNN
F 2 "" H 10250 4100 50  0001 C CNN
F 3 "" H 10250 4100 50  0001 C CNN
	1    10250 4100
	1    0    0    -1  
$EndComp
Wire Wire Line
	8550 5000 8550 5100
Wire Wire Line
	8200 5000 8550 5000
$Comp
L power:GND #PWR0117
U 1 1 6226C831
P 8550 5100
F 0 "#PWR0117" H 8550 4850 50  0001 C CNN
F 1 "GND" H 8555 4927 50  0000 C CNN
F 2 "" H 8550 5100 50  0001 C CNN
F 3 "" H 8550 5100 50  0001 C CNN
	1    8550 5100
	1    0    0    -1  
$EndComp
$Sheet
S 7550 4800 650  800 
U 6226C822
F0 "Gain Indicator" 50
F1 "lightbar.sch" 50
F2 "SCK" I L 7550 5100 50 
F3 "~CS" I L 7550 5200 50 
F4 "~RESET" I L 7550 5300 50 
F5 "A1" I R 8200 4900 50 
F6 "A0" I R 8200 5000 50 
F7 "SI" I L 7550 4900 50 
F8 "SO" O L 7550 5000 50 
$EndSheet
Wire Wire Line
	8550 4000 8550 4100
Connection ~ 8550 4000
Wire Wire Line
	8200 4000 8550 4000
Wire Wire Line
	8550 3900 8550 4000
Wire Wire Line
	8200 3900 8550 3900
$Comp
L power:GND #PWR0116
U 1 1 62269BDC
P 8550 4100
F 0 "#PWR0116" H 8550 3850 50  0001 C CNN
F 1 "GND" H 8555 3927 50  0000 C CNN
F 2 "" H 8550 4100 50  0001 C CNN
F 3 "" H 8550 4100 50  0001 C CNN
	1    8550 4100
	1    0    0    -1  
$EndComp
Text Label 7250 4300 0    50   ~ 0
RESET
Text Label 7250 4100 0    50   ~ 0
SCK
$Sheet
S 7550 3800 650  800 
U 62074DA4
F0 "F0 Indicator" 50
F1 "lightbar.sch" 50
F2 "SCK" I L 7550 4100 50 
F3 "~CS" I L 7550 4200 50 
F4 "~RESET" I L 7550 4300 50 
F5 "A1" I R 8200 3900 50 
F6 "A0" I R 8200 4000 50 
F7 "SI" I L 7550 3900 50 
F8 "SO" O L 7550 4000 50 
$EndSheet
Text Label 7250 4000 0    50   ~ 0
UC_SDI
Text Label 7250 3900 0    50   ~ 0
UC_SDO
Wire Wire Line
	7250 4000 7550 4000
Wire Wire Line
	7250 3900 7550 3900
Wire Wire Line
	7250 4100 7550 4100
Wire Wire Line
	7250 4300 7550 4300
Wire Wire Line
	7250 4200 7550 4200
$Sheet
S 9250 3800 650  800 
U 6226D696
F0 "Q Indicator" 50
F1 "lightbar.sch" 50
F2 "SCK" I L 9250 4100 50 
F3 "~CS" I L 9250 4200 50 
F4 "~RESET" I L 9250 4300 50 
F5 "A1" I R 9900 3900 50 
F6 "A0" I R 9900 4000 50 
F7 "SI" I L 9250 3900 50 
F8 "SO" O L 9250 4000 50 
$EndSheet
Text Label 7250 5200 0    50   ~ 0
CS_IND
Text Label 7250 5300 0    50   ~ 0
RESET
Text Label 7250 5100 0    50   ~ 0
SCK
Text Label 7250 5000 0    50   ~ 0
UC_SDI
Text Label 7250 4900 0    50   ~ 0
UC_SDO
Wire Wire Line
	7250 5000 7550 5000
Wire Wire Line
	7250 4900 7550 4900
Wire Wire Line
	7250 5100 7550 5100
Wire Wire Line
	7250 5300 7550 5300
Wire Wire Line
	7250 5200 7550 5200
Text Label 8950 4200 0    50   ~ 0
CS_IND
Text Label 8950 4300 0    50   ~ 0
RESET
Text Label 8950 4100 0    50   ~ 0
SCK
Text Label 8950 4000 0    50   ~ 0
UC_SDI
Text Label 8950 3900 0    50   ~ 0
UC_SDO
Wire Wire Line
	8950 4000 9250 4000
Wire Wire Line
	8950 3900 9250 3900
Wire Wire Line
	8950 4100 9250 4100
Wire Wire Line
	8950 4300 9250 4300
Wire Wire Line
	8950 4200 9250 4200
Text Label 8950 5200 0    50   ~ 0
CS_IND
Text Label 8950 5300 0    50   ~ 0
RESET
Text Label 8950 5100 0    50   ~ 0
SCK
Text Label 8950 5000 0    50   ~ 0
UC_SDI
Text Label 8950 4900 0    50   ~ 0
UC_SDO
Wire Wire Line
	8950 5000 9250 5000
Wire Wire Line
	8950 4900 9250 4900
Wire Wire Line
	8950 5100 9250 5100
Wire Wire Line
	8950 5300 9250 5300
Wire Wire Line
	8950 5200 9250 5200
Text Label 7850 2150 2    50   ~ 0
UC_SDO
Text Label 7850 2250 2    50   ~ 0
UC_SDI
Text HLabel 5250 3350 2    50   Output ~ 0
CS_DSP
Wire Wire Line
	7250 2050 7850 2050
Wire Wire Line
	5900 2250 6450 2250
Text HLabel 5250 3450 2    50   Output ~ 0
CLKOUT
Wire Wire Line
	5100 3450 5250 3450
$EndSCHEMATC
