EESchema Schematic File Version 4
EELAYER 30 0
EELAYER END
$Descr A4 11693 8268
encoding utf-8
Sheet 12 15
Title ""
Date ""
Rev ""
Comp "ECE445 Team 22"
Comment1 ""
Comment2 ""
Comment3 ""
Comment4 ""
$EndDescr
$Comp
L CustomParts:MCP23S08_SO U6
U 1 1 621CC7F0
P 4550 4050
AR Path="/6206DF1F/62074DA4/621CC7F0" Ref="U6"  Part="1" 
AR Path="/6206DF1F/6226C822/621CC7F0" Ref="U10"  Part="1" 
AR Path="/6206DF1F/6226D696/621CC7F0" Ref="U11"  Part="1" 
AR Path="/6206DF1F/6226E77B/621CC7F0" Ref="U12"  Part="1" 
F 0 "U11" H 4600 5100 50  0000 C CNN
F 1 "MCP23S08_SO" H 5200 5100 50  0000 C CNN
F 2 "Package_SO:SOIC-18W_7.5x11.6mm_P1.27mm" H 4550 4050 50  0001 C CNN
F 3 "" H 4550 4050 50  0001 C CNN
	1    4550 4050
	1    0    0    -1  
$EndComp
$Comp
L Device:LED D8
U 1 1 621CE400
P 5450 4200
AR Path="/6206DF1F/62074DA4/621CE400" Ref="D8"  Part="1" 
AR Path="/6206DF1F/6226C822/621CE400" Ref="D16"  Part="1" 
AR Path="/6206DF1F/6226D696/621CE400" Ref="D24"  Part="1" 
AR Path="/6206DF1F/6226E77B/621CE400" Ref="D32"  Part="1" 
F 0 "D24" V 5489 4082 50  0000 R CNN
F 1 "LED" V 5398 4082 50  0000 R CNN
F 2 "LED_SMD:LED_0603_1608Metric_Pad1.05x0.95mm_HandSolder" H 5450 4200 50  0001 C CNN
F 3 "~" H 5450 4200 50  0001 C CNN
	1    5450 4200
	0    -1   -1   0   
$EndComp
$Comp
L Device:R R21
U 1 1 621D2CAB
P 5450 4600
AR Path="/6206DF1F/62074DA4/621D2CAB" Ref="R21"  Part="1" 
AR Path="/6206DF1F/6226C822/621D2CAB" Ref="R50"  Part="1" 
AR Path="/6206DF1F/6226D696/621D2CAB" Ref="R58"  Part="1" 
AR Path="/6206DF1F/6226E77B/621D2CAB" Ref="R66"  Part="1" 
F 0 "R58" H 5520 4646 50  0000 L CNN
F 1 "270" H 5520 4555 50  0000 L CNN
F 2 "Resistor_SMD:R_0603_1608Metric_Pad0.98x0.95mm_HandSolder" V 5380 4600 50  0001 C CNN
F 3 "~" H 5450 4600 50  0001 C CNN
	1    5450 4600
	1    0    0    -1  
$EndComp
Wire Wire Line
	5450 4350 5450 4450
$Comp
L power:GND #PWR0160
U 1 1 621D791B
P 5450 4850
AR Path="/6206DF1F/62074DA4/621D791B" Ref="#PWR0160"  Part="1" 
AR Path="/6206DF1F/6226C822/621D791B" Ref="#PWR0198"  Part="1" 
AR Path="/6206DF1F/6226D696/621D791B" Ref="#PWR0209"  Part="1" 
AR Path="/6206DF1F/6226E77B/621D791B" Ref="#PWR0220"  Part="1" 
F 0 "#PWR0209" H 5450 4600 50  0001 C CNN
F 1 "GND" H 5455 4677 50  0000 C CNN
F 2 "" H 5450 4850 50  0001 C CNN
F 3 "" H 5450 4850 50  0001 C CNN
	1    5450 4850
	1    0    0    -1  
$EndComp
Wire Wire Line
	5450 4750 5450 4850
Text Notes 2200 4400 0    50   ~ 0
One chip select can address up to four expanders \n    using the address bits in the control byte\nInterrupt is not needed; only outputs used
$Comp
L Device:LED D9
U 1 1 621DE5EC
P 5800 4200
AR Path="/6206DF1F/62074DA4/621DE5EC" Ref="D9"  Part="1" 
AR Path="/6206DF1F/6226C822/621DE5EC" Ref="D17"  Part="1" 
AR Path="/6206DF1F/6226D696/621DE5EC" Ref="D25"  Part="1" 
AR Path="/6206DF1F/6226E77B/621DE5EC" Ref="D33"  Part="1" 
F 0 "D25" V 5839 4082 50  0000 R CNN
F 1 "LED" V 5748 4082 50  0000 R CNN
F 2 "LED_SMD:LED_0603_1608Metric_Pad1.05x0.95mm_HandSolder" H 5800 4200 50  0001 C CNN
F 3 "~" H 5800 4200 50  0001 C CNN
	1    5800 4200
	0    -1   -1   0   
$EndComp
Wire Wire Line
	5800 4350 5800 4450
$Comp
L power:GND #PWR0161
U 1 1 621DE5F9
P 5800 4850
AR Path="/6206DF1F/62074DA4/621DE5F9" Ref="#PWR0161"  Part="1" 
AR Path="/6206DF1F/6226C822/621DE5F9" Ref="#PWR0199"  Part="1" 
AR Path="/6206DF1F/6226D696/621DE5F9" Ref="#PWR0210"  Part="1" 
AR Path="/6206DF1F/6226E77B/621DE5F9" Ref="#PWR0221"  Part="1" 
F 0 "#PWR0210" H 5800 4600 50  0001 C CNN
F 1 "GND" H 5805 4677 50  0000 C CNN
F 2 "" H 5800 4850 50  0001 C CNN
F 3 "" H 5800 4850 50  0001 C CNN
	1    5800 4850
	1    0    0    -1  
$EndComp
Wire Wire Line
	5800 4750 5800 4850
$Comp
L Device:LED D10
U 1 1 621DFD98
P 6150 4200
AR Path="/6206DF1F/62074DA4/621DFD98" Ref="D10"  Part="1" 
AR Path="/6206DF1F/6226C822/621DFD98" Ref="D18"  Part="1" 
AR Path="/6206DF1F/6226D696/621DFD98" Ref="D26"  Part="1" 
AR Path="/6206DF1F/6226E77B/621DFD98" Ref="D34"  Part="1" 
F 0 "D26" V 6189 4082 50  0000 R CNN
F 1 "LED" V 6098 4082 50  0000 R CNN
F 2 "LED_SMD:LED_0603_1608Metric_Pad1.05x0.95mm_HandSolder" H 6150 4200 50  0001 C CNN
F 3 "~" H 6150 4200 50  0001 C CNN
	1    6150 4200
	0    -1   -1   0   
$EndComp
Wire Wire Line
	6150 4350 6150 4450
$Comp
L power:GND #PWR0162
U 1 1 621DFDA5
P 6150 4850
AR Path="/6206DF1F/62074DA4/621DFDA5" Ref="#PWR0162"  Part="1" 
AR Path="/6206DF1F/6226C822/621DFDA5" Ref="#PWR0200"  Part="1" 
AR Path="/6206DF1F/6226D696/621DFDA5" Ref="#PWR0211"  Part="1" 
AR Path="/6206DF1F/6226E77B/621DFDA5" Ref="#PWR0222"  Part="1" 
F 0 "#PWR0211" H 6150 4600 50  0001 C CNN
F 1 "GND" H 6155 4677 50  0000 C CNN
F 2 "" H 6150 4850 50  0001 C CNN
F 3 "" H 6150 4850 50  0001 C CNN
	1    6150 4850
	1    0    0    -1  
$EndComp
Wire Wire Line
	6150 4750 6150 4850
$Comp
L Device:LED D11
U 1 1 621DFDAC
P 6500 4200
AR Path="/6206DF1F/62074DA4/621DFDAC" Ref="D11"  Part="1" 
AR Path="/6206DF1F/6226C822/621DFDAC" Ref="D19"  Part="1" 
AR Path="/6206DF1F/6226D696/621DFDAC" Ref="D27"  Part="1" 
AR Path="/6206DF1F/6226E77B/621DFDAC" Ref="D35"  Part="1" 
F 0 "D27" V 6539 4082 50  0000 R CNN
F 1 "LED" V 6448 4082 50  0000 R CNN
F 2 "LED_SMD:LED_0603_1608Metric_Pad1.05x0.95mm_HandSolder" H 6500 4200 50  0001 C CNN
F 3 "~" H 6500 4200 50  0001 C CNN
	1    6500 4200
	0    -1   -1   0   
$EndComp
Wire Wire Line
	6500 4350 6500 4450
$Comp
L power:GND #PWR0163
U 1 1 621DFDB9
P 6500 4850
AR Path="/6206DF1F/62074DA4/621DFDB9" Ref="#PWR0163"  Part="1" 
AR Path="/6206DF1F/6226C822/621DFDB9" Ref="#PWR0201"  Part="1" 
AR Path="/6206DF1F/6226D696/621DFDB9" Ref="#PWR0212"  Part="1" 
AR Path="/6206DF1F/6226E77B/621DFDB9" Ref="#PWR0223"  Part="1" 
F 0 "#PWR0212" H 6500 4600 50  0001 C CNN
F 1 "GND" H 6505 4677 50  0000 C CNN
F 2 "" H 6500 4850 50  0001 C CNN
F 3 "" H 6500 4850 50  0001 C CNN
	1    6500 4850
	1    0    0    -1  
$EndComp
Wire Wire Line
	6500 4750 6500 4850
$Comp
L Device:LED D12
U 1 1 621E0E84
P 6850 4200
AR Path="/6206DF1F/62074DA4/621E0E84" Ref="D12"  Part="1" 
AR Path="/6206DF1F/6226C822/621E0E84" Ref="D20"  Part="1" 
AR Path="/6206DF1F/6226D696/621E0E84" Ref="D28"  Part="1" 
AR Path="/6206DF1F/6226E77B/621E0E84" Ref="D36"  Part="1" 
F 0 "D28" V 6889 4082 50  0000 R CNN
F 1 "LED" V 6798 4082 50  0000 R CNN
F 2 "LED_SMD:LED_0603_1608Metric_Pad1.05x0.95mm_HandSolder" H 6850 4200 50  0001 C CNN
F 3 "~" H 6850 4200 50  0001 C CNN
	1    6850 4200
	0    -1   -1   0   
$EndComp
Wire Wire Line
	6850 4350 6850 4450
$Comp
L power:GND #PWR0164
U 1 1 621E0E91
P 6850 4850
AR Path="/6206DF1F/62074DA4/621E0E91" Ref="#PWR0164"  Part="1" 
AR Path="/6206DF1F/6226C822/621E0E91" Ref="#PWR0202"  Part="1" 
AR Path="/6206DF1F/6226D696/621E0E91" Ref="#PWR0213"  Part="1" 
AR Path="/6206DF1F/6226E77B/621E0E91" Ref="#PWR0224"  Part="1" 
F 0 "#PWR0213" H 6850 4600 50  0001 C CNN
F 1 "GND" H 6855 4677 50  0000 C CNN
F 2 "" H 6850 4850 50  0001 C CNN
F 3 "" H 6850 4850 50  0001 C CNN
	1    6850 4850
	1    0    0    -1  
$EndComp
Wire Wire Line
	6850 4750 6850 4850
$Comp
L power:GND #PWR0165
U 1 1 621E0EA5
P 7200 4850
AR Path="/6206DF1F/62074DA4/621E0EA5" Ref="#PWR0165"  Part="1" 
AR Path="/6206DF1F/6226C822/621E0EA5" Ref="#PWR0203"  Part="1" 
AR Path="/6206DF1F/6226D696/621E0EA5" Ref="#PWR0214"  Part="1" 
AR Path="/6206DF1F/6226E77B/621E0EA5" Ref="#PWR0225"  Part="1" 
F 0 "#PWR0214" H 7200 4600 50  0001 C CNN
F 1 "GND" H 7205 4677 50  0000 C CNN
F 2 "" H 7200 4850 50  0001 C CNN
F 3 "" H 7200 4850 50  0001 C CNN
	1    7200 4850
	1    0    0    -1  
$EndComp
Wire Wire Line
	7200 4750 7200 4850
$Comp
L Device:LED D14
U 1 1 621E2202
P 7550 4200
AR Path="/6206DF1F/62074DA4/621E2202" Ref="D14"  Part="1" 
AR Path="/6206DF1F/6226C822/621E2202" Ref="D22"  Part="1" 
AR Path="/6206DF1F/6226D696/621E2202" Ref="D30"  Part="1" 
AR Path="/6206DF1F/6226E77B/621E2202" Ref="D38"  Part="1" 
F 0 "D30" V 7589 4082 50  0000 R CNN
F 1 "LED" V 7498 4082 50  0000 R CNN
F 2 "LED_SMD:LED_0603_1608Metric_Pad1.05x0.95mm_HandSolder" H 7550 4200 50  0001 C CNN
F 3 "~" H 7550 4200 50  0001 C CNN
	1    7550 4200
	0    -1   -1   0   
$EndComp
Wire Wire Line
	7550 4350 7550 4450
$Comp
L power:GND #PWR0166
U 1 1 621E220F
P 7550 4850
AR Path="/6206DF1F/62074DA4/621E220F" Ref="#PWR0166"  Part="1" 
AR Path="/6206DF1F/6226C822/621E220F" Ref="#PWR0204"  Part="1" 
AR Path="/6206DF1F/6226D696/621E220F" Ref="#PWR0215"  Part="1" 
AR Path="/6206DF1F/6226E77B/621E220F" Ref="#PWR0226"  Part="1" 
F 0 "#PWR0215" H 7550 4600 50  0001 C CNN
F 1 "GND" H 7555 4677 50  0000 C CNN
F 2 "" H 7550 4850 50  0001 C CNN
F 3 "" H 7550 4850 50  0001 C CNN
	1    7550 4850
	1    0    0    -1  
$EndComp
Wire Wire Line
	7550 4750 7550 4850
$Comp
L Device:LED D15
U 1 1 621E2216
P 7900 4200
AR Path="/6206DF1F/62074DA4/621E2216" Ref="D15"  Part="1" 
AR Path="/6206DF1F/6226C822/621E2216" Ref="D23"  Part="1" 
AR Path="/6206DF1F/6226D696/621E2216" Ref="D31"  Part="1" 
AR Path="/6206DF1F/6226E77B/621E2216" Ref="D39"  Part="1" 
F 0 "D31" V 7939 4082 50  0000 R CNN
F 1 "LED" V 7848 4082 50  0000 R CNN
F 2 "LED_SMD:LED_0603_1608Metric_Pad1.05x0.95mm_HandSolder" H 7900 4200 50  0001 C CNN
F 3 "~" H 7900 4200 50  0001 C CNN
	1    7900 4200
	0    -1   -1   0   
$EndComp
Wire Wire Line
	7900 4350 7900 4450
$Comp
L power:GND #PWR0167
U 1 1 621E2223
P 7900 4850
AR Path="/6206DF1F/62074DA4/621E2223" Ref="#PWR0167"  Part="1" 
AR Path="/6206DF1F/6226C822/621E2223" Ref="#PWR0205"  Part="1" 
AR Path="/6206DF1F/6226D696/621E2223" Ref="#PWR0216"  Part="1" 
AR Path="/6206DF1F/6226E77B/621E2223" Ref="#PWR0227"  Part="1" 
F 0 "#PWR0216" H 7900 4600 50  0001 C CNN
F 1 "GND" H 7905 4677 50  0000 C CNN
F 2 "" H 7900 4850 50  0001 C CNN
F 3 "" H 7900 4850 50  0001 C CNN
	1    7900 4850
	1    0    0    -1  
$EndComp
Wire Wire Line
	7900 4750 7900 4850
Wire Wire Line
	5450 3900 5450 4050
Wire Wire Line
	5800 3800 5800 4050
Wire Wire Line
	6150 3700 6150 4050
Wire Wire Line
	6500 3600 6500 4050
Wire Wire Line
	6850 3500 6850 4050
Wire Wire Line
	7550 3300 7550 4050
Wire Wire Line
	7900 4050 7900 3200
Wire Wire Line
	5350 3900 5450 3900
Wire Wire Line
	5350 3800 5800 3800
Wire Wire Line
	5350 3700 6150 3700
Wire Wire Line
	5350 3600 6500 3600
Wire Wire Line
	5350 3500 6850 3500
Wire Wire Line
	5350 3400 7200 3400
Wire Wire Line
	5350 3300 7550 3300
Wire Wire Line
	5350 3200 7900 3200
$Comp
L Device:LED D13
U 1 1 621F5C29
P 7200 4200
AR Path="/6206DF1F/62074DA4/621F5C29" Ref="D13"  Part="1" 
AR Path="/6206DF1F/6226C822/621F5C29" Ref="D21"  Part="1" 
AR Path="/6206DF1F/6226D696/621F5C29" Ref="D29"  Part="1" 
AR Path="/6206DF1F/6226E77B/621F5C29" Ref="D37"  Part="1" 
F 0 "D29" V 7239 4082 50  0000 R CNN
F 1 "LED" V 7148 4082 50  0000 R CNN
F 2 "LED_SMD:LED_0603_1608Metric_Pad1.05x0.95mm_HandSolder" H 7200 4200 50  0001 C CNN
F 3 "~" H 7200 4200 50  0001 C CNN
	1    7200 4200
	0    -1   -1   0   
$EndComp
Wire Wire Line
	7200 3400 7200 4050
Wire Wire Line
	7200 4350 7200 4450
$Comp
L power:GND #PWR0168
U 1 1 621F87E5
P 4900 4250
AR Path="/6206DF1F/62074DA4/621F87E5" Ref="#PWR0168"  Part="1" 
AR Path="/6206DF1F/6226C822/621F87E5" Ref="#PWR0206"  Part="1" 
AR Path="/6206DF1F/6226D696/621F87E5" Ref="#PWR0217"  Part="1" 
AR Path="/6206DF1F/6226E77B/621F87E5" Ref="#PWR0228"  Part="1" 
F 0 "#PWR0217" H 4900 4000 50  0001 C CNN
F 1 "GND" H 4905 4077 50  0000 C CNN
F 2 "" H 4900 4250 50  0001 C CNN
F 3 "" H 4900 4250 50  0001 C CNN
	1    4900 4250
	1    0    0    -1  
$EndComp
Wire Wire Line
	4900 4150 4900 4250
$Comp
L Device:C C18
U 1 1 621FA011
P 4650 2650
AR Path="/6206DF1F/62074DA4/621FA011" Ref="C18"  Part="1" 
AR Path="/6206DF1F/6226C822/621FA011" Ref="C25"  Part="1" 
AR Path="/6206DF1F/6226D696/621FA011" Ref="C26"  Part="1" 
AR Path="/6206DF1F/6226E77B/621FA011" Ref="C27"  Part="1" 
F 0 "C26" V 4398 2650 50  0000 C CNN
F 1 "0.1u" V 4489 2650 50  0000 C CNN
F 2 "Capacitor_SMD:C_0603_1608Metric_Pad1.08x0.95mm_HandSolder" H 4688 2500 50  0001 C CNN
F 3 "~" H 4650 2650 50  0001 C CNN
	1    4650 2650
	0    1    1    0   
$EndComp
$Comp
L power:GND #PWR0169
U 1 1 621FB83F
P 4350 2750
AR Path="/6206DF1F/62074DA4/621FB83F" Ref="#PWR0169"  Part="1" 
AR Path="/6206DF1F/6226C822/621FB83F" Ref="#PWR0207"  Part="1" 
AR Path="/6206DF1F/6226D696/621FB83F" Ref="#PWR0218"  Part="1" 
AR Path="/6206DF1F/6226E77B/621FB83F" Ref="#PWR0229"  Part="1" 
F 0 "#PWR0218" H 4350 2500 50  0001 C CNN
F 1 "GND" H 4355 2577 50  0000 C CNN
F 2 "" H 4350 2750 50  0001 C CNN
F 3 "" H 4350 2750 50  0001 C CNN
	1    4350 2750
	1    0    0    -1  
$EndComp
Wire Wire Line
	4350 2750 4350 2650
Wire Wire Line
	4350 2650 4500 2650
Wire Wire Line
	4800 2650 4900 2650
Wire Wire Line
	4900 2650 4900 2950
$Comp
L power:+3V3 #PWR0170
U 1 1 621FFB54
P 4900 2550
AR Path="/6206DF1F/62074DA4/621FFB54" Ref="#PWR0170"  Part="1" 
AR Path="/6206DF1F/6226C822/621FFB54" Ref="#PWR0208"  Part="1" 
AR Path="/6206DF1F/6226D696/621FFB54" Ref="#PWR0219"  Part="1" 
AR Path="/6206DF1F/6226E77B/621FFB54" Ref="#PWR0230"  Part="1" 
F 0 "#PWR0219" H 4900 2400 50  0001 C CNN
F 1 "+3V3" H 4915 2723 50  0000 C CNN
F 2 "" H 4900 2550 50  0001 C CNN
F 3 "" H 4900 2550 50  0001 C CNN
	1    4900 2550
	1    0    0    -1  
$EndComp
Wire Wire Line
	4900 2550 4900 2650
Connection ~ 4900 2650
Wire Wire Line
	4450 3600 4000 3600
Wire Wire Line
	4450 3450 4000 3450
Wire Wire Line
	4450 3350 4000 3350
Wire Wire Line
	4450 3250 4000 3250
Wire Wire Line
	4450 3150 4000 3150
Text HLabel 4000 3150 0    50   Input ~ 0
SCK
Text HLabel 4000 3250 0    50   Input ~ 0
SI
Text HLabel 4000 3350 0    50   Output ~ 0
SO
Text HLabel 4000 3450 0    50   Input ~ 0
~CS
Text HLabel 4000 3600 0    50   Input ~ 0
~RESET
Text HLabel 4000 3850 0    50   Input ~ 0
A1
Text HLabel 4000 3950 0    50   Input ~ 0
A0
Wire Wire Line
	4000 3850 4450 3850
Wire Wire Line
	4450 3950 4000 3950
NoConn ~ 4450 3700
$Comp
L Device:R R22
U 1 1 6210E224
P 5800 4600
AR Path="/6206DF1F/62074DA4/6210E224" Ref="R22"  Part="1" 
AR Path="/6206DF1F/6226C822/6210E224" Ref="R51"  Part="1" 
AR Path="/6206DF1F/6226D696/6210E224" Ref="R59"  Part="1" 
AR Path="/6206DF1F/6226E77B/6210E224" Ref="R67"  Part="1" 
F 0 "R59" H 5870 4646 50  0000 L CNN
F 1 "270" H 5870 4555 50  0000 L CNN
F 2 "Resistor_SMD:R_0603_1608Metric_Pad0.98x0.95mm_HandSolder" V 5730 4600 50  0001 C CNN
F 3 "~" H 5800 4600 50  0001 C CNN
	1    5800 4600
	1    0    0    -1  
$EndComp
$Comp
L Device:R R23
U 1 1 6210E503
P 6150 4600
AR Path="/6206DF1F/62074DA4/6210E503" Ref="R23"  Part="1" 
AR Path="/6206DF1F/6226C822/6210E503" Ref="R52"  Part="1" 
AR Path="/6206DF1F/6226D696/6210E503" Ref="R60"  Part="1" 
AR Path="/6206DF1F/6226E77B/6210E503" Ref="R68"  Part="1" 
F 0 "R60" H 6220 4646 50  0000 L CNN
F 1 "270" H 6220 4555 50  0000 L CNN
F 2 "Resistor_SMD:R_0603_1608Metric_Pad0.98x0.95mm_HandSolder" V 6080 4600 50  0001 C CNN
F 3 "~" H 6150 4600 50  0001 C CNN
	1    6150 4600
	1    0    0    -1  
$EndComp
$Comp
L Device:R R24
U 1 1 6210E9C2
P 6500 4600
AR Path="/6206DF1F/62074DA4/6210E9C2" Ref="R24"  Part="1" 
AR Path="/6206DF1F/6226C822/6210E9C2" Ref="R53"  Part="1" 
AR Path="/6206DF1F/6226D696/6210E9C2" Ref="R61"  Part="1" 
AR Path="/6206DF1F/6226E77B/6210E9C2" Ref="R69"  Part="1" 
F 0 "R61" H 6570 4646 50  0000 L CNN
F 1 "270" H 6570 4555 50  0000 L CNN
F 2 "Resistor_SMD:R_0603_1608Metric_Pad0.98x0.95mm_HandSolder" V 6430 4600 50  0001 C CNN
F 3 "~" H 6500 4600 50  0001 C CNN
	1    6500 4600
	1    0    0    -1  
$EndComp
$Comp
L Device:R R25
U 1 1 6210ED27
P 6850 4600
AR Path="/6206DF1F/62074DA4/6210ED27" Ref="R25"  Part="1" 
AR Path="/6206DF1F/6226C822/6210ED27" Ref="R54"  Part="1" 
AR Path="/6206DF1F/6226D696/6210ED27" Ref="R62"  Part="1" 
AR Path="/6206DF1F/6226E77B/6210ED27" Ref="R70"  Part="1" 
F 0 "R62" H 6920 4646 50  0000 L CNN
F 1 "270" H 6920 4555 50  0000 L CNN
F 2 "Resistor_SMD:R_0603_1608Metric_Pad0.98x0.95mm_HandSolder" V 6780 4600 50  0001 C CNN
F 3 "~" H 6850 4600 50  0001 C CNN
	1    6850 4600
	1    0    0    -1  
$EndComp
$Comp
L Device:R R26
U 1 1 6210F120
P 7200 4600
AR Path="/6206DF1F/62074DA4/6210F120" Ref="R26"  Part="1" 
AR Path="/6206DF1F/6226C822/6210F120" Ref="R55"  Part="1" 
AR Path="/6206DF1F/6226D696/6210F120" Ref="R63"  Part="1" 
AR Path="/6206DF1F/6226E77B/6210F120" Ref="R71"  Part="1" 
F 0 "R63" H 7270 4646 50  0000 L CNN
F 1 "270" H 7270 4555 50  0000 L CNN
F 2 "Resistor_SMD:R_0603_1608Metric_Pad0.98x0.95mm_HandSolder" V 7130 4600 50  0001 C CNN
F 3 "~" H 7200 4600 50  0001 C CNN
	1    7200 4600
	1    0    0    -1  
$EndComp
$Comp
L Device:R R27
U 1 1 6210F420
P 7550 4600
AR Path="/6206DF1F/62074DA4/6210F420" Ref="R27"  Part="1" 
AR Path="/6206DF1F/6226C822/6210F420" Ref="R56"  Part="1" 
AR Path="/6206DF1F/6226D696/6210F420" Ref="R64"  Part="1" 
AR Path="/6206DF1F/6226E77B/6210F420" Ref="R72"  Part="1" 
F 0 "R64" H 7620 4646 50  0000 L CNN
F 1 "270" H 7620 4555 50  0000 L CNN
F 2 "Resistor_SMD:R_0603_1608Metric_Pad0.98x0.95mm_HandSolder" V 7480 4600 50  0001 C CNN
F 3 "~" H 7550 4600 50  0001 C CNN
	1    7550 4600
	1    0    0    -1  
$EndComp
$Comp
L Device:R R28
U 1 1 6210F6B6
P 7900 4600
AR Path="/6206DF1F/62074DA4/6210F6B6" Ref="R28"  Part="1" 
AR Path="/6206DF1F/6226C822/6210F6B6" Ref="R57"  Part="1" 
AR Path="/6206DF1F/6226D696/6210F6B6" Ref="R65"  Part="1" 
AR Path="/6206DF1F/6226E77B/6210F6B6" Ref="R73"  Part="1" 
F 0 "R65" H 7970 4646 50  0000 L CNN
F 1 "270" H 7970 4555 50  0000 L CNN
F 2 "Resistor_SMD:R_0603_1608Metric_Pad0.98x0.95mm_HandSolder" V 7830 4600 50  0001 C CNN
F 3 "~" H 7900 4600 50  0001 C CNN
	1    7900 4600
	1    0    0    -1  
$EndComp
$EndSCHEMATC
