EESchema Schematic File Version 4
EELAYER 30 0
EELAYER END
$Descr A4 11693 8268
encoding utf-8
Sheet 2 15
Title "Power Supply"
Date ""
Rev ""
Comp "ECE445 Team 22"
Comment1 ""
Comment2 ""
Comment3 ""
Comment4 ""
$EndDescr
$Comp
L Connector_Generic:Conn_01x02 J1
U 1 1 62390FC0
P 2200 4050
F 0 "J1" H 2118 3725 50  0000 C CNN
F 1 "Conn_01x02" H 2118 3816 50  0000 C CNN
F 2 "Connector_Molex:Molex_KK-254_AE-6410-02A_1x02_P2.54mm_Vertical" H 2200 4050 50  0001 C CNN
F 3 "~" H 2200 4050 50  0001 C CNN
	1    2200 4050
	-1   0    0    1   
$EndComp
$Comp
L Regulator_Linear:NCP1117-5.0_TO252 U1
U 1 1 623923F3
P 4600 3950
F 0 "U1" H 4600 4192 50  0000 C CNN
F 1 "NCP1117-5.0_TO252" H 4600 4101 50  0000 C CNN
F 2 "Package_TO_SOT_SMD:TO-252-2" H 4600 4175 50  0001 C CNN
F 3 "http://www.onsemi.com/pub_link/Collateral/NCP1117-D.PDF" H 4600 3950 50  0001 C CNN
	1    4600 3950
	1    0    0    -1  
$EndComp
Wire Wire Line
	4900 3950 4950 3950
$Comp
L power:GND #PWR0101
U 1 1 62394669
P 4950 4650
F 0 "#PWR0101" H 4950 4400 50  0001 C CNN
F 1 "GND" H 4955 4477 50  0000 C CNN
F 2 "" H 4950 4650 50  0001 C CNN
F 3 "" H 4950 4650 50  0001 C CNN
	1    4950 4650
	1    0    0    -1  
$EndComp
$Comp
L power:GND #PWR0102
U 1 1 62394A9D
P 3250 4600
F 0 "#PWR0102" H 3250 4350 50  0001 C CNN
F 1 "GND" H 3255 4427 50  0000 C CNN
F 2 "" H 3250 4600 50  0001 C CNN
F 3 "" H 3250 4600 50  0001 C CNN
	1    3250 4600
	1    0    0    -1  
$EndComp
$Comp
L Device:C C1
U 1 1 62394F9A
P 4050 4200
F 0 "C1" H 4165 4246 50  0000 L CNN
F 1 "0.1u" H 4165 4155 50  0000 L CNN
F 2 "Capacitor_SMD:C_0603_1608Metric_Pad1.08x0.95mm_HandSolder" H 4088 4050 50  0001 C CNN
F 3 "~" H 4050 4200 50  0001 C CNN
	1    4050 4200
	1    0    0    -1  
$EndComp
$Comp
L Device:C C2
U 1 1 62395431
P 4950 4300
F 0 "C2" H 5065 4346 50  0000 L CNN
F 1 "0.1u" H 5065 4255 50  0000 L CNN
F 2 "Capacitor_SMD:C_0603_1608Metric_Pad1.08x0.95mm_HandSolder" H 4988 4150 50  0001 C CNN
F 3 "~" H 4950 4300 50  0001 C CNN
	1    4950 4300
	1    0    0    -1  
$EndComp
$Comp
L Device:C C3
U 1 1 623959A5
P 5700 4350
F 0 "C3" H 5815 4396 50  0000 L CNN
F 1 "0.1u" H 5815 4305 50  0000 L CNN
F 2 "Capacitor_SMD:C_0603_1608Metric_Pad1.08x0.95mm_HandSolder" H 5738 4200 50  0001 C CNN
F 3 "~" H 5700 4350 50  0001 C CNN
	1    5700 4350
	1    0    0    -1  
$EndComp
Wire Wire Line
	5500 3950 5700 3950
Wire Wire Line
	4950 4150 4950 3950
$Comp
L Device:C C4
U 1 1 623977F4
P 7450 4300
F 0 "C4" H 7565 4346 50  0000 L CNN
F 1 "0.1u" H 7565 4255 50  0000 L CNN
F 2 "Capacitor_SMD:C_0603_1608Metric_Pad1.08x0.95mm_HandSolder" H 7488 4150 50  0001 C CNN
F 3 "~" H 7450 4300 50  0001 C CNN
	1    7450 4300
	1    0    0    -1  
$EndComp
Wire Wire Line
	7450 4150 7450 3950
$Comp
L power:GND #PWR0103
U 1 1 62398501
P 5700 4650
F 0 "#PWR0103" H 5700 4400 50  0001 C CNN
F 1 "GND" H 5705 4477 50  0000 C CNN
F 2 "" H 5700 4650 50  0001 C CNN
F 3 "" H 5700 4650 50  0001 C CNN
	1    5700 4650
	1    0    0    -1  
$EndComp
Wire Wire Line
	4050 4050 4050 3950
Connection ~ 4050 3950
Wire Wire Line
	4050 3950 4300 3950
Wire Wire Line
	4050 4350 4050 4550
Wire Wire Line
	4050 4550 4600 4550
Wire Wire Line
	4950 4550 4950 4450
Connection ~ 4600 4550
Wire Wire Line
	4600 4550 4950 4550
Wire Wire Line
	4600 4250 4600 4550
Wire Wire Line
	4950 4550 4950 4650
Connection ~ 4950 4550
Wire Wire Line
	7450 4450 7450 4550
Connection ~ 5700 4550
Wire Wire Line
	5700 4550 5700 4650
$Comp
L power:+5V #PWR0104
U 1 1 6239E7BC
P 5700 3850
F 0 "#PWR0104" H 5700 3700 50  0001 C CNN
F 1 "+5V" H 5715 4023 50  0000 C CNN
F 2 "" H 5700 3850 50  0001 C CNN
F 3 "" H 5700 3850 50  0001 C CNN
	1    5700 3850
	1    0    0    -1  
$EndComp
$Comp
L power:+3V3 #PWR0105
U 1 1 6239F27B
P 7450 3800
F 0 "#PWR0105" H 7450 3650 50  0001 C CNN
F 1 "+3V3" H 7465 3973 50  0000 C CNN
F 2 "" H 7450 3800 50  0001 C CNN
F 3 "" H 7450 3800 50  0001 C CNN
	1    7450 3800
	1    0    0    -1  
$EndComp
$Comp
L power:+BATT #PWR0106
U 1 1 623A07B2
P 3950 3850
F 0 "#PWR0106" H 3950 3700 50  0001 C CNN
F 1 "+BATT" H 3965 4023 50  0000 C CNN
F 2 "" H 3950 3850 50  0001 C CNN
F 3 "" H 3950 3850 50  0001 C CNN
	1    3950 3850
	1    0    0    -1  
$EndComp
Wire Wire Line
	3950 3850 3950 3950
Connection ~ 3950 3950
Wire Wire Line
	3950 3950 4050 3950
Wire Wire Line
	5700 3850 5700 3950
Connection ~ 5700 3950
Wire Wire Line
	7450 3800 7450 3950
Connection ~ 7450 3950
Wire Wire Line
	2400 4050 2400 4500
Wire Wire Line
	3250 4250 3250 4500
$Comp
L power:+5V #PWR0107
U 1 1 623B063E
P 7850 3800
F 0 "#PWR0107" H 7850 3650 50  0001 C CNN
F 1 "+5V" H 7865 3973 50  0000 C CNN
F 2 "" H 7850 3800 50  0001 C CNN
F 3 "" H 7850 3800 50  0001 C CNN
	1    7850 3800
	1    0    0    -1  
$EndComp
$Comp
L Device:C C5
U 1 1 623B0F41
P 7850 4050
F 0 "C5" H 7965 4096 50  0000 L CNN
F 1 "10u" H 7965 4005 50  0000 L CNN
F 2 "Capacitor_THT:CP_Radial_D6.3mm_P2.50mm" H 7888 3900 50  0001 C CNN
F 3 "~" H 7850 4050 50  0001 C CNN
	1    7850 4050
	1    0    0    -1  
$EndComp
$Comp
L power:GND #PWR0108
U 1 1 623B14CD
P 7850 4300
F 0 "#PWR0108" H 7850 4050 50  0001 C CNN
F 1 "GND" H 7855 4127 50  0000 C CNN
F 2 "" H 7850 4300 50  0001 C CNN
F 3 "" H 7850 4300 50  0001 C CNN
	1    7850 4300
	1    0    0    -1  
$EndComp
$Comp
L power:+3V3 #PWR0109
U 1 1 623B1A37
P 8250 3800
F 0 "#PWR0109" H 8250 3650 50  0001 C CNN
F 1 "+3V3" H 8265 3973 50  0000 C CNN
F 2 "" H 8250 3800 50  0001 C CNN
F 3 "" H 8250 3800 50  0001 C CNN
	1    8250 3800
	1    0    0    -1  
$EndComp
$Comp
L Device:C C6
U 1 1 623B29D6
P 8250 4050
F 0 "C6" H 8365 4096 50  0000 L CNN
F 1 "10u" H 8365 4005 50  0000 L CNN
F 2 "Capacitor_THT:CP_Radial_D6.3mm_P2.50mm" H 8288 3900 50  0001 C CNN
F 3 "~" H 8250 4050 50  0001 C CNN
	1    8250 4050
	1    0    0    -1  
$EndComp
$Comp
L power:GND #PWR0110
U 1 1 623B29DC
P 8250 4300
F 0 "#PWR0110" H 8250 4050 50  0001 C CNN
F 1 "GND" H 8255 4127 50  0000 C CNN
F 2 "" H 8250 4300 50  0001 C CNN
F 3 "" H 8250 4300 50  0001 C CNN
	1    8250 4300
	1    0    0    -1  
$EndComp
Wire Wire Line
	7850 3800 7850 3900
Wire Wire Line
	8250 3800 8250 3900
Wire Wire Line
	8250 4200 8250 4300
Wire Wire Line
	7850 4200 7850 4300
$Comp
L Device:R R1
U 1 1 620D11EE
P 8700 3800
F 0 "R1" H 8770 3846 50  0000 L CNN
F 1 "270" H 8770 3755 50  0000 L CNN
F 2 "Resistor_SMD:R_0603_1608Metric_Pad0.98x0.95mm_HandSolder" V 8630 3800 50  0001 C CNN
F 3 "~" H 8700 3800 50  0001 C CNN
	1    8700 3800
	1    0    0    -1  
$EndComp
$Comp
L Device:LED D1
U 1 1 620D1D3D
P 8700 4150
F 0 "D1" V 8739 4032 50  0000 R CNN
F 1 "LED" V 8648 4032 50  0000 R CNN
F 2 "LED_SMD:LED_0603_1608Metric_Pad1.05x0.95mm_HandSolder" H 8700 4150 50  0001 C CNN
F 3 "~" H 8700 4150 50  0001 C CNN
	1    8700 4150
	0    -1   -1   0   
$EndComp
$Comp
L power:GND #PWR0111
U 1 1 620D2B56
P 8700 4350
F 0 "#PWR0111" H 8700 4100 50  0001 C CNN
F 1 "GND" H 8705 4177 50  0000 C CNN
F 2 "" H 8700 4350 50  0001 C CNN
F 3 "" H 8700 4350 50  0001 C CNN
	1    8700 4350
	1    0    0    -1  
$EndComp
Wire Wire Line
	8700 4300 8700 4350
Wire Wire Line
	8700 3950 8700 4000
$Comp
L CustomParts:XC6227C331PR U2
U 1 1 620D9BEA
P 6500 4050
F 0 "U2" H 6500 4417 50  0000 C CNN
F 1 "XC6227C331PR" H 6500 4326 50  0000 C CNN
F 2 "Package_TO_SOT_SMD:SOT-23-5" H 6500 4050 50  0001 C CNN
F 3 "https://www.torexsemi.com/file/xc6220/XC6220.pdf" H 7250 3050 50  0001 C CNN
	1    6500 4050
	1    0    0    -1  
$EndComp
Wire Wire Line
	5700 4550 6500 4550
Wire Wire Line
	6500 4450 6500 4550
Connection ~ 6500 4550
Wire Wire Line
	6500 4550 7450 4550
Wire Wire Line
	7000 3950 7450 3950
Wire Wire Line
	5700 4150 6000 4150
Wire Wire Line
	5500 4150 5700 4150
Wire Wire Line
	5500 3950 5500 4150
Connection ~ 5700 4150
Wire Wire Line
	5700 4500 5700 4550
Wire Wire Line
	5700 4150 5700 4200
$Comp
L power:+3V3 #PWR0112
U 1 1 620F62D7
P 8700 3600
F 0 "#PWR0112" H 8700 3450 50  0001 C CNN
F 1 "+3V3" H 8715 3773 50  0000 C CNN
F 2 "" H 8700 3600 50  0001 C CNN
F 3 "" H 8700 3600 50  0001 C CNN
	1    8700 3600
	1    0    0    -1  
$EndComp
Wire Wire Line
	8700 3600 8700 3650
Wire Wire Line
	5700 3950 6000 3950
Wire Wire Line
	5500 3950 4950 3950
Connection ~ 5500 3950
Connection ~ 4950 3950
$Comp
L CustomParts:DMP2066LSN-7 Q1
U 1 1 6219CE05
P 3250 4050
F 0 "Q1" V 3592 4050 50  0000 C CNN
F 1 "DMP2123L-7‎" V 3501 4050 50  0000 C CNN
F 2 "Package_TO_SOT_SMD:SOT-23" H 3450 3975 50  0001 L CIN
F 3 "https://www.diodes.com/assets/Datasheets/ds31440.pdf" H 3250 4050 50  0001 L CNN
	1    3250 4050
	0    -1   -1   0   
$EndComp
$Comp
L Device:Polyfuse F1
U 1 1 6213F5CE
P 2700 3950
F 0 "F1" V 2475 3950 50  0000 C CNN
F 1 "1A" V 2566 3950 50  0000 C CNN
F 2 "Fuse:Fuse_1206_3216Metric_Pad1.42x1.75mm_HandSolder" H 2750 3750 50  0001 L CNN
F 3 "~" H 2700 3950 50  0001 C CNN
	1    2700 3950
	0    1    1    0   
$EndComp
Wire Wire Line
	2400 3950 2550 3950
Wire Wire Line
	2850 3950 3050 3950
Wire Wire Line
	2400 4500 3250 4500
Wire Wire Line
	3450 3950 3950 3950
Wire Wire Line
	3250 4500 3250 4600
Connection ~ 3250 4500
$EndSCHEMATC
