EESchema Schematic File Version 4
EELAYER 30 0
EELAYER END
$Descr A4 11693 8268
encoding utf-8
Sheet 5 15
Title ""
Date ""
Rev ""
Comp "ECE445 Team 22"
Comment1 ""
Comment2 ""
Comment3 ""
Comment4 ""
$EndDescr
Text HLabel 6650 3100 2    50   Output ~ 0
ENC_B
Text HLabel 6650 3000 2    50   Output ~ 0
ENC_A
$Comp
L power:GND #PWR0151
U 1 1 6209ACD7
P 5850 3700
AR Path="/6206DF1F/62074D7E/6209ACD7" Ref="#PWR0151"  Part="1" 
AR Path="/6206DF1F/62235DB0/6209ACD7" Ref="#PWR0171"  Part="1" 
AR Path="/6206DF1F/62235EB6/6209ACD7" Ref="#PWR0180"  Part="1" 
AR Path="/6206DF1F/62235FCF/6209ACD7" Ref="#PWR0189"  Part="1" 
F 0 "#PWR0189" H 5850 3450 50  0001 C CNN
F 1 "GND" H 5855 3527 50  0000 C CNN
F 2 "" H 5850 3700 50  0001 C CNN
F 3 "" H 5850 3700 50  0001 C CNN
	1    5850 3700
	-1   0    0    -1  
$EndComp
$Comp
L Device:R R14
U 1 1 6209B540
P 5950 2650
AR Path="/6206DF1F/62074D7E/6209B540" Ref="R14"  Part="1" 
AR Path="/6206DF1F/62235DB0/6209B540" Ref="R29"  Part="1" 
AR Path="/6206DF1F/62235EB6/6209B540" Ref="R36"  Part="1" 
AR Path="/6206DF1F/62235FCF/6209B540" Ref="R43"  Part="1" 
F 0 "R14" H 6020 2696 50  0000 L CNN
F 1 "10k" H 6020 2605 50  0000 L CNN
F 2 "Resistor_SMD:R_0603_1608Metric_Pad0.98x0.95mm_HandSolder" V 5880 2650 50  0001 C CNN
F 3 "~" H 5950 2650 50  0001 C CNN
	1    5950 2650
	-1   0    0    -1  
$EndComp
$Comp
L Device:R R15
U 1 1 6209BECB
P 6300 2650
AR Path="/6206DF1F/62074D7E/6209BECB" Ref="R15"  Part="1" 
AR Path="/6206DF1F/62235DB0/6209BECB" Ref="R30"  Part="1" 
AR Path="/6206DF1F/62235EB6/6209BECB" Ref="R37"  Part="1" 
AR Path="/6206DF1F/62235FCF/6209BECB" Ref="R44"  Part="1" 
F 0 "R15" H 6370 2696 50  0000 L CNN
F 1 "10k" H 6370 2605 50  0000 L CNN
F 2 "Resistor_SMD:R_0603_1608Metric_Pad0.98x0.95mm_HandSolder" V 6230 2650 50  0001 C CNN
F 3 "~" H 6300 2650 50  0001 C CNN
	1    6300 2650
	-1   0    0    -1  
$EndComp
$Comp
L power:+3V3 #PWR0152
U 1 1 6209C539
P 5950 2400
AR Path="/6206DF1F/62074D7E/6209C539" Ref="#PWR0152"  Part="1" 
AR Path="/6206DF1F/62235DB0/6209C539" Ref="#PWR0172"  Part="1" 
AR Path="/6206DF1F/62235EB6/6209C539" Ref="#PWR0181"  Part="1" 
AR Path="/6206DF1F/62235FCF/6209C539" Ref="#PWR0190"  Part="1" 
F 0 "#PWR0190" H 5950 2250 50  0001 C CNN
F 1 "+3V3" H 5965 2573 50  0000 C CNN
F 2 "" H 5950 2400 50  0001 C CNN
F 3 "" H 5950 2400 50  0001 C CNN
	1    5950 2400
	-1   0    0    -1  
$EndComp
$Comp
L power:+3V3 #PWR0153
U 1 1 6209CD5B
P 6300 2400
AR Path="/6206DF1F/62074D7E/6209CD5B" Ref="#PWR0153"  Part="1" 
AR Path="/6206DF1F/62235DB0/6209CD5B" Ref="#PWR0173"  Part="1" 
AR Path="/6206DF1F/62235EB6/6209CD5B" Ref="#PWR0182"  Part="1" 
AR Path="/6206DF1F/62235FCF/6209CD5B" Ref="#PWR0191"  Part="1" 
F 0 "#PWR0191" H 6300 2250 50  0001 C CNN
F 1 "+3V3" H 6315 2573 50  0000 C CNN
F 2 "" H 6300 2400 50  0001 C CNN
F 3 "" H 6300 2400 50  0001 C CNN
	1    6300 2400
	-1   0    0    -1  
$EndComp
$Comp
L Device:C C17
U 1 1 6209D466
P 6400 3400
AR Path="/6206DF1F/62074D7E/6209D466" Ref="C17"  Part="1" 
AR Path="/6206DF1F/62235DB0/6209D466" Ref="C20"  Part="1" 
AR Path="/6206DF1F/62235EB6/6209D466" Ref="C22"  Part="1" 
AR Path="/6206DF1F/62235FCF/6209D466" Ref="C24"  Part="1" 
F 0 "C17" H 6515 3446 50  0000 L CNN
F 1 "0.1u" H 6515 3355 50  0000 L CNN
F 2 "Capacitor_SMD:C_0603_1608Metric_Pad1.08x0.95mm_HandSolder" H 6438 3250 50  0001 C CNN
F 3 "~" H 6400 3400 50  0001 C CNN
	1    6400 3400
	-1   0    0    -1  
$EndComp
Connection ~ 6300 3200
$Comp
L Device:C C16
U 1 1 620A3E1D
P 5850 3400
AR Path="/6206DF1F/62074D7E/620A3E1D" Ref="C16"  Part="1" 
AR Path="/6206DF1F/62235DB0/620A3E1D" Ref="C19"  Part="1" 
AR Path="/6206DF1F/62235EB6/620A3E1D" Ref="C21"  Part="1" 
AR Path="/6206DF1F/62235FCF/620A3E1D" Ref="C23"  Part="1" 
F 0 "C16" H 5965 3446 50  0000 L CNN
F 1 "0.1u" H 5965 3355 50  0000 L CNN
F 2 "Capacitor_SMD:C_0603_1608Metric_Pad1.08x0.95mm_HandSolder" H 5888 3250 50  0001 C CNN
F 3 "~" H 5850 3400 50  0001 C CNN
	1    5850 3400
	-1   0    0    -1  
$EndComp
Wire Wire Line
	5850 3000 5850 3250
$Comp
L power:GND #PWR0154
U 1 1 620A44C7
P 6400 3700
AR Path="/6206DF1F/62074D7E/620A44C7" Ref="#PWR0154"  Part="1" 
AR Path="/6206DF1F/62235DB0/620A44C7" Ref="#PWR0174"  Part="1" 
AR Path="/6206DF1F/62235EB6/620A44C7" Ref="#PWR0183"  Part="1" 
AR Path="/6206DF1F/62235FCF/620A44C7" Ref="#PWR0192"  Part="1" 
F 0 "#PWR0192" H 6400 3450 50  0001 C CNN
F 1 "GND" H 6405 3527 50  0000 C CNN
F 2 "" H 6400 3700 50  0001 C CNN
F 3 "" H 6400 3700 50  0001 C CNN
	1    6400 3700
	-1   0    0    -1  
$EndComp
$Comp
L power:GND #PWR0155
U 1 1 620A4778
P 6050 3700
AR Path="/6206DF1F/62074D7E/620A4778" Ref="#PWR0155"  Part="1" 
AR Path="/6206DF1F/62235DB0/620A4778" Ref="#PWR0175"  Part="1" 
AR Path="/6206DF1F/62235EB6/620A4778" Ref="#PWR0184"  Part="1" 
AR Path="/6206DF1F/62235FCF/620A4778" Ref="#PWR0193"  Part="1" 
F 0 "#PWR0193" H 6050 3450 50  0001 C CNN
F 1 "GND" H 6055 3527 50  0000 C CNN
F 2 "" H 6050 3700 50  0001 C CNN
F 3 "" H 6050 3700 50  0001 C CNN
	1    6050 3700
	-1   0    0    -1  
$EndComp
Wire Wire Line
	6050 3100 6050 3700
Wire Wire Line
	6300 2800 6300 3200
Wire Wire Line
	5850 3000 5950 3000
Wire Wire Line
	5950 3000 5950 2800
Connection ~ 5850 3000
Wire Wire Line
	6300 3200 6400 3200
Wire Wire Line
	6400 3200 6400 3250
Wire Wire Line
	5850 3550 5850 3700
Wire Wire Line
	6400 3550 6400 3700
Wire Wire Line
	5950 2400 5950 2500
Wire Wire Line
	6300 2400 6300 2500
Wire Wire Line
	5300 3100 6050 3100
Wire Wire Line
	5300 3200 6300 3200
Wire Wire Line
	6400 3200 6400 3100
Connection ~ 6400 3200
Wire Wire Line
	6400 3100 6650 3100
Wire Wire Line
	5950 3000 6650 3000
Connection ~ 5950 3000
$Comp
L Device:Rotary_Encoder SW5
U 1 1 6219E3E3
P 5000 3100
AR Path="/6206DF1F/62235DB0/6219E3E3" Ref="SW5"  Part="1" 
AR Path="/6206DF1F/62074D7E/6219E3E3" Ref="SW4"  Part="1" 
AR Path="/6206DF1F/62235EB6/6219E3E3" Ref="SW6"  Part="1" 
AR Path="/6206DF1F/62235FCF/6219E3E3" Ref="SW7"  Part="1" 
F 0 "SW4" H 4943 3467 50  0000 C CNN
F 1 "PEC11R-4120K-S0018" H 4943 3376 50  0000 C CNN
F 2 "CustomParts:Encoder_TT_EN12-HN" H 4850 3260 50  0001 C CNN
F 3 "https://www.bourns.com/docs/Product-Datasheets/PEC11R.pdf" H 5000 3360 50  0001 C CNN
F 4 "PEC11R-4120K-S0018" H 5000 2800 50  0001 C CNN "MPN"
	1    5000 3100
	-1   0    0    -1  
$EndComp
Wire Wire Line
	5300 3000 5850 3000
$EndSCHEMATC
