<?xml version="1.0" encoding="UTF-8" ?>
<symbol xmlns="http://www.asahi-kasei.co.jp/akemd/akx77/symbol">

<fig	wh="80,40">
	<pin.i	pp="0,10,10,10"/>
	<pin.i	pp="0,30,10,30"/>

	<rect	rc="10, 0,60,40"	fill="b" p="2"	/>

	<rect	rc="14, 5,52,30"	fill="b"/>
	<c	xy="27,22" r="11"	fill="b"/>
	<c	xy="53,22" r="11"	fill="b"/>
	<line	pp="34, 8,27,25"/>
	<line	pp="60, 7,53,24"/>
	<line	pp="40, 5,40,35"/>

	<rect	rc="14,22,52,13"	fill="b"/>
	<font	/>
	<text	xy="31,23" 	t="RMS"/>

	<name	d="10,0 40,-3 70,0 -5,20 x 85,20 10,40 40,43 70,40"/>
	<err	/>
</fig>

</symbol>
