<?xml version="1.0" encoding="UTF-8" ?>
<x:symbol xmlns:x="http://www.asahi-kasei.co.jp/akemd/akx/symbol">
	<x:base w="50" h="80"/>
	<x:polygon fill="b" p="2">
		<x:point x="10" y="0"/>
		<x:point x="40" y="0"/>
		<x:point x="40" y="80"/>
		<x:point x="10" y="80"/>
	</x:polygon>
	<x:poly	d="m 16,37 16,36 22,36 16,45 22,45 23,43"/>
	<x:line	pp="25,36,28,36"/>
	<x:poly	d="m 31,40 31,34 35,39 35,33"/>
	<x:pin type="in" x1="0" x2="10" y1="10" y2="10"/>
	<x:pin type="in" x1="0" x2="10" y1="30" y2="30"/>
	<x:pin type="in" x1="0" x2="10" y1="50" y2="50"/>
	<x:pin type="in" x1="0" x2="10" y1="70" y2="70"/>
	<x:pin type="out" x1="50" x2="40" y1="10" y2="10"/>
	<x:pin type="out" x1="50" x2="40" y1="30" y2="30"/>
	<x:pin type="out" x1="50" x2="40" y1="50" y2="50"/>
	<x:pin type="out" x1="50" x2="40" y1="70" y2="70"/>
</x:symbol>
