<?xml version="1.0" encoding="UTF-8" ?>
<symbol xmlns="http://www.asahi-kasei.co.jp/akemd/akx77/symbol">

<fig wh="160,80">
	<pin.i	pp="0,40,10,40"/>
	<pin.o	pp="160,20,150,20"/>
	<pin.o	pp="160,60,150,60"/>
	<pin.o	pp="160,40,150,40"/>

	<poly	d="m 20,25 20,20 25,15 88,15"/>
	<poly	d="m 40,25 40,20 45,15"/>
	<poly	d="m 60,25 60,20 65,15"/>
	<line	pp="80,40,150,40"/>
	<poly	d="m 20,55 20,60 25,65 88,65"/>
	<poly	d="m 40,55 40,60 45,65"/>
	<poly	d="m 60,55 60,60 65,65"/>

	<poly	d="m 25,15 88,15 90,13 90,10"	p="2"/>
	<poly	d="m 88,15 90,17 90,30"	p="2"/>

	<poly	d="m 25,65 88,65 90,63 90,50"	p="2"/>
	<poly	d="m 88,65 90,67 90,70"	p="2"/>

	<poly	d="m 90,13 90,10 137,10 142,20"/>
	<line	pp="90,20,142,20"/>
	<poly	d="m 90,17 90,30 137,30 142,20"/>
	<c	xy="142,20" r="8" fill="b"/>

	<poly	d="m 90,63 90,50 137,50 142,60"/>
	<line	pp="90,60,142,60"/>
	<poly	d="m 90,67 90,70 137,70 142,60"/>
	<c	xy="142,60" r="8" fill="b"/>

	<c	xy="102,10" r="5" fill="b"/>
	<line	pp="95,17,109,3"/>
	<poly	fill="f"	d="m 110,2 109,6 106,3"/>

	<c	xy="122,20" r="5" fill="b"/>
	<line	pp="115,27,129,13"/>
	<poly	fill="f"	d="m 130,12 129,16 126,13"/>

	<c	xy="102,30" r="5" fill="b"/>
	<line	pp="95,37,109,23"/>
	<poly	fill="f"	d="m 110,22 109,26 106,23"/>

	<c	xy="122,40" r="5" fill="b"/>
	<line	pp="115,47,129,33"/>
	<poly	fill="f"	d="m 130,32 129,36 126,33"/>

	<c	xy="102,50" r="5" fill="b"/>
	<line	pp="95,57,109,43"/>
	<poly	fill="f"	d="m 110,42 109,46 106,43"/>

	<c	xy="122,60" r="5" fill="b"/>
	<line	pp="115,67,129,53"/>
	<poly	fill="f"	d="m 130,52 129,56 126,53"/>

	<c	xy="102,70" r="5" fill="b"/>
	<line	pp="95,77,109,63"/>
	<poly	fill="f"	d="m 110,62 109,66 106,63"/>

	<line	pp="142,15,142,25" p="3"/>
	<line	pp="137,20,147,20" p="3"/>
	<line	pp="142,55,142,65" p="3"/>
	<line	pp="137,60,147,60" p="3"/>

	<rect	rc="10,25,70,30"	fill="b"	p="2"	/>

	<font	/>
	<text xy="18,26"	t="1"/>
	<text xy="38,26"	t="2"/>
	<text xy="58,26"	t="3"/>
	<text xy="72,34"	t="4"/>
	<text xy="18,44"	t="5"/>
	<text xy="38,44"	t="6"/>
	<text xy="58,44"	t="7"/>

	<text xy="152,9"	t="1"/>
	<text xy="152,29"	t="3"/>
	<text xy="152,49"	t="2"/>

	<name	d="10,25 80,0 150,10 -5,40 x 165,40 10,55 80,80 150,65"/>
	<err	/>
</fig>

</symbol>
