M48
; DRILL file {KiCad 6.0.3-a3aad9c10e~116~ubuntu20.04.1} date Thu 31 Mar 2022 04:04:01 PM CDT
; FORMAT={-:-/ absolute / inch / decimal}
; #@! TF.CreationDate,2022-03-31T16:04:01-05:00
; #@! TF.GenerationSoftware,Kicad,Pcbnew,6.0.3-a3aad9c10e~116~ubuntu20.04.1
; #@! TF.FileFunction,Plated,1,2,PTH
FMAT,2
INCH
; #@! TA.AperFunction,Plated,PTH,ViaDrill
T1C0.0157
; #@! TA.AperFunction,Plated,PTH,ComponentDrill
T2C0.0197
; #@! TA.AperFunction,Plated,PTH,ComponentDrill
T3C0.0256
; #@! TA.AperFunction,Plated,PTH,ComponentDrill
T4C0.0300
; #@! TA.AperFunction,Plated,PTH,ComponentDrill
T5C0.0315
; #@! TA.AperFunction,Plated,PTH,ComponentDrill
T6C0.0394
; #@! TA.AperFunction,Plated,PTH,ComponentDrill
T7C0.0469
; #@! TA.AperFunction,Plated,PTH,ComponentDrill
T8C0.0472
; #@! TA.AperFunction,Plated,PTH,ComponentDrill
T9C0.0709
%
G90
G05
T1
X3.302Y-3.004
X3.657Y-4.986
X3.662Y-3.636
X3.662Y-4.206
X3.662Y-4.746
X3.667Y-2.921
X3.87Y-3.534
X3.908Y-2.988
X3.92Y-4.108
X4.107Y-4.651
X4.127Y-3.036
X4.127Y-4.111
X4.132Y-5.006
X4.177Y-3.536
X4.182Y-5.046
X4.232Y-4.4573
X4.232Y-4.581
X4.247Y-3.931
X4.247Y-4.016
X4.247Y-5.006
X4.257Y-3.396
X4.257Y-3.506
X4.307Y-5.051
X4.3972Y-4.4297
X4.412Y-4.976
X4.422Y-3.896
X4.422Y-4.561
X4.432Y-2.971
X4.432Y-3.356
X4.432Y-3.486
X4.432Y-4.036
X4.477Y-2.936
X4.522Y-4.436
X4.532Y-2.901
X4.532Y-3.356
X4.532Y-3.906
X4.532Y-4.976
X4.572Y-4.396
X4.582Y-3.316
X4.582Y-3.866
X4.582Y-4.931
X4.597Y-3.521
X4.597Y-4.051
X4.597Y-4.226
X4.602Y-4.591
X4.622Y-4.436
X4.632Y-3.346
X4.632Y-3.906
X4.632Y-4.976
X4.662Y-3.306
X4.672Y-4.396
X4.6769Y-3.8661
X4.682Y-2.871
X4.682Y-4.946
X4.732Y-2.8434
X4.732Y-3.326
X4.732Y-4.406
X4.732Y-4.981
X4.7332Y-3.906
X4.772Y-4.436
X4.782Y-3.336
X4.782Y-3.906
X4.792Y-4.946
X4.822Y-4.436
X4.832Y-3.336
X4.832Y-3.906
X4.837Y-4.981
X4.967Y-3.006
X5.002Y-4.611
X5.017Y-3.526
X5.017Y-4.066
X5.137Y-5.021
X5.177Y-4.491
X5.192Y-4.176
X5.196Y-4.92
X5.322Y-4.016
X5.342Y-3.766
X5.352Y-3.426
X5.362Y-2.966
X5.376Y-4.958
X5.397Y-3.261
X5.4243Y-3.6918
X5.467Y-3.726
X5.474Y-3.28
X5.482Y-3.451
X5.486Y-3.012
X5.522Y-3.766
X5.5452Y-4.8032
X5.5671Y-5.0461
X5.5679Y-5.0064
X5.592Y-5.111
X5.602Y-3.366
X5.612Y-3.156
X5.612Y-4.778
X5.617Y-5.221
X5.632Y-3.496
X5.632Y-4.006
X5.632Y-4.256
X5.642Y-3.866
X5.647Y-3.326
X5.662Y-3.926
X5.672Y-3.716
X5.682Y-3.796
X5.692Y-3.836
X5.702Y-3.256
X5.718Y-4.5435
X5.762Y-5.006
X5.762Y-5.046
X5.767Y-3.716
X5.777Y-3.396
X5.782Y-3.8834
X5.782Y-3.946
X5.797Y-3.796
X5.807Y-3.716
X5.8207Y-3.9386
X5.822Y-3.496
X5.832Y-3.841
X5.848Y-4.026
X5.8596Y-3.7947
X5.86Y-3.9386
X5.8766Y-3.153
X5.8805Y-4.416
X5.892Y-3.716
X5.9196Y-4.411
X5.932Y-3.716
X5.957Y-4.036
X5.962Y-3.786
X5.962Y-3.986
X5.967Y-3.946
X5.976Y-4.158
X5.976Y-4.228
X6.057Y-3.516
X6.082Y-3.696
X6.112Y-3.874
X6.152Y-3.736
X6.157Y-3.836
X6.167Y-3.631
X6.189Y-3.869
X6.222Y-3.7584
X6.2515Y-3.8215
X6.2915Y-3.7315
X6.322Y-3.386
X6.512Y-3.891
X6.582Y-3.921
X6.617Y-3.786
X6.842Y-4.051
X6.902Y-4.046
X6.907Y-3.346
X6.941Y-5.111
X6.947Y-3.8384
X6.982Y-3.416
X7.042Y-3.796
X7.047Y-5.111
X7.067Y-4.116
X7.072Y-3.076
X7.087Y-3.8184
X7.0979Y-3.3165
X7.112Y-3.596
X7.112Y-3.696
X7.117Y-3.476
X7.127Y-3.906
X7.182Y-5.111
X7.192Y-4.961
X7.2319Y-3.725
X7.252Y-3.411
X7.292Y-3.696
X7.332Y-3.431
X7.362Y-4.006
X7.377Y-3.076
X7.392Y-3.396
X7.392Y-5.111
X7.3975Y-3.9315
X7.437Y-4.021
X7.442Y-3.516
X7.452Y-3.846
X7.522Y-3.766
X7.5555Y-5.111
X7.572Y-3.316
X7.582Y-3.696
X7.637Y-5.116
X7.642Y-3.026
X7.762Y-4.021
X7.787Y-3.501
X7.787Y-3.681
X7.827Y-3.536
X7.832Y-4.961
X8.182Y-4.406
T2
X6.228Y-5.232
X6.42Y-5.234
X6.586Y-5.234
X7.87Y-3.638
T3
X5.728Y-4.226
X5.728Y-4.276
X5.728Y-4.326
X5.728Y-4.376
X5.728Y-4.426
X5.778Y-4.226
X5.778Y-4.276
X5.778Y-4.326
X5.778Y-4.376
X5.778Y-4.426
T4
X8.082Y-2.8555
X8.082Y-4.076
T5
X5.8996Y-4.564
X5.998Y-4.564
X6.498Y-4.984
X6.498Y-5.0824
T6
X3.2461Y-3.0926
X3.2461Y-3.2894
X3.2461Y-4.7726
X3.2461Y-4.9694
X3.2472Y-3.6526
X3.2472Y-3.8494
X3.2472Y-4.2126
X3.2472Y-4.4094
X3.817Y-3.0926
X3.817Y-3.191
X3.817Y-3.2894
X3.817Y-4.7726
X3.817Y-4.871
X3.817Y-4.9694
X3.818Y-3.6526
X3.818Y-3.751
X3.818Y-3.8494
X3.818Y-4.2126
X3.818Y-4.311
X3.818Y-4.4094
T7
X5.602Y-3.026
X5.702Y-3.026
X5.842Y-5.206
X5.862Y-3.026
X5.942Y-5.206
X5.962Y-3.026
X8.252Y-4.196
X8.252Y-4.296
X8.252Y-4.516
X8.252Y-4.616
X8.252Y-4.716
X8.252Y-4.816
X8.252Y-4.916
T8
X6.732Y-2.926
X6.822Y-4.296
X6.822Y-5.2803
X7.142Y-4.296
X7.142Y-5.2803
X7.442Y-4.296
X7.442Y-5.2803
X7.7163Y-2.926
X7.742Y-4.296
X7.742Y-5.2803
T9
G00X3.5375Y-2.9705
M15
G01X3.506Y-2.9705
M16
G05
G00X3.5375Y-3.4115
M15
G01X3.506Y-3.4115
M16
G05
G00X3.5375Y-4.6505
M15
G01X3.506Y-4.6505
M16
G05
G00X3.5375Y-5.0915
M15
G01X3.506Y-5.0915
M16
G05
G00X3.5385Y-3.5305
M15
G01X3.507Y-3.5305
M16
G05
G00X3.5385Y-3.9715
M15
G01X3.507Y-3.9715
M16
G05
G00X3.5385Y-4.0905
M15
G01X3.507Y-4.0905
M16
G05
G00X3.5385Y-4.5315
M15
G01X3.507Y-4.5315
M16
G05
T0
M30
